<?xml version="1.0" encoding="utf-8"?>
<!-- Generator: Adobe Illustrator 23.0.3, SVG Export Plug-In . SVG Version: 6.00 Build 0)  -->
<svg version="1.1" id="Capa_1" xmlns="http://www.w3.org/2000/svg" xmlns:xlink="http://www.w3.org/1999/xlink" x="0px" y="0px"
	 viewBox="0 0 362 478" style="enable-background:new 0 0 362 478;" xml:space="preserve">
<style type="text/css">
	.st0{fill:#3E7894;}
</style>
<polygon class="st0" points="354.5,86.5 269.5,86.5 269.5,1.5 "/>
<path class="st0" d="M265.98,104.5c-7.44,0-13.48-6.03-13.48-13.48V0H18.3C8.2,0,0,8.2,0,18.3V459.7C0,469.8,8.2,478,18.3,478H343.7
	c10.11,0,18.3-8.2,18.3-18.3V104.5H265.98z M88.5,411.5c-9.39,0-17-7.61-17-17s7.61-17,17-17s17,7.61,17,17S97.89,411.5,88.5,411.5z
	 M88.5,331.5c-9.39,0-17-7.61-17-17s7.61-17,17-17s17,7.61,17,17S97.89,331.5,88.5,331.5z M88.5,251.5c-9.39,0-17-7.61-17-17
	s7.61-17,17-17s17,7.61,17,17S97.89,251.5,88.5,251.5z M88.5,171.5c-9.39,0-17-7.61-17-17s7.61-17,17-17s17,7.61,17,17
	S97.89,171.5,88.5,171.5z M294.5,394.72c0,3.99-3.23,7.22-7.22,7.22H151.72c-3.99,0-7.22-3.23-7.22-7.22v0
	c0-3.99,3.23-7.22,7.22-7.22h135.57C291.27,387.5,294.5,390.73,294.5,394.72L294.5,394.72z M294.5,314.72
	c0,3.99-3.23,7.22-7.22,7.22H151.72c-3.99,0-7.22-3.23-7.22-7.22v0c0-3.99,3.23-7.22,7.22-7.22h135.57
	C291.27,307.5,294.5,310.73,294.5,314.72L294.5,314.72z M294.5,234.72c0,3.99-3.23,7.22-7.22,7.22H151.72
	c-3.99,0-7.22-3.23-7.22-7.22v0c0-3.99,3.23-7.22,7.22-7.22h135.57C291.27,227.5,294.5,230.73,294.5,234.72L294.5,234.72z
	 M294.5,154.72c0,3.99-3.23,7.22-7.22,7.22H151.72c-3.99,0-7.22-3.23-7.22-7.22v0c0-3.99,3.23-7.22,7.22-7.22h135.57
	C291.27,147.5,294.5,150.73,294.5,154.72L294.5,154.72z"/>
</svg>
