<?xml version="1.0" encoding="utf-8"?>
<!-- Generator: Adobe Illustrator 24.0.1, SVG Export Plug-In . SVG Version: 6.00 Build 0)  -->
<svg version="1.1" id="Layer_1" xmlns="http://www.w3.org/2000/svg" xmlns:xlink="http://www.w3.org/1999/xlink" x="0px" y="0px"
	 viewBox="0 0 393 293" style="enable-background:new 0 0 393 293;" xml:space="preserve">
<style type="text/css">
	.st0{fill:url(#SVGID_1_);}
	.st1{fill:#FFFFFF;}
	.st2{fill:#8CC63F;}
	.st3{fill:#FF6600;}
</style>
<linearGradient id="SVGID_1_" gradientUnits="userSpaceOnUse" x1="197.1956" y1="69.5" x2="197.1956" y2="225.5">
	<stop  offset="0" style="stop-color:#5080B1"/>
	<stop  offset="0.1178" style="stop-color:#477DAE"/>
	<stop  offset="0.3137" style="stop-color:#2D73A7"/>
	<stop  offset="0.5621" style="stop-color:#04649C"/>
	<stop  offset="0.5843" style="stop-color:#00639B"/>
	<stop  offset="1" style="stop-color:#004E8C"/>
</linearGradient>
<circle class="st0" cx="197.2" cy="147.5" r="78"/>
<g>
	<path class="st1" d="M149.64,137.27c0.96-0.21,2.26-0.34,3.56-0.34c2.03,0,3.61,0.29,4.76,1.35c1.04,0.91,1.51,2.37,1.51,3.85
		c0,1.9-0.57,3.22-1.48,4.21c-1.09,1.14-2.86,1.66-4.26,1.66c-0.23,0-0.47,0-0.68,0v6.53h-3.41V137.27z M153.05,145.23
		c0.16,0.05,0.34,0.05,0.55,0.05c1.72,0,2.5-1.22,2.5-2.86c0-1.53-0.62-2.73-2.21-2.73c-0.31,0-0.62,0.05-0.83,0.13V145.23z"/>
	<path class="st1" d="M171.87,145.46c0,6.6-2.34,9.28-5.67,9.28c-3.98,0-5.54-4.21-5.54-9.02c0-4.78,1.9-8.92,5.77-8.92
		C170.68,136.8,171.87,141.46,171.87,145.46z M164.2,145.77c0,3.98,0.75,6.01,2.13,6.01c1.43,0,1.98-2.6,1.98-6.16
		c0-3.07-0.47-5.85-2-5.85C164.96,139.77,164.2,142,164.2,145.77z"/>
	<path class="st1" d="M174.03,137.27c1.04-0.23,2.39-0.34,3.87-0.34c1.64,0,3.22,0.21,4.45,1.25c0.94,0.78,1.33,1.95,1.33,3.17
		c0,1.56-0.81,3.07-2.55,3.82v0.1c2.03,0.57,3.12,2.26,3.12,4.19c0,1.46-0.47,2.57-1.3,3.43c-1.04,1.14-2.81,1.77-5.75,1.77
		c-1.3,0-2.39-0.08-3.17-0.18V137.27z M177.44,144.21h0.73c1.22,0,2.16-1.04,2.16-2.47c0-1.27-0.6-2.26-2-2.26
		c-0.36,0-0.68,0.03-0.88,0.1V144.21z M177.44,151.99c0.21,0.05,0.44,0.05,0.75,0.05c1.38,0,2.52-0.83,2.52-2.63
		c0-1.74-1.2-2.65-2.55-2.68h-0.73V151.99z"/>
	<path class="st1" d="M186.59,137.01H190v14.64h4.5v2.89h-7.9V137.01z"/>
	<path class="st1" d="M199.46,150.53l-0.78,4h-3.3l3.8-17.52h4.08l3.41,17.52h-3.3l-0.75-4H199.46z M202.29,147.88l-0.57-3.67
		c-0.18-1.07-0.42-2.81-0.57-3.98h-0.08c-0.18,1.17-0.44,2.99-0.62,4l-0.65,3.64H202.29z"/>
	<path class="st1" d="M216.57,154.28c-0.49,0.23-1.46,0.42-2.65,0.42c-4.47,0-6.6-3.69-6.6-8.66c0-6.6,3.67-9.18,7.07-9.18
		c1.2,0,2.03,0.23,2.37,0.47l-0.57,2.86c-0.39-0.18-0.83-0.34-1.59-0.34c-1.92,0-3.67,1.66-3.67,6.01c0,4.19,1.59,5.82,3.67,5.82
		c0.57,0,1.22-0.13,1.64-0.26L216.57,154.28z"/>
	<path class="st1" d="M221.85,137.01v17.52h-3.41v-17.52H221.85z"/>
	<path class="st1" d="M235.23,145.46c0,6.6-2.34,9.28-5.67,9.28c-3.98,0-5.54-4.21-5.54-9.02c0-4.78,1.9-8.92,5.77-8.92
		C234.04,136.8,235.23,141.46,235.23,145.46z M227.56,145.77c0,3.98,0.75,6.01,2.13,6.01c1.43,0,1.98-2.6,1.98-6.16
		c0-3.07-0.47-5.85-2-5.85C228.32,139.77,227.56,142,227.56,145.77z M233.78,133.14l-3.17,2.94h-2.42l2.13-2.94H233.78z"/>
	<path class="st1" d="M237.39,154.54v-17.52h3.12l2.7,6.86c0.52,1.35,1.38,3.61,1.87,5.12h0.05c-0.1-1.85-0.34-4.89-0.34-8.11v-3.87
		h2.99v17.52h-3.12l-2.68-6.66c-0.57-1.48-1.38-3.69-1.77-5.28h-0.05c0.08,1.77,0.21,4.47,0.21,7.98v3.95H237.39z"/>
</g>
<polygon class="st2" points="99.27,148.22 66.25,181.5 66.25,166.53 7.73,168.66 7.73,126.41 66.04,128.5 66.25,114.93 "/>
<polygon class="st3" points="386.27,148.22 353.25,181.5 353.25,166.53 294.73,168.66 294.73,126.41 353.04,128.5 353.25,114.93 "/>
<g>
	<path class="st1" d="M21,152.21v-10.79h1.17l1.98,5.06c0.45,1.15,1.01,2.59,1.38,3.76h0.03c-0.1-1.7-0.14-3.09-0.14-4.96v-3.86h1.1
		v10.79h-1.17l-2.05-5.19c-0.43-1.09-0.9-2.32-1.28-3.67H22c0.1,1.44,0.13,2.82,0.13,5.12v3.73H21z"/>
	<path class="st1" d="M29.74,148.98l-0.72,3.23h-1.18l2.46-10.79h1.36l2.4,10.79h-1.22l-0.72-3.23H29.74z M31.96,147.99l-0.56-2.74
		c-0.16-0.77-0.3-1.67-0.43-2.46h-0.06c-0.13,0.82-0.29,1.74-0.43,2.46l-0.56,2.74H31.96z"/>
	<path class="st1" d="M35.71,142.53h-1.97v-1.1h5.17v1.1h-1.97v9.68h-1.23V142.53z"/>
	<path class="st1" d="M40.68,148.98l-0.72,3.23h-1.18l2.46-10.79h1.36l2.4,10.79h-1.22l-0.72-3.23H40.68z M42.91,147.99l-0.56-2.74
		c-0.16-0.77-0.3-1.67-0.43-2.46h-0.06c-0.13,0.82-0.29,1.74-0.43,2.46l-0.56,2.74H42.91z"/>
	<path class="st1" d="M46.35,141.42h1.23v9.75h3.04v1.04h-4.27V141.42z"/>
	<path class="st1" d="M53.08,141.42v10.79h-1.23v-10.79H53.08z"/>
	<path class="st1" d="M55.03,141.58c0.48-0.14,1.04-0.21,1.67-0.21c1.14,0,1.94,0.29,2.53,0.82c0.83,0.72,1.46,2.11,1.46,4.37
		c0,2.46-0.61,3.81-1.3,4.55c-0.71,0.8-1.73,1.17-2.98,1.17c-0.5,0-1.01-0.03-1.38-0.11V141.58z M56.27,151.2
		c0.18,0.03,0.35,0.03,0.46,0.03c1.36,0,2.67-0.98,2.67-4.64c0-2.72-0.83-4.21-2.56-4.21c-0.19,0-0.42,0.02-0.58,0.06V151.2z"/>
	<path class="st1" d="M63.13,148.98l-0.72,3.23h-1.18l2.46-10.79h1.36l2.4,10.79h-1.22l-0.72-3.23H63.13z M65.36,147.99l-0.56-2.74
		c-0.16-0.77-0.3-1.67-0.43-2.46H64.3c-0.13,0.82-0.29,1.74-0.43,2.46l-0.56,2.74H65.36z"/>
	<path class="st1" d="M68.79,141.58c0.48-0.14,1.04-0.21,1.67-0.21c1.14,0,1.94,0.29,2.53,0.82c0.83,0.72,1.46,2.11,1.46,4.37
		c0,2.46-0.61,3.81-1.3,4.55c-0.71,0.8-1.73,1.17-2.98,1.17c-0.5,0-1.01-0.03-1.38-0.11V141.58z M70.03,151.2
		c0.18,0.03,0.35,0.03,0.46,0.03c1.36,0,2.67-0.98,2.67-4.64c0-2.72-0.83-4.21-2.56-4.21c-0.19,0-0.42,0.02-0.58,0.06V151.2z"/>
</g>
<g>
	<path class="st1" d="M310.71,147.57c-0.08-1.42-0.16-3.01-0.11-4.23h-0.06c-0.24,1.2-0.53,2.48-0.87,3.75l-1.33,5.06h-0.78
		l-1.26-4.85c-0.35-1.38-0.67-2.71-0.88-3.95h-0.05c0,1.26-0.06,2.77-0.13,4.31l-0.21,4.56h-1.1l0.64-10.79h1.33l1.26,4.93
		c0.37,1.42,0.64,2.48,0.86,3.71h0.05c0.21-1.23,0.45-2.26,0.8-3.71l1.22-4.93h1.38l0.62,10.79h-1.15L310.71,147.57z"/>
	<path class="st1" d="M319.43,146.74c0,4.05-1.39,5.6-3.12,5.6c-1.79,0-2.99-1.9-2.99-5.54c0-3.57,1.28-5.51,3.17-5.51
		C318.33,141.29,319.43,143.29,319.43,146.74z M314.6,146.82c0,2.23,0.43,4.43,1.79,4.43c1.39,0,1.76-2.35,1.76-4.47
		c0-2.02-0.37-4.4-1.78-4.4C315.03,142.38,314.6,144.62,314.6,146.82z"/>
	<path class="st1" d="M320.9,141.58c0.53-0.14,1.17-0.21,1.78-0.21c1.07,0,1.87,0.22,2.43,0.77c0.53,0.54,0.75,1.26,0.75,2.11
		c0,1.38-0.64,2.27-1.73,2.77v0.03c0.8,0.24,1.22,1.01,1.46,2.42c0.24,1.49,0.46,2.4,0.61,2.74h-1.25
		c-0.16-0.32-0.37-1.34-0.58-2.67c-0.24-1.47-0.7-2.03-1.76-2.03h-0.48v4.71h-1.23V141.58z M322.13,146.56h0.51
		c1.18,0,1.97-0.86,1.97-2.16c0-1.25-0.51-2.02-1.84-2.03c-0.24,0-0.48,0.02-0.64,0.06V146.56z"/>
	<path class="st1" d="M328.53,142.53h-1.97v-1.1h5.17v1.1h-1.97v9.68h-1.23V142.53z"/>
	<path class="st1" d="M333.51,148.98l-0.72,3.23h-1.18l2.46-10.79h1.36l2.4,10.79h-1.22l-0.72-3.23H333.51z M335.73,147.99
		l-0.56-2.74c-0.16-0.77-0.3-1.67-0.43-2.46h-0.06c-0.13,0.82-0.29,1.74-0.43,2.46l-0.56,2.74H335.73z"/>
	<path class="st1" d="M339.17,141.42h1.23v9.75h3.04v1.04h-4.27V141.42z"/>
	<path class="st1" d="M345.91,141.42v10.79h-1.23v-10.79H345.91z"/>
	<path class="st1" d="M347.86,141.58c0.48-0.14,1.04-0.21,1.67-0.21c1.14,0,1.94,0.29,2.53,0.82c0.83,0.72,1.46,2.11,1.46,4.37
		c0,2.46-0.61,3.81-1.3,4.55c-0.71,0.8-1.73,1.17-2.98,1.17c-0.5,0-1.01-0.03-1.38-0.11V141.58z M349.09,151.2
		c0.18,0.03,0.35,0.03,0.46,0.03c1.36,0,2.67-0.98,2.67-4.64c0-2.72-0.83-4.21-2.56-4.21c-0.19,0-0.42,0.02-0.58,0.06V151.2z"/>
	<path class="st1" d="M355.96,148.98l-0.72,3.23h-1.18l2.46-10.79h1.36l2.4,10.79h-1.22l-0.72-3.23H355.96z M358.18,147.99
		l-0.56-2.74c-0.16-0.77-0.3-1.67-0.43-2.46h-0.06c-0.13,0.82-0.29,1.74-0.43,2.46l-0.56,2.74H358.18z"/>
	<path class="st1" d="M361.62,141.58c0.48-0.14,1.04-0.21,1.67-0.21c1.14,0,1.94,0.29,2.53,0.82c0.83,0.72,1.46,2.11,1.46,4.37
		c0,2.46-0.61,3.81-1.3,4.55c-0.71,0.8-1.73,1.17-2.98,1.17c-0.5,0-1.01-0.03-1.38-0.11V141.58z M362.85,151.2
		c0.18,0.03,0.35,0.03,0.46,0.03c1.36,0,2.67-0.98,2.67-4.64c0-2.72-0.83-4.21-2.56-4.21c-0.19,0-0.42,0.02-0.58,0.06V151.2z"/>
</g>
<polygon class="st2" points="197.5,53.5 148.2,32.91 159.38,32.91 154.94,7.5 242.9,7.5 238.56,32.8 249.8,32.91 "/>
<g>
	<path class="st1" d="M167,17.42v10.79h-1.23V17.42H167z"/>
	<path class="st1" d="M168.96,28.21V17.42h1.17l1.98,5.06c0.45,1.15,1.01,2.59,1.38,3.76h0.03c-0.1-1.7-0.14-3.09-0.14-4.96v-3.86
		h1.1v10.79h-1.17l-2.05-5.19c-0.43-1.09-0.9-2.32-1.28-3.67h-0.03c0.1,1.44,0.13,2.82,0.13,5.12v3.73H168.96z"/>
	<path class="st1" d="M182.93,23.57c-0.08-1.42-0.16-3.01-0.11-4.23h-0.06c-0.24,1.2-0.53,2.48-0.87,3.75l-1.33,5.06h-0.78
		l-1.26-4.85c-0.35-1.38-0.67-2.71-0.88-3.95h-0.05c0,1.26-0.06,2.77-0.13,4.31l-0.21,4.56h-1.1l0.64-10.79h1.33l1.26,4.93
		c0.37,1.42,0.64,2.48,0.86,3.71h0.05c0.21-1.23,0.45-2.26,0.8-3.71l1.22-4.93h1.38l0.62,10.79h-1.15L182.93,23.57z"/>
	<path class="st1" d="M187.21,17.42v10.79h-1.23V17.42H187.21z"/>
	<path class="st1" d="M194.48,27.94c-0.46,0.19-1.23,0.37-1.92,0.37c-0.94,0-1.82-0.26-2.54-1.06c-0.78-0.83-1.31-2.32-1.3-4.29
		c0.02-4.19,2.16-5.63,4.07-5.63c0.67,0,1.2,0.13,1.54,0.3l-0.27,1.06c-0.29-0.14-0.67-0.26-1.25-0.26c-1.34,0-2.8,1.07-2.8,4.42
		c0,3.33,1.26,4.4,2.56,4.4c0.42,0,0.66-0.08,0.75-0.13V23.6h-1.39v-1.03h2.56V27.94z"/>
	<path class="st1" d="M196.14,17.58c0.53-0.14,1.17-0.21,1.78-0.21c1.07,0,1.87,0.22,2.43,0.77c0.53,0.54,0.75,1.26,0.75,2.11
		c0,1.38-0.64,2.27-1.73,2.77v0.03c0.8,0.24,1.22,1.01,1.46,2.42c0.24,1.49,0.46,2.4,0.61,2.74h-1.25
		c-0.16-0.32-0.37-1.34-0.58-2.67c-0.24-1.47-0.7-2.03-1.76-2.03h-0.48v4.71h-1.23V17.58z M197.37,22.56h0.51
		c1.18,0,1.97-0.86,1.97-2.16c0-1.25-0.51-2.02-1.84-2.03c-0.24,0-0.48,0.02-0.64,0.06V22.56z"/>
	<path class="st1" d="M204.08,24.98l-0.72,3.23h-1.18l2.46-10.79H206l2.4,10.79h-1.22l-0.72-3.23H204.08z M206.3,23.99l-0.56-2.74
		c-0.16-0.77-0.3-1.67-0.43-2.46h-0.06c-0.13,0.82-0.29,1.74-0.43,2.46l-0.56,2.74H206.3z"/>
	<path class="st1" d="M214.13,28.02c-0.34,0.18-0.86,0.29-1.54,0.29c-2.11,0-3.62-1.7-3.62-5.36c0-4.26,2.11-5.62,3.81-5.62
		c0.66,0,1.12,0.13,1.34,0.27l-0.27,1.04c-0.26-0.11-0.53-0.22-1.09-0.22c-1.15,0-2.5,1.12-2.5,4.42c0,3.3,1.22,4.39,2.53,4.39
		c0.46,0,0.88-0.11,1.14-0.24L214.13,28.02z"/>
	<path class="st1" d="M216.62,17.42v10.79h-1.23V17.42H216.62z"/>
	<path class="st1" d="M224.24,22.74c0,4.05-1.39,5.6-3.12,5.6c-1.79,0-2.99-1.9-2.99-5.54c0-3.57,1.28-5.51,3.17-5.51
		C223.13,17.29,224.24,19.29,224.24,22.74z M219.4,22.82c0,2.23,0.43,4.43,1.79,4.43c1.39,0,1.76-2.35,1.76-4.47
		c0-2.02-0.37-4.4-1.78-4.4C219.83,18.38,219.4,20.62,219.4,22.82z M223.37,15.12l-1.99,1.73h-0.98l1.5-1.73H223.37z"/>
	<path class="st1" d="M225.71,28.21V17.42h1.17l1.98,5.06c0.45,1.15,1.01,2.59,1.38,3.76h0.03c-0.1-1.7-0.14-3.09-0.14-4.96v-3.86
		h1.1v10.79h-1.17l-2.05-5.19c-0.43-1.09-0.9-2.32-1.28-3.67h-0.03c0.1,1.44,0.13,2.82,0.13,5.12v3.73H225.71z"/>
</g>
<polygon class="st3" points="197.5,285.5 148.2,264.91 159.38,264.91 154.94,239.5 242.9,239.5 238.56,264.8 249.8,264.91 "/>
<g>
	<path class="st1" d="M172.19,255.09h-2.71v4.05h3.07v1.07h-4.31v-10.79h4.11v1.07h-2.88v3.55h2.71V255.09z"/>
	<path class="st1" d="M180.45,255.57c-0.08-1.42-0.16-3.01-0.11-4.23h-0.06c-0.24,1.2-0.53,2.48-0.87,3.75l-1.33,5.06h-0.78
		l-1.26-4.85c-0.35-1.38-0.67-2.71-0.88-3.95h-0.05c0,1.26-0.06,2.77-0.13,4.31l-0.21,4.56h-1.1l0.64-10.79h1.33l1.26,4.93
		c0.37,1.42,0.64,2.48,0.86,3.71h0.05c0.21-1.23,0.45-2.26,0.8-3.71l1.22-4.93h1.38l0.62,10.79h-1.15L180.45,255.57z"/>
	<path class="st1" d="M184.73,249.42v10.79h-1.23v-10.79H184.73z"/>
	<path class="st1" d="M192,259.94c-0.46,0.19-1.23,0.37-1.92,0.37c-0.94,0-1.82-0.26-2.54-1.06c-0.78-0.83-1.31-2.32-1.3-4.29
		c0.02-4.19,2.16-5.63,4.07-5.63c0.67,0,1.2,0.13,1.54,0.3l-0.27,1.06c-0.29-0.14-0.67-0.26-1.25-0.26c-1.34,0-2.8,1.07-2.8,4.42
		c0,3.33,1.26,4.4,2.56,4.4c0.42,0,0.66-0.08,0.75-0.13v-3.52h-1.39v-1.03H192V259.94z"/>
	<path class="st1" d="M193.66,249.58c0.53-0.14,1.17-0.21,1.78-0.21c1.07,0,1.87,0.22,2.43,0.77c0.53,0.54,0.75,1.26,0.75,2.11
		c0,1.38-0.64,2.27-1.73,2.77v0.03c0.8,0.24,1.22,1.01,1.46,2.42c0.24,1.49,0.46,2.4,0.61,2.74h-1.25
		c-0.16-0.32-0.37-1.34-0.58-2.67c-0.24-1.47-0.7-2.03-1.76-2.03h-0.48v4.71h-1.23V249.58z M194.89,254.56h0.51
		c1.18,0,1.97-0.86,1.97-2.16c0-1.25-0.51-2.02-1.84-2.03c-0.24,0-0.48,0.02-0.64,0.06V254.56z"/>
	<path class="st1" d="M201.59,256.98l-0.72,3.23h-1.18l2.46-10.79h1.36l2.4,10.79h-1.22l-0.72-3.23H201.59z M203.82,255.99
		l-0.56-2.74c-0.16-0.77-0.3-1.67-0.43-2.46h-0.06c-0.13,0.82-0.29,1.74-0.43,2.46l-0.56,2.74H203.82z"/>
	<path class="st1" d="M211.64,260.02c-0.34,0.18-0.86,0.29-1.54,0.29c-2.11,0-3.62-1.7-3.62-5.36c0-4.26,2.11-5.62,3.81-5.62
		c0.66,0,1.12,0.13,1.34,0.27l-0.27,1.04c-0.26-0.11-0.53-0.22-1.09-0.22c-1.15,0-2.5,1.12-2.5,4.42c0,3.3,1.22,4.39,2.53,4.39
		c0.46,0,0.88-0.11,1.14-0.24L211.64,260.02z"/>
	<path class="st1" d="M214.14,249.42v10.79h-1.23v-10.79H214.14z"/>
	<path class="st1" d="M221.76,254.74c0,4.05-1.39,5.6-3.12,5.6c-1.79,0-2.99-1.9-2.99-5.54c0-3.57,1.28-5.51,3.17-5.51
		C220.65,249.29,221.76,251.29,221.76,254.74z M216.92,254.82c0,2.23,0.43,4.43,1.79,4.43c1.39,0,1.76-2.35,1.76-4.47
		c0-2.02-0.37-4.4-1.78-4.4C217.35,250.38,216.92,252.62,216.92,254.82z M220.89,247.12l-1.99,1.73h-0.98l1.5-1.73H220.89z"/>
	<path class="st1" d="M223.23,260.21v-10.79h1.17l1.98,5.06c0.45,1.15,1.01,2.59,1.38,3.76h0.03c-0.1-1.7-0.14-3.09-0.14-4.96v-3.86
		h1.1v10.79h-1.17l-2.05-5.19c-0.43-1.09-0.9-2.32-1.28-3.67h-0.03c0.1,1.44,0.13,2.82,0.13,5.12v3.73H223.23z"/>
</g>
</svg>
