<?xml version="1.0" encoding="utf-8"?>
<!-- Generator: Adobe Illustrator 24.0.1, SVG Export Plug-In . SVG Version: 6.00 Build 0)  -->
<svg version="1.1" id="Layer_1" xmlns="http://www.w3.org/2000/svg" xmlns:xlink="http://www.w3.org/1999/xlink" x="0px" y="0px"
	 viewBox="0 0 974 186" style="enable-background:new 0 0 974 186;" xml:space="preserve">
<style type="text/css">
	.st0{fill:none;stroke:url(#SVGID_1_);stroke-width:7;stroke-miterlimit:10;}
	.st1{fill:none;stroke:#FF6600;stroke-width:5;stroke-linejoin:round;}
	.st2{fill:#FF6600;}
	.st3{fill:none;stroke:url(#SVGID_2_);stroke-width:7;stroke-miterlimit:10;}
	.st4{fill:none;stroke:url(#SVGID_3_);stroke-width:7;stroke-miterlimit:10;}
	.st5{fill:none;stroke:url(#SVGID_4_);stroke-width:7;stroke-miterlimit:10;}
	.st6{fill:none;stroke:url(#SVGID_5_);stroke-width:7;stroke-miterlimit:10;}
</style>
<linearGradient id="SVGID_1_" gradientUnits="userSpaceOnUse" x1="760.2631" y1="91.4606" x2="967.2631" y2="91.4606">
	<stop  offset="0" style="stop-color:#8FCCD5"/>
	<stop  offset="0.5" style="stop-color:#5BBAC7"/>
	<stop  offset="1" style="stop-color:#00AAB9"/>
</linearGradient>
<path class="st0" d="M951.76,149.96h-176c-6.6,0-12-5.4-12-12v-93c0-6.6,5.4-12,12-12h176c6.6,0,12,5.4,12,12v93
	C963.76,144.56,958.36,149.96,951.76,149.96z"/>
<g>
	<path d="M791.47,50.82h-2.87v4.3h3.26v1.14h-4.57V44.81h4.37v1.14h-3.06v3.77h2.87V50.82z"/>
	<path d="M793.06,44.5h1.31v11.76h-1.31V44.5z"/>
	<path d="M798.96,50.6c0-1.26-0.05-1.99-0.07-2.57h1.17l0.07,1.05h0.03c0.44-0.88,1.09-1.19,1.73-1.19c1.43,0,2.38,1.53,2.38,4.23
		c0,3.04-1.26,4.27-2.55,4.27c-0.76,0-1.21-0.49-1.43-0.95h-0.03v4.08h-1.31V50.6z M800.27,53.24c0,0.25,0,0.49,0.05,0.68
		c0.25,1.17,0.85,1.39,1.21,1.39c1.09,0,1.43-1.5,1.43-3.16c0-1.7-0.41-3.13-1.45-3.13c-0.59,0-1.12,0.75-1.21,1.5
		c-0.03,0.2-0.03,0.41-0.03,0.63V53.24z"/>
	<path d="M810.69,54.02c0,0.92,0.05,1.63,0.07,2.24h-1.14l-0.08-0.87h-0.03c-0.26,0.41-0.88,1-1.77,1c-1.44,0-2.01-1.12-2.01-3.16
		v-5.2h1.31v5.01c0,1.29,0.2,2.24,1.1,2.24c0.76,0,1.1-0.71,1.17-1.09c0.05-0.22,0.07-0.48,0.07-0.75v-5.42h1.31V54.02z"/>
	<path d="M812.53,50.16c0-0.97-0.05-1.46-0.07-2.13h1.14l0.07,0.99h0.03c0.36-0.66,1.02-1.12,1.89-1.12c1.14,0,1.99,0.85,1.99,2.84
		v5.52h-1.31v-5.3c0-0.97-0.19-1.95-1.14-1.95c-0.54,0-1.07,0.46-1.24,1.34c-0.03,0.2-0.05,0.46-0.05,0.73v5.18h-1.31V50.16z"/>
	<path d="M820.91,45.86v2.18h1.58v1h-1.58v4.88c0,1.07,0.39,1.36,0.87,1.36c0.2,0,0.37-0.02,0.53-0.05l0.05,1
		c-0.24,0.08-0.54,0.14-0.97,0.14c-0.51,0-0.97-0.14-1.29-0.49c-0.32-0.37-0.49-0.94-0.49-2.07v-4.76h-1v-1h1v-1.8L820.91,45.86z"/>
	<path d="M828.56,52.15c0,3.18-1.48,4.25-2.74,4.25c-1.48,0-2.67-1.34-2.67-4.23c0-3.01,1.34-4.27,2.75-4.27
		C827.37,47.9,828.56,49.28,828.56,52.15z M824.46,52.15c0,1.36,0.24,3.21,1.43,3.21c1.12,0,1.34-1.94,1.34-3.21
		c0-1.26-0.22-3.2-1.38-3.2C824.68,48.95,824.46,50.89,824.46,52.15z"/>
	<path d="M834.1,45.91c0.02,0.51-0.31,0.85-0.8,0.85c-0.42,0-0.75-0.34-0.75-0.85c0-0.51,0.34-0.85,0.77-0.85
		C833.79,45.06,834.1,45.4,834.1,45.91z M832.69,56.26v-8.23H834v8.23H832.69z"/>
	<path d="M835.82,50.16c0-0.97-0.05-1.46-0.07-2.13h1.14l0.07,1.02h0.03c0.36-0.66,0.99-1.16,1.85-1.16c0.76,0,1.41,0.37,1.72,1.26
		h0.03c0.22-0.41,0.51-0.73,0.82-0.93c0.32-0.22,0.71-0.32,1.14-0.32c1.1,0,1.97,0.82,1.97,2.91v5.46h-1.29v-5.15
		c0-1.07-0.15-2.11-1.16-2.11c-0.54,0-1.02,0.46-1.21,1.22c-0.03,0.22-0.05,0.48-0.05,0.75v5.29h-1.29v-5.39
		c0-0.92-0.17-1.87-1.14-1.87c-0.53,0-1.07,0.46-1.22,1.33c-0.03,0.22-0.05,0.46-0.05,0.71v5.22h-1.29V50.16z"/>
	<path d="M846.34,50.6c0-1.26-0.05-1.99-0.07-2.57h1.17l0.07,1.05h0.03c0.44-0.88,1.09-1.19,1.73-1.19c1.43,0,2.38,1.53,2.38,4.23
		c0,3.04-1.26,4.27-2.55,4.27c-0.76,0-1.21-0.49-1.43-0.95h-0.03v4.08h-1.31V50.6z M847.65,53.24c0,0.25,0,0.49,0.05,0.68
		c0.25,1.17,0.85,1.39,1.21,1.39c1.09,0,1.43-1.5,1.43-3.16c0-1.7-0.41-3.13-1.45-3.13c-0.59,0-1.12,0.75-1.21,1.5
		c-0.03,0.2-0.03,0.41-0.03,0.63V53.24z"/>
	<path d="M858.19,52.15c0,3.18-1.48,4.25-2.74,4.25c-1.48,0-2.67-1.34-2.67-4.23c0-3.01,1.34-4.27,2.75-4.27
		C857,47.9,858.19,49.28,858.19,52.15z M854.09,52.15c0,1.36,0.24,3.21,1.43,3.21c1.12,0,1.34-1.94,1.34-3.21
		c0-1.26-0.22-3.2-1.38-3.2C854.31,48.95,854.09,50.89,854.09,52.15z"/>
	<path d="M859.63,50.16c0-0.7-0.05-1.51-0.07-2.13h1.17l0.07,1.29h0.03c0.27-0.78,0.97-1.43,1.73-1.43c0.1,0,0.19,0.02,0.27,0.02
		v1.34c-0.08-0.02-0.17-0.02-0.27-0.02c-0.83,0-1.44,0.77-1.58,1.72c-0.03,0.22-0.05,0.48-0.05,0.75v4.56h-1.31V50.16z"/>
	<path d="M865.87,45.86v2.18h1.58v1h-1.58v4.88c0,1.07,0.39,1.36,0.87,1.36c0.2,0,0.37-0.02,0.53-0.05l0.05,1
		c-0.24,0.08-0.54,0.14-0.97,0.14c-0.51,0-0.97-0.14-1.29-0.49c-0.32-0.37-0.49-0.94-0.49-2.07v-4.76h-1v-1h1v-1.8L865.87,45.86z"/>
	<path d="M871.86,56.26l-0.08-0.87h-0.05c-0.36,0.63-0.94,1-1.63,1c-1.11,0-1.96-0.93-1.96-2.35c0-2.06,1.65-2.97,3.5-2.99v-0.25
		c0-1.11-0.27-1.87-1.31-1.87c-0.51,0-0.97,0.17-1.36,0.42l-0.29-0.92c0.34-0.25,1.1-0.54,1.92-0.54c1.65,0,2.36,1.09,2.36,2.94
		v3.55c0,0.63,0,1.34,0.08,1.87H871.86z M871.67,52.01c-0.68,0-2.26,0.12-2.26,1.9c0,1.07,0.54,1.46,1,1.46
		c0.58,0,1.07-0.42,1.22-1.24c0.03-0.15,0.03-0.32,0.03-0.46V52.01z"/>
	<path d="M874.8,50.16c0-0.97-0.05-1.46-0.07-2.13h1.14l0.07,0.99h0.03c0.36-0.66,1.02-1.12,1.89-1.12c1.14,0,1.99,0.85,1.99,2.84
		v5.52h-1.31v-5.3c0-0.97-0.19-1.95-1.14-1.95c-0.54,0-1.07,0.46-1.24,1.34c-0.03,0.2-0.05,0.46-0.05,0.73v5.18h-1.31V50.16z"/>
	<path d="M883.18,45.86v2.18h1.58v1h-1.58v4.88c0,1.07,0.39,1.36,0.87,1.36c0.2,0,0.37-0.02,0.53-0.05l0.05,1
		c-0.24,0.08-0.54,0.14-0.97,0.14c-0.51,0-0.97-0.14-1.29-0.49c-0.32-0.37-0.49-0.94-0.49-2.07v-4.76h-1v-1h1v-1.8L883.18,45.86z"/>
	<path d="M886.7,52.27c0.02,2.52,1,3.06,1.95,3.06c0.56,0,1.04-0.14,1.36-0.32l0.2,0.97c-0.46,0.25-1.16,0.39-1.8,0.39
		c-1.97,0-2.99-1.61-2.99-4.13c0-2.67,1.12-4.33,2.77-4.33c1.68,0,2.35,1.77,2.35,3.64c0,0.31,0,0.53-0.02,0.73H886.7z M889.28,51.3
		c0.03-1.65-0.59-2.38-1.22-2.38c-0.85,0-1.29,1.26-1.34,2.38H889.28z"/>
	<path d="M895.54,52.27c0.02,2.52,1,3.06,1.95,3.06c0.56,0,1.04-0.14,1.36-0.32l0.2,0.97c-0.46,0.25-1.16,0.39-1.8,0.39
		c-1.97,0-2.99-1.61-2.99-4.13c0-2.67,1.12-4.33,2.77-4.33c1.68,0,2.35,1.77,2.35,3.64c0,0.31,0,0.53-0.02,0.73H895.54z
		 M898.12,51.3c0.03-1.65-0.59-2.38-1.22-2.38c-0.85,0-1.29,1.26-1.34,2.38H898.12z"/>
	<path d="M900.57,54.9c0.29,0.19,0.8,0.43,1.33,0.43c0.75,0,1.21-0.46,1.21-1.19c0-0.63-0.22-1.05-1.05-1.61
		c-1.07-0.7-1.65-1.39-1.65-2.35c0-1.33,0.99-2.28,2.26-2.28c0.65,0,1.14,0.22,1.48,0.42l-0.36,0.99c-0.31-0.2-0.66-0.36-1.09-0.36
		c-0.71,0-1.07,0.51-1.07,1.04c0,0.56,0.2,0.87,1.02,1.43c0.95,0.61,1.7,1.36,1.7,2.5c0,1.65-1.12,2.45-2.46,2.45
		c-0.61,0-1.28-0.19-1.63-0.48L900.57,54.9z"/>
	<path d="M912.03,55.41h-0.05c-0.27,0.56-0.83,0.99-1.58,0.99c-1.33,0-2.38-1.44-2.38-4.15c0-2.91,1.22-4.35,2.58-4.35
		c0.53,0,1.14,0.24,1.53,1.09l0.03,0.02l0.07-0.97h1.17c-0.03,0.58-0.07,1.31-0.07,2.57v8.92h-1.31V55.41z M912.03,51.11
		c0-0.17,0-0.39-0.03-0.54c-0.1-0.87-0.61-1.55-1.19-1.55c-1.07,0-1.48,1.43-1.48,3.16c0,1.73,0.44,3.13,1.44,3.13
		c0.41,0,0.92-0.24,1.19-1.38c0.07-0.2,0.07-0.48,0.07-0.7V51.11z"/>
	<path d="M920.08,54.02c0,0.92,0.05,1.63,0.07,2.24h-1.14l-0.08-0.87h-0.03c-0.25,0.41-0.88,1-1.77,1c-1.45,0-2.01-1.12-2.01-3.16
		v-5.2h1.31v5.01c0,1.29,0.2,2.24,1.11,2.24c0.76,0,1.1-0.71,1.17-1.09c0.05-0.22,0.07-0.48,0.07-0.75v-5.42h1.31V54.02z"/>
	<path d="M922.84,52.27c0.02,2.52,1,3.06,1.96,3.06c0.56,0,1.04-0.14,1.36-0.32l0.2,0.97c-0.46,0.25-1.16,0.39-1.8,0.39
		c-1.97,0-2.99-1.61-2.99-4.13c0-2.67,1.12-4.33,2.77-4.33c1.68,0,2.35,1.77,2.35,3.64c0,0.31,0,0.53-0.02,0.73H922.84z
		 M925.42,51.3c0.03-1.65-0.59-2.38-1.22-2.38c-0.85,0-1.29,1.26-1.34,2.38H925.42z"/>
	<path d="M931.68,52.27c0.02,2.52,1,3.06,1.96,3.06c0.56,0,1.04-0.14,1.36-0.32l0.2,0.97c-0.46,0.25-1.16,0.39-1.8,0.39
		c-1.97,0-2.99-1.61-2.99-4.13c0-2.67,1.12-4.33,2.77-4.33c1.68,0,2.35,1.77,2.35,3.64c0,0.31,0,0.53-0.02,0.73H931.68z
		 M934.26,51.3c0.03-1.65-0.59-2.38-1.22-2.38c-0.85,0-1.29,1.26-1.34,2.38H934.26z"/>
	<path d="M936.93,44.5h1.31v11.76h-1.31V44.5z"/>
	<path d="M786.93,75.3c0.29,0.19,0.8,0.43,1.33,0.43c0.75,0,1.21-0.46,1.21-1.19c0-0.63-0.22-1.05-1.05-1.61
		c-1.07-0.7-1.65-1.39-1.65-2.35c0-1.33,0.99-2.28,2.26-2.28c0.65,0,1.14,0.22,1.48,0.42l-0.36,0.99c-0.31-0.2-0.66-0.36-1.09-0.36
		c-0.71,0-1.07,0.51-1.07,1.04c0,0.56,0.2,0.87,1.02,1.43c0.95,0.61,1.7,1.36,1.7,2.5c0,1.65-1.12,2.45-2.46,2.45
		c-0.61,0-1.27-0.19-1.63-0.48L786.93,75.3z"/>
	<path d="M793.66,66.26v2.18h1.58v1h-1.58v4.88c0,1.07,0.39,1.36,0.87,1.36c0.2,0,0.37-0.02,0.53-0.05l0.05,1
		c-0.24,0.08-0.54,0.14-0.97,0.14c-0.51,0-0.97-0.14-1.29-0.49c-0.32-0.37-0.49-0.94-0.49-2.07v-4.76h-1v-1h1v-1.8L793.66,66.26z"/>
	<path d="M801.31,72.55c0,3.18-1.48,4.25-2.74,4.25c-1.48,0-2.67-1.34-2.67-4.23c0-3.01,1.34-4.27,2.75-4.27
		C800.12,68.3,801.31,69.68,801.31,72.55z M797.21,72.55c0,1.36,0.24,3.21,1.43,3.21c1.12,0,1.34-1.94,1.34-3.21
		c0-1.26-0.22-3.2-1.38-3.2C797.43,69.35,797.21,71.29,797.21,72.55z"/>
	<path d="M806.78,76.46c-0.29,0.17-0.78,0.31-1.36,0.31c-1.8,0-3.01-1.44-3.01-4.16c0-2.36,1.19-4.28,3.25-4.28
		c0.44,0,0.92,0.12,1.16,0.25l-0.25,1.07c-0.17-0.08-0.51-0.22-0.93-0.22c-1.31,0-1.9,1.56-1.9,3.18c0,1.92,0.73,3.08,1.94,3.08
		c0.36,0,0.65-0.08,0.95-0.22L806.78,76.46z"/>
	<path d="M809.2,72.26h0.03c0.15-0.32,0.29-0.65,0.44-0.92l1.63-2.91h1.41l-2.18,3.47l2.36,4.76h-1.46l-1.78-3.88l-0.46,0.77v3.11
		h-1.31V64.9h1.31V72.26z"/>
	<path d="M821.54,64.9v9.79c0,0.56,0.05,1.5,0.07,1.97h-1.12l-0.08-1.04h-0.05c-0.27,0.59-0.85,1.17-1.72,1.17
		c-1.39,0-2.4-1.51-2.4-4.21c0-2.92,1.21-4.28,2.48-4.28c0.6,0,1.17,0.29,1.5,0.99h0.03V64.9H821.54z M820.25,71.56
		c0-0.17,0-0.36-0.02-0.54c-0.08-0.85-0.6-1.6-1.22-1.6c-1.09,0-1.46,1.51-1.46,3.16c0,1.73,0.44,3.13,1.39,3.13
		c0.41,0,0.97-0.22,1.26-1.41c0.03-0.15,0.05-0.34,0.05-0.54V71.56z"/>
	<path d="M824.29,72.67c0.02,2.52,1,3.06,1.96,3.06c0.56,0,1.04-0.14,1.36-0.32l0.2,0.97c-0.46,0.25-1.16,0.39-1.8,0.39
		c-1.97,0-2.99-1.61-2.99-4.13c0-2.67,1.12-4.33,2.77-4.33c1.68,0,2.35,1.77,2.35,3.64c0,0.31,0,0.53-0.02,0.73H824.29z
		 M826.88,71.7c0.03-1.65-0.59-2.38-1.22-2.38c-0.85,0-1.29,1.26-1.34,2.38H826.88z"/>
	<path d="M829.82,76.66v-7.22h-1.04v-1h1.04v-0.54c0-1.46,0.71-3.13,2.99-3.13c0.7,0,1.31,0.2,1.62,0.39l-0.29,1.02
		c-0.29-0.14-0.78-0.32-1.36-0.32c-1.33,0-1.65,0.92-1.65,2.18v0.41h3.69v8.23h-1.31v-7.22h-2.38v7.22H829.82z"/>
	<path d="M836.65,70.56c0-0.97-0.05-1.46-0.07-2.13h1.14l0.07,0.99h0.03c0.36-0.66,1.02-1.12,1.89-1.12c1.14,0,1.99,0.85,1.99,2.84
		v5.52h-1.31v-5.3c0-0.97-0.19-1.95-1.14-1.95c-0.54,0-1.07,0.46-1.24,1.34c-0.03,0.2-0.05,0.46-0.05,0.73v5.18h-1.31V70.56z"/>
	<path d="M844.95,66.31c0.02,0.51-0.31,0.85-0.8,0.85c-0.42,0-0.75-0.34-0.75-0.85c0-0.51,0.34-0.85,0.77-0.85
		C844.64,65.46,844.95,65.8,844.95,66.31z M843.54,76.66v-8.23h1.31v8.23H843.54z"/>
	<path d="M851.61,64.9v9.79c0,0.56,0.05,1.5,0.07,1.97h-1.12l-0.08-1.04h-0.05c-0.27,0.59-0.85,1.17-1.72,1.17
		c-1.39,0-2.4-1.51-2.4-4.21c0-2.92,1.21-4.28,2.48-4.28c0.6,0,1.17,0.29,1.5,0.99h0.03V64.9H851.61z M850.32,71.56
		c0-0.17,0-0.36-0.02-0.54c-0.08-0.85-0.6-1.6-1.22-1.6c-1.09,0-1.46,1.51-1.46,3.16c0,1.73,0.44,3.13,1.39,3.13
		c0.41,0,0.97-0.22,1.26-1.41c0.03-0.15,0.05-0.34,0.05-0.54V71.56z"/>
	<path d="M858.5,72.55c0,3.18-1.48,4.25-2.74,4.25c-1.48,0-2.67-1.34-2.67-4.23c0-3.01,1.34-4.27,2.75-4.27
		C857.3,68.3,858.5,69.68,858.5,72.55z M854.4,72.55c0,1.36,0.24,3.21,1.43,3.21c1.12,0,1.34-1.94,1.34-3.21
		c0-1.26-0.22-3.2-1.38-3.2C854.62,69.35,854.4,71.29,854.4,72.55z"/>
	<path d="M862.41,75.3c0.29,0.19,0.8,0.43,1.33,0.43c0.75,0,1.21-0.46,1.21-1.19c0-0.63-0.22-1.05-1.05-1.61
		c-1.07-0.7-1.65-1.39-1.65-2.35c0-1.33,0.99-2.28,2.26-2.28c0.65,0,1.14,0.22,1.48,0.42l-0.36,0.99c-0.31-0.2-0.66-0.36-1.09-0.36
		c-0.71,0-1.07,0.51-1.07,1.04c0,0.56,0.2,0.87,1.02,1.43c0.95,0.61,1.7,1.36,1.7,2.5c0,1.65-1.12,2.45-2.46,2.45
		c-0.61,0-1.27-0.19-1.63-0.48L862.41,75.3z"/>
	<path d="M872.59,72.55c0,3.18-1.48,4.25-2.74,4.25c-1.48,0-2.67-1.34-2.67-4.23c0-3.01,1.34-4.27,2.75-4.27
		C871.4,68.3,872.59,69.68,872.59,72.55z M868.49,72.55c0,1.36,0.24,3.21,1.43,3.21c1.12,0,1.34-1.94,1.34-3.21
		c0-1.26-0.22-3.2-1.38-3.2C868.71,69.35,868.49,71.29,868.49,72.55z"/>
	<path d="M873.96,76.66c0.02-0.48,0.07-1.41,0.07-1.97V64.9h1.31v4.5h0.03c0.43-0.82,1.04-1.11,1.73-1.11
		c1.27,0,2.24,1.48,2.24,4.17c0,2.97-1.22,4.33-2.5,4.33c-0.87,0-1.31-0.51-1.63-1.21h-0.05l-0.08,1.07H873.96z M875.34,73.76
		c0,0.19,0,0.37,0.05,0.51c0.31,1.22,0.87,1.44,1.22,1.44c1.05,0,1.43-1.43,1.43-3.18c0-1.65-0.39-3.11-1.44-3.11
		c-0.61,0-1.12,0.76-1.22,1.46c-0.03,0.19-0.03,0.39-0.03,0.58V73.76z"/>
	<path d="M880.82,70.56c0-0.7-0.05-1.51-0.07-2.13h1.17l0.07,1.29h0.03c0.27-0.78,0.97-1.43,1.73-1.43c0.1,0,0.19,0.02,0.27,0.02
		v1.34c-0.08-0.02-0.17-0.02-0.27-0.02c-0.83,0-1.44,0.77-1.58,1.72c-0.03,0.22-0.05,0.48-0.05,0.75v4.56h-1.31V70.56z"/>
	<path d="M885.73,72.67c0.02,2.52,1,3.06,1.96,3.06c0.56,0,1.04-0.14,1.36-0.32l0.2,0.97c-0.46,0.25-1.16,0.39-1.8,0.39
		c-1.97,0-2.99-1.61-2.99-4.13c0-2.67,1.12-4.33,2.77-4.33c1.68,0,2.35,1.77,2.35,3.64c0,0.31,0,0.53-0.02,0.73H885.73z
		 M888.31,71.7c0.03-1.65-0.59-2.38-1.22-2.38c-0.85,0-1.29,1.26-1.34,2.38H888.31z"/>
	<path d="M898.58,74.42c0,0.92,0.05,1.63,0.07,2.24h-1.14l-0.08-0.87h-0.03c-0.26,0.41-0.88,1-1.77,1c-1.44,0-2.01-1.12-2.01-3.16
		v-5.2h1.31v5.01c0,1.29,0.2,2.24,1.1,2.24c0.76,0,1.1-0.71,1.17-1.09c0.05-0.22,0.07-0.48,0.07-0.75v-5.42h1.31V74.42z"/>
	<path d="M900.42,70.56c0-0.97-0.05-1.46-0.07-2.13h1.14l0.07,0.99h0.03c0.36-0.66,1.02-1.12,1.89-1.12c1.14,0,1.99,0.85,1.99,2.84
		v5.52h-1.31v-5.3c0-0.97-0.19-1.95-1.14-1.95c-0.54,0-1.07,0.46-1.24,1.34c-0.03,0.2-0.05,0.46-0.05,0.73v5.18h-1.31V70.56z"/>
	<path d="M910.55,76.66l-0.08-0.87h-0.05c-0.36,0.63-0.93,1-1.63,1c-1.1,0-1.96-0.93-1.96-2.35c0-2.06,1.65-2.97,3.5-2.99v-0.25
		c0-1.11-0.27-1.87-1.31-1.87c-0.51,0-0.97,0.17-1.36,0.42l-0.29-0.92c0.34-0.25,1.11-0.54,1.92-0.54c1.65,0,2.36,1.09,2.36,2.94
		v3.55c0,0.63,0,1.34,0.08,1.87H910.55z M910.36,72.41c-0.68,0-2.26,0.12-2.26,1.9c0,1.07,0.54,1.46,1,1.46
		c0.58,0,1.07-0.42,1.22-1.24c0.03-0.15,0.03-0.32,0.03-0.46V72.41z"/>
	<path d="M916.07,76.66c0.02-0.48,0.07-1.41,0.07-1.97V64.9h1.31v4.5h0.03c0.42-0.82,1.04-1.11,1.73-1.11
		c1.28,0,2.24,1.48,2.24,4.17c0,2.97-1.22,4.33-2.5,4.33c-0.87,0-1.31-0.51-1.63-1.21h-0.05l-0.08,1.07H916.07z M917.45,73.76
		c0,0.19,0,0.37,0.05,0.51c0.31,1.22,0.87,1.44,1.22,1.44c1.05,0,1.43-1.43,1.43-3.18c0-1.65-0.39-3.11-1.45-3.11
		c-0.61,0-1.12,0.76-1.22,1.46c-0.03,0.19-0.03,0.39-0.03,0.58V73.76z"/>
	<path d="M926.19,76.66l-0.08-0.87h-0.05c-0.36,0.63-0.93,1-1.63,1c-1.1,0-1.96-0.93-1.96-2.35c0-2.06,1.65-2.97,3.5-2.99v-0.25
		c0-1.11-0.27-1.87-1.31-1.87c-0.51,0-0.97,0.17-1.36,0.42l-0.29-0.92c0.34-0.25,1.11-0.54,1.92-0.54c1.65,0,2.36,1.09,2.36,2.94
		v3.55c0,0.63,0,1.34,0.08,1.87H926.19z M926,72.41c-0.68,0-2.26,0.12-2.26,1.9c0,1.07,0.54,1.46,1,1.46c0.58,0,1.07-0.42,1.22-1.24
		c0.03-0.15,0.03-0.32,0.03-0.46V72.41z"/>
	<path d="M928.91,75.3c0.29,0.19,0.8,0.43,1.33,0.43c0.75,0,1.21-0.46,1.21-1.19c0-0.63-0.22-1.05-1.05-1.61
		c-1.07-0.7-1.65-1.39-1.65-2.35c0-1.33,0.99-2.28,2.26-2.28c0.65,0,1.14,0.22,1.48,0.42l-0.36,0.99c-0.31-0.2-0.66-0.36-1.09-0.36
		c-0.71,0-1.07,0.51-1.07,1.04c0,0.56,0.2,0.87,1.02,1.43c0.95,0.61,1.7,1.36,1.7,2.5c0,1.65-1.12,2.45-2.46,2.45
		c-0.61,0-1.27-0.19-1.63-0.48L928.91,75.3z"/>
	<path d="M934.96,72.67c0.02,2.52,1,3.06,1.95,3.06c0.56,0,1.04-0.14,1.36-0.32l0.2,0.97c-0.46,0.25-1.16,0.39-1.8,0.39
		c-1.97,0-2.99-1.61-2.99-4.13c0-2.67,1.12-4.33,2.77-4.33c1.68,0,2.35,1.77,2.35,3.64c0,0.31,0,0.53-0.02,0.73H934.96z
		 M937.54,71.7c0.03-1.65-0.59-2.38-1.22-2.38c-0.85,0-1.29,1.26-1.34,2.38H937.54z"/>
	<path d="M789.13,85.3v9.79c0,0.56,0.05,1.5,0.07,1.97h-1.12l-0.08-1.04h-0.05c-0.27,0.59-0.85,1.17-1.72,1.17
		c-1.39,0-2.4-1.51-2.4-4.22c0-2.92,1.21-4.28,2.48-4.28c0.59,0,1.17,0.29,1.5,0.99h0.03V85.3H789.13z M787.84,91.96
		c0-0.17,0-0.36-0.02-0.54c-0.08-0.85-0.59-1.6-1.22-1.6c-1.09,0-1.46,1.51-1.46,3.16c0,1.73,0.44,3.13,1.39,3.13
		c0.41,0,0.97-0.22,1.26-1.41c0.03-0.15,0.05-0.34,0.05-0.54V91.96z"/>
	<path d="M791.88,93.07c0.02,2.52,1,3.06,1.95,3.06c0.56,0,1.04-0.14,1.36-0.32l0.2,0.97c-0.46,0.25-1.16,0.39-1.8,0.39
		c-1.97,0-2.99-1.61-2.99-4.13c0-2.67,1.12-4.33,2.77-4.33c1.68,0,2.35,1.77,2.35,3.64c0,0.31,0,0.53-0.02,0.73H791.88z
		 M794.47,92.1c0.03-1.65-0.59-2.38-1.22-2.38c-0.85,0-1.29,1.26-1.34,2.38H794.47z"/>
	<path d="M799.8,90.96c0-0.97-0.05-1.46-0.07-2.13h1.14l0.07,1.02h0.03c0.36-0.66,0.99-1.16,1.85-1.16c0.76,0,1.41,0.37,1.72,1.26
		h0.03c0.22-0.41,0.51-0.73,0.82-0.93c0.32-0.22,0.71-0.32,1.14-0.32c1.1,0,1.97,0.82,1.97,2.91v5.46h-1.29v-5.15
		c0-1.07-0.15-2.11-1.16-2.11c-0.54,0-1.02,0.46-1.21,1.22c-0.03,0.22-0.05,0.48-0.05,0.75v5.29h-1.29v-5.39
		c0-0.92-0.17-1.87-1.14-1.87c-0.53,0-1.07,0.46-1.22,1.33c-0.03,0.22-0.05,0.46-0.05,0.71v5.22h-1.29V90.96z"/>
	<path d="M813.59,97.06l-0.08-0.87h-0.05c-0.36,0.63-0.93,1-1.63,1c-1.1,0-1.96-0.93-1.96-2.35c0-2.06,1.65-2.97,3.5-2.99v-0.25
		c0-1.11-0.27-1.87-1.31-1.87c-0.51,0-0.97,0.17-1.36,0.42l-0.29-0.92c0.34-0.25,1.11-0.54,1.92-0.54c1.65,0,2.36,1.09,2.36,2.94
		v3.55c0,0.63,0,1.34,0.08,1.87H813.59z M813.4,92.81c-0.68,0-2.26,0.12-2.26,1.9c0,1.07,0.54,1.46,1,1.46
		c0.58,0,1.07-0.42,1.22-1.24c0.03-0.15,0.03-0.32,0.03-0.46V92.81z"/>
	<path d="M816.53,90.96c0-0.97-0.05-1.46-0.07-2.13h1.14l0.07,0.99h0.03c0.36-0.66,1.02-1.12,1.89-1.12c1.14,0,1.99,0.85,1.99,2.84
		v5.52h-1.31v-5.3c0-0.97-0.19-1.95-1.14-1.95c-0.54,0-1.07,0.46-1.24,1.34c-0.03,0.2-0.05,0.46-0.05,0.73v5.18h-1.31V90.96z"/>
	<path d="M824.33,93.07c0.02,2.52,1,3.06,1.96,3.06c0.56,0,1.04-0.14,1.36-0.32l0.2,0.97c-0.46,0.25-1.16,0.39-1.8,0.39
		c-1.97,0-2.99-1.61-2.99-4.13c0-2.67,1.12-4.33,2.77-4.33c1.68,0,2.35,1.77,2.35,3.64c0,0.31,0,0.53-0.02,0.73H824.33z
		 M826.92,92.1c0.03-1.65-0.59-2.38-1.22-2.38c-0.85,0-1.29,1.26-1.34,2.38H826.92z"/>
	<path d="M828.19,99.43c0.37-0.1,0.83-0.24,1.1-0.65c0.29-0.44,0.39-1.05,0.39-2.62v-7.33H831v7.7c0,1.73-0.25,2.53-0.83,3.15
		c-0.49,0.51-1.29,0.76-1.8,0.78L828.19,99.43z M831.12,86.71c0,0.51-0.31,0.85-0.8,0.85c-0.43,0-0.77-0.34-0.75-0.85
		c-0.02-0.51,0.32-0.85,0.78-0.85S831.12,86.2,831.12,86.71z"/>
	<path d="M837.83,92.95c0,3.18-1.48,4.25-2.74,4.25c-1.48,0-2.67-1.34-2.67-4.23c0-3.01,1.34-4.27,2.75-4.27
		C836.64,88.7,837.83,90.08,837.83,92.95z M833.74,92.95c0,1.36,0.24,3.21,1.43,3.21c1.12,0,1.34-1.94,1.34-3.21
		c0-1.26-0.22-3.2-1.38-3.2C833.96,89.75,833.74,91.69,833.74,92.95z"/>
	<path d="M841.74,95.7c0.29,0.19,0.8,0.42,1.33,0.42c0.75,0,1.21-0.46,1.21-1.19c0-0.63-0.22-1.05-1.05-1.61
		c-1.07-0.7-1.65-1.39-1.65-2.35c0-1.33,0.99-2.28,2.26-2.28c0.65,0,1.14,0.22,1.48,0.42l-0.36,0.99c-0.31-0.2-0.66-0.36-1.09-0.36
		c-0.71,0-1.07,0.51-1.07,1.04c0,0.56,0.2,0.87,1.02,1.43c0.95,0.61,1.7,1.36,1.7,2.5c0,1.65-1.12,2.45-2.46,2.45
		c-0.61,0-1.28-0.19-1.63-0.48L841.74,95.7z"/>
	<path d="M847.79,93.07c0.02,2.52,1,3.06,1.96,3.06c0.56,0,1.04-0.14,1.36-0.32l0.2,0.97c-0.46,0.25-1.16,0.39-1.8,0.39
		c-1.97,0-2.99-1.61-2.99-4.13c0-2.67,1.12-4.33,2.77-4.33c1.68,0,2.35,1.77,2.35,3.64c0,0.31,0,0.53-0.02,0.73H847.79z
		 M850.38,92.1c0.03-1.65-0.59-2.38-1.22-2.38c-0.85,0-1.29,1.26-1.34,2.38H850.38z"/>
	<path d="M858.96,97.06l-0.08-0.87h-0.05c-0.36,0.63-0.94,1-1.63,1c-1.11,0-1.96-0.93-1.96-2.35c0-2.06,1.65-2.97,3.5-2.99v-0.25
		c0-1.11-0.27-1.87-1.31-1.87c-0.51,0-0.97,0.17-1.36,0.42l-0.29-0.92c0.34-0.25,1.1-0.54,1.92-0.54c1.65,0,2.36,1.09,2.36,2.94
		v3.55c0,0.63,0,1.34,0.08,1.87H858.96z M858.78,92.81c-0.68,0-2.26,0.12-2.26,1.9c0,1.07,0.54,1.46,1,1.46
		c0.58,0,1.07-0.42,1.22-1.24c0.03-0.15,0.03-0.32,0.03-0.46V92.81z"/>
	<path d="M866.85,85.3v9.79c0,0.56,0.05,1.5,0.07,1.97h-1.12l-0.08-1.04h-0.05c-0.27,0.59-0.85,1.17-1.72,1.17
		c-1.39,0-2.4-1.51-2.4-4.22c0-2.92,1.21-4.28,2.48-4.28c0.6,0,1.17,0.29,1.5,0.99h0.03V85.3H866.85z M865.56,91.96
		c0-0.17,0-0.36-0.02-0.54c-0.08-0.85-0.6-1.6-1.22-1.6c-1.09,0-1.46,1.51-1.46,3.16c0,1.73,0.44,3.13,1.39,3.13
		c0.41,0,0.97-0.22,1.26-1.41c0.03-0.15,0.05-0.34,0.05-0.54V91.96z"/>
	<path d="M868.69,90.96c0-0.97-0.05-1.46-0.07-2.13h1.14l0.07,1.02h0.03c0.36-0.66,0.99-1.16,1.85-1.16c0.77,0,1.41,0.37,1.72,1.26
		h0.03c0.22-0.41,0.51-0.73,0.82-0.93c0.32-0.22,0.71-0.32,1.14-0.32c1.1,0,1.97,0.82,1.97,2.91v5.46h-1.29v-5.15
		c0-1.07-0.15-2.11-1.16-2.11c-0.54,0-1.02,0.46-1.21,1.22c-0.03,0.22-0.05,0.48-0.05,0.75v5.29h-1.29v-5.39
		c0-0.92-0.17-1.87-1.14-1.87c-0.53,0-1.07,0.46-1.22,1.33c-0.03,0.22-0.05,0.46-0.05,0.71v5.22h-1.29V90.96z"/>
	<path d="M880.64,86.71c0.02,0.51-0.31,0.85-0.8,0.85c-0.42,0-0.75-0.34-0.75-0.85c0-0.51,0.34-0.85,0.76-0.85
		C880.33,85.86,880.64,86.2,880.64,86.71z M879.23,97.06v-8.23h1.31v8.23H879.23z"/>
	<path d="M882.35,90.96c0-0.97-0.05-1.46-0.07-2.13h1.14l0.07,0.99h0.03c0.36-0.66,1.02-1.12,1.89-1.12c1.14,0,1.99,0.85,1.99,2.84
		v5.52h-1.31v-5.3c0-0.97-0.19-1.95-1.14-1.95c-0.54,0-1.07,0.46-1.24,1.34c-0.03,0.2-0.05,0.46-0.05,0.73v5.18h-1.31V90.96z"/>
	<path d="M890.65,86.71c0.02,0.51-0.31,0.85-0.8,0.85c-0.42,0-0.75-0.34-0.75-0.85c0-0.51,0.34-0.85,0.76-0.85
		C890.34,85.86,890.65,86.2,890.65,86.71z M889.24,97.06v-8.23h1.31v8.23H889.24z"/>
	<path d="M892.15,95.7c0.29,0.19,0.8,0.42,1.33,0.42c0.75,0,1.21-0.46,1.21-1.19c0-0.63-0.22-1.05-1.05-1.61
		c-1.07-0.7-1.65-1.39-1.65-2.35c0-1.33,0.99-2.28,2.26-2.28c0.65,0,1.14,0.22,1.48,0.42l-0.36,0.99c-0.31-0.2-0.66-0.36-1.09-0.36
		c-0.71,0-1.07,0.51-1.07,1.04c0,0.56,0.2,0.87,1.02,1.43c0.95,0.61,1.7,1.36,1.7,2.5c0,1.65-1.12,2.45-2.46,2.45
		c-0.61,0-1.27-0.19-1.63-0.48L892.15,95.7z"/>
	<path d="M898.88,86.66v2.18h1.58v1h-1.58v4.88c0,1.07,0.39,1.36,0.87,1.36c0.2,0,0.37-0.02,0.53-0.05l0.05,1
		c-0.24,0.08-0.54,0.14-0.97,0.14c-0.51,0-0.97-0.14-1.29-0.49c-0.32-0.37-0.49-0.94-0.49-2.07v-4.76h-1v-1h1v-1.8L898.88,86.66z"/>
	<path d="M901.6,90.96c0-0.7-0.05-1.51-0.07-2.13h1.17l0.07,1.29h0.03c0.27-0.78,0.97-1.43,1.73-1.43c0.1,0,0.19,0.02,0.27,0.02
		v1.34c-0.08-0.02-0.17-0.02-0.27-0.02c-0.83,0-1.45,0.76-1.58,1.72c-0.03,0.22-0.05,0.48-0.05,0.75v4.56h-1.31V90.96z"/>
	<path d="M908.98,97.06l-0.08-0.87h-0.05c-0.36,0.63-0.94,1-1.63,1c-1.11,0-1.96-0.93-1.96-2.35c0-2.06,1.65-2.97,3.5-2.99v-0.25
		c0-1.11-0.27-1.87-1.31-1.87c-0.51,0-0.97,0.17-1.36,0.42l-0.29-0.92c0.34-0.25,1.1-0.54,1.92-0.54c1.65,0,2.36,1.09,2.36,2.94
		v3.55c0,0.63,0,1.34,0.08,1.87H908.98z M908.79,92.81c-0.68,0-2.26,0.12-2.26,1.9c0,1.07,0.54,1.46,1,1.46
		c0.58,0,1.07-0.42,1.22-1.24c0.03-0.15,0.03-0.32,0.03-0.46V92.81z"/>
	<path d="M918.6,96.86c-0.29,0.17-0.78,0.31-1.36,0.31c-1.8,0-3.01-1.44-3.01-4.16c0-2.36,1.19-4.28,3.25-4.28
		c0.44,0,0.92,0.12,1.16,0.25l-0.25,1.07c-0.17-0.08-0.51-0.22-0.93-0.22c-1.31,0-1.9,1.56-1.9,3.18c0,1.92,0.73,3.08,1.94,3.08
		c0.36,0,0.65-0.08,0.95-0.22L918.6,96.86z"/>
	<path d="M924.67,92.95c0,3.18-1.48,4.25-2.74,4.25c-1.48,0-2.67-1.34-2.67-4.23c0-3.01,1.34-4.27,2.75-4.27
		C923.48,88.7,924.67,90.08,924.67,92.95z M920.57,92.95c0,1.36,0.24,3.21,1.43,3.21c1.12,0,1.34-1.94,1.34-3.21
		c0-1.26-0.22-3.2-1.38-3.2C920.79,89.75,920.57,91.69,920.57,92.95z"/>
	<path d="M926.13,90.96c0-0.97-0.05-1.46-0.07-2.13h1.14l0.07,1.02h0.03c0.36-0.66,0.99-1.16,1.85-1.16c0.77,0,1.41,0.37,1.72,1.26
		h0.03c0.22-0.41,0.51-0.73,0.82-0.93c0.32-0.22,0.71-0.32,1.14-0.32c1.1,0,1.97,0.82,1.97,2.91v5.46h-1.29v-5.15
		c0-1.07-0.15-2.11-1.16-2.11c-0.54,0-1.02,0.46-1.21,1.22c-0.03,0.22-0.05,0.48-0.05,0.75v5.29h-1.29v-5.39
		c0-0.92-0.17-1.87-1.14-1.87c-0.53,0-1.07,0.46-1.22,1.33c-0.03,0.22-0.05,0.46-0.05,0.71v5.22h-1.29V90.96z"/>
	<path d="M941.72,92.95c0,3.18-1.48,4.25-2.74,4.25c-1.48,0-2.67-1.34-2.67-4.23c0-3.01,1.34-4.27,2.75-4.27
		C940.53,88.7,941.72,90.08,941.72,92.95z M937.62,92.95c0,1.36,0.24,3.21,1.43,3.21c1.12,0,1.34-1.94,1.34-3.21
		c0-1.26-0.22-3.2-1.38-3.2C937.84,89.75,937.62,91.69,937.62,92.95z"/>
	<path d="M788.26,115.22c0,0.92,0.05,1.63,0.07,2.24h-1.14l-0.08-0.87h-0.03c-0.25,0.41-0.88,1-1.77,1c-1.45,0-2.01-1.12-2.01-3.16
		v-5.2h1.31v5.01c0,1.29,0.2,2.24,1.11,2.24c0.76,0,1.1-0.71,1.17-1.09c0.05-0.22,0.07-0.48,0.07-0.75v-5.42h1.31V115.22z"/>
	<path d="M790.1,111.36c0-0.97-0.05-1.46-0.07-2.13h1.14l0.07,0.99h0.03c0.36-0.66,1.02-1.12,1.89-1.12c1.14,0,1.99,0.85,1.99,2.84
		v5.52h-1.31v-5.3c0-0.97-0.19-1.95-1.14-1.95c-0.54,0-1.07,0.46-1.24,1.34c-0.03,0.2-0.05,0.46-0.05,0.73v5.18h-1.31V111.36z"/>
	<path d="M800.23,117.46l-0.08-0.87h-0.05c-0.36,0.63-0.94,1-1.63,1c-1.11,0-1.96-0.93-1.96-2.35c0-2.06,1.65-2.97,3.5-2.99v-0.25
		c0-1.11-0.27-1.87-1.31-1.87c-0.51,0-0.97,0.17-1.36,0.42l-0.29-0.92c0.34-0.25,1.1-0.54,1.92-0.54c1.65,0,2.36,1.09,2.36,2.94
		v3.55c0,0.63,0,1.34,0.08,1.87H800.23z M800.04,113.21c-0.68,0-2.26,0.12-2.26,1.9c0,1.07,0.54,1.46,1,1.46
		c0.58,0,1.07-0.42,1.22-1.24c0.03-0.15,0.03-0.32,0.03-0.46V113.21z"/>
	<path d="M810.77,115.22c0,0.92,0.05,1.63,0.07,2.24h-1.14l-0.08-0.87h-0.03c-0.25,0.41-0.88,1-1.77,1c-1.45,0-2.01-1.12-2.01-3.16
		v-5.2h1.31v5.01c0,1.29,0.2,2.24,1.11,2.24c0.76,0,1.1-0.71,1.17-1.09c0.05-0.22,0.07-0.48,0.07-0.75v-5.42h1.31V115.22z"/>
	<path d="M812.61,111.36c0-0.97-0.05-1.46-0.07-2.13h1.14l0.07,0.99h0.03c0.36-0.66,1.02-1.12,1.89-1.12c1.14,0,1.99,0.85,1.99,2.84
		v5.52h-1.31v-5.3c0-0.97-0.19-1.95-1.14-1.95c-0.54,0-1.07,0.46-1.24,1.34c-0.03,0.2-0.05,0.46-0.05,0.73v5.18h-1.31V111.36z"/>
	<path d="M820.9,107.11c0.02,0.51-0.31,0.85-0.8,0.85c-0.42,0-0.75-0.34-0.75-0.85c0-0.51,0.34-0.85,0.76-0.85
		C820.6,106.26,820.9,106.6,820.9,107.11z M819.49,117.46v-8.23h1.31v8.23H819.49z"/>
	<path d="M827.56,105.7v9.79c0,0.56,0.05,1.5,0.07,1.97h-1.12l-0.08-1.04h-0.05c-0.27,0.59-0.85,1.17-1.72,1.17
		c-1.39,0-2.4-1.51-2.4-4.22c0-2.92,1.21-4.28,2.48-4.28c0.59,0,1.17,0.29,1.5,0.99h0.03v-4.39H827.56z M826.27,112.36
		c0-0.17,0-0.36-0.02-0.54c-0.08-0.85-0.59-1.6-1.22-1.6c-1.09,0-1.46,1.51-1.46,3.16c0,1.73,0.44,3.13,1.39,3.13
		c0.41,0,0.97-0.22,1.26-1.41c0.03-0.15,0.05-0.34,0.05-0.54V112.36z"/>
	<path d="M832.65,117.46l-0.08-0.87h-0.05c-0.36,0.63-0.93,1-1.63,1c-1.1,0-1.96-0.93-1.96-2.35c0-2.06,1.65-2.97,3.5-2.99v-0.25
		c0-1.11-0.27-1.87-1.31-1.87c-0.51,0-0.97,0.17-1.36,0.42l-0.29-0.92c0.34-0.25,1.11-0.54,1.92-0.54c1.65,0,2.36,1.09,2.36,2.94
		v3.55c0,0.63,0,1.34,0.08,1.87H832.65z M832.46,113.21c-0.68,0-2.26,0.12-2.26,1.9c0,1.07,0.54,1.46,1,1.46
		c0.58,0,1.07-0.42,1.22-1.24c0.03-0.15,0.03-0.32,0.03-0.46V113.21z"/>
	<path d="M840.54,105.7v9.79c0,0.56,0.05,1.5,0.07,1.97h-1.12l-0.08-1.04h-0.05c-0.27,0.59-0.85,1.17-1.72,1.17
		c-1.39,0-2.4-1.51-2.4-4.22c0-2.92,1.21-4.28,2.48-4.28c0.59,0,1.17,0.29,1.5,0.99h0.03v-4.39H840.54z M839.24,112.36
		c0-0.17,0-0.36-0.02-0.54c-0.08-0.85-0.59-1.6-1.22-1.6c-1.09,0-1.46,1.51-1.46,3.16c0,1.73,0.44,3.13,1.39,3.13
		c0.41,0,0.97-0.22,1.26-1.41c0.03-0.15,0.05-0.34,0.05-0.54V112.36z"/>
	<path d="M841.52,119.61c0.36-0.99,0.82-2.79,0.99-3.96l1.48-0.17c-0.37,1.38-1.11,3.25-1.56,4.01L841.52,119.61z"/>
	<path d="M847.9,116.1c0.29,0.19,0.8,0.42,1.33,0.42c0.75,0,1.21-0.46,1.21-1.19c0-0.63-0.22-1.05-1.05-1.61
		c-1.07-0.7-1.65-1.39-1.65-2.35c0-1.33,0.99-2.28,2.26-2.28c0.65,0,1.14,0.22,1.48,0.42l-0.36,0.99c-0.31-0.2-0.66-0.36-1.09-0.36
		c-0.71,0-1.07,0.51-1.07,1.04c0,0.56,0.2,0.87,1.02,1.43c0.95,0.61,1.7,1.36,1.7,2.5c0,1.65-1.12,2.45-2.46,2.45
		c-0.61,0-1.28-0.19-1.63-0.48L847.9,116.1z"/>
	<path d="M853.95,113.47c0.02,2.52,1,3.06,1.96,3.06c0.56,0,1.04-0.14,1.36-0.32l0.2,0.97c-0.46,0.25-1.16,0.39-1.8,0.39
		c-1.97,0-2.99-1.61-2.99-4.13c0-2.67,1.12-4.33,2.77-4.33c1.68,0,2.35,1.77,2.35,3.64c0,0.31,0,0.53-0.02,0.73H853.95z
		 M856.53,112.5c0.03-1.65-0.59-2.38-1.22-2.38c-0.85,0-1.29,1.26-1.34,2.38H856.53z"/>
	<path d="M862.45,117.46l-0.08-0.87h-0.05c-0.36,0.63-0.94,1-1.63,1c-1.11,0-1.96-0.93-1.96-2.35c0-2.06,1.65-2.97,3.5-2.99v-0.25
		c0-1.11-0.27-1.87-1.31-1.87c-0.51,0-0.97,0.17-1.36,0.42l-0.29-0.92c0.34-0.25,1.1-0.54,1.92-0.54c1.65,0,2.36,1.09,2.36,2.94
		v3.55c0,0.63,0,1.34,0.08,1.87H862.45z M862.26,113.21c-0.68,0-2.26,0.12-2.26,1.9c0,1.07,0.54,1.46,1,1.46
		c0.58,0,1.07-0.42,1.22-1.24c0.03-0.15,0.03-0.32,0.03-0.46V113.21z"/>
	<path d="M873.11,113.35c0,3.18-1.48,4.25-2.74,4.25c-1.48,0-2.67-1.34-2.67-4.23c0-3.01,1.34-4.27,2.75-4.27
		C871.92,109.1,873.11,110.48,873.11,113.35z M869.01,113.35c0,1.36,0.24,3.21,1.43,3.21c1.12,0,1.34-1.94,1.34-3.21
		c0-1.26-0.22-3.2-1.38-3.2C869.23,110.15,869.01,112.09,869.01,113.35z"/>
	<path d="M877.24,111.36c0-0.97-0.05-1.46-0.07-2.13h1.14l0.07,0.99h0.03c0.36-0.66,1.02-1.12,1.89-1.12c1.14,0,1.99,0.85,1.99,2.84
		v5.52h-1.31v-5.3c0-0.97-0.19-1.95-1.14-1.95c-0.54,0-1.07,0.46-1.24,1.34c-0.03,0.2-0.05,0.46-0.05,0.73v5.18h-1.31V111.36z"/>
	<path d="M889.17,113.35c0,3.18-1.48,4.25-2.74,4.25c-1.48,0-2.67-1.34-2.67-4.23c0-3.01,1.34-4.27,2.75-4.27
		C887.98,109.1,889.17,110.48,889.17,113.35z M885.07,113.35c0,1.36,0.24,3.21,1.43,3.21c1.12,0,1.34-1.94,1.34-3.21
		c0-1.26-0.22-3.2-1.38-3.2C885.3,110.15,885.07,112.09,885.07,113.35z"/>
	<path d="M894.71,107.11c0.02,0.51-0.31,0.85-0.8,0.85c-0.42,0-0.75-0.34-0.75-0.85c0-0.51,0.34-0.85,0.77-0.85
		C894.41,106.26,894.71,106.6,894.71,107.11z M893.3,117.46v-8.23h1.31v8.23H893.3z"/>
	<path d="M901.38,105.7v9.79c0,0.56,0.05,1.5,0.07,1.97h-1.12l-0.08-1.04h-0.05c-0.27,0.59-0.85,1.17-1.72,1.17
		c-1.39,0-2.4-1.51-2.4-4.22c0-2.92,1.21-4.28,2.48-4.28c0.6,0,1.17,0.29,1.5,0.99h0.03v-4.39H901.38z M900.08,112.36
		c0-0.17,0-0.36-0.02-0.54c-0.08-0.85-0.6-1.6-1.22-1.6c-1.09,0-1.46,1.51-1.46,3.16c0,1.73,0.44,3.13,1.39,3.13
		c0.41,0,0.97-0.22,1.26-1.41c0.03-0.15,0.05-0.34,0.05-0.54V112.36z"/>
	<path d="M904.13,113.47c0.02,2.52,1,3.06,1.96,3.06c0.56,0,1.04-0.14,1.36-0.32l0.2,0.97c-0.46,0.25-1.16,0.39-1.8,0.39
		c-1.97,0-2.99-1.61-2.99-4.13c0-2.67,1.12-4.33,2.77-4.33c1.68,0,2.35,1.77,2.35,3.64c0,0.31,0,0.53-0.02,0.73H904.13z
		 M906.71,112.5c0.03-1.65-0.59-2.38-1.22-2.38c-0.85,0-1.29,1.26-1.34,2.38H906.71z M907.63,105.87l-1.79,2.29h-0.87l1.31-2.29
		H907.63z"/>
	<path d="M909.38,111.36c0-0.97-0.05-1.46-0.07-2.13h1.14l0.07,0.99h0.03c0.36-0.66,1.02-1.12,1.89-1.12c1.14,0,1.99,0.85,1.99,2.84
		v5.52h-1.31v-5.3c0-0.97-0.19-1.95-1.14-1.95c-0.54,0-1.07,0.46-1.24,1.34c-0.03,0.2-0.05,0.46-0.05,0.73v5.18h-1.31V111.36z"/>
	<path d="M917.76,107.06v2.18h1.58v1h-1.58v4.88c0,1.07,0.39,1.36,0.87,1.36c0.2,0,0.37-0.02,0.53-0.05l0.05,1
		c-0.24,0.08-0.54,0.14-0.97,0.14c-0.51,0-0.97-0.14-1.29-0.49c-0.32-0.37-0.49-0.94-0.49-2.07v-4.76h-1v-1h1v-1.8L917.76,107.06z"
		/>
	<path d="M921.91,107.11c0.02,0.51-0.31,0.85-0.8,0.85c-0.42,0-0.75-0.34-0.75-0.85c0-0.51,0.34-0.85,0.77-0.85
		C921.61,106.26,921.91,106.6,921.91,107.11z M920.5,117.46v-8.23h1.31v8.23H920.5z"/>
	<path d="M927.64,117.26c-0.29,0.17-0.78,0.31-1.36,0.31c-1.8,0-3.01-1.44-3.01-4.16c0-2.36,1.19-4.28,3.25-4.28
		c0.44,0,0.92,0.12,1.16,0.25l-0.25,1.07c-0.17-0.08-0.51-0.22-0.93-0.22c-1.31,0-1.9,1.56-1.9,3.18c0,1.92,0.73,3.08,1.94,3.08
		c0.36,0,0.65-0.08,0.95-0.22L927.64,117.26z"/>
	<path d="M933.71,113.35c0,3.18-1.48,4.25-2.74,4.25c-1.48,0-2.67-1.34-2.67-4.23c0-3.01,1.34-4.27,2.75-4.27
		C932.52,109.1,933.71,110.48,933.71,113.35z M929.61,113.35c0,1.36,0.24,3.21,1.43,3.21c1.12,0,1.34-1.94,1.34-3.21
		c0-1.26-0.22-3.2-1.38-3.2C929.83,110.15,929.61,112.09,929.61,113.35z"/>
	<path d="M941.09,117.46L941,116.6h-0.05c-0.36,0.63-0.94,1-1.63,1c-1.11,0-1.96-0.93-1.96-2.35c0-2.06,1.65-2.97,3.5-2.99v-0.25
		c0-1.11-0.27-1.87-1.31-1.87c-0.51,0-0.97,0.17-1.36,0.42l-0.29-0.92c0.34-0.25,1.1-0.54,1.92-0.54c1.65,0,2.36,1.09,2.36,2.94
		v3.55c0,0.63,0,1.34,0.08,1.87H941.09z M940.9,113.21c-0.68,0-2.26,0.12-2.26,1.9c0,1.07,0.54,1.46,1,1.46
		c0.58,0,1.07-0.42,1.22-1.24c0.03-0.15,0.03-0.32,0.03-0.46V113.21z"/>
	<path d="M823.22,135.62c0,0.92,0.05,1.63,0.07,2.24h-1.14l-0.08-0.87h-0.03c-0.25,0.41-0.88,1-1.77,1c-1.45,0-2.01-1.12-2.01-3.16
		v-5.2h1.31v5.01c0,1.29,0.2,2.24,1.11,2.24c0.76,0,1.1-0.71,1.17-1.09c0.05-0.22,0.07-0.48,0.07-0.75v-5.42h1.31V135.62z"/>
	<path d="M825.06,131.76c0-0.97-0.05-1.46-0.07-2.13h1.14l0.07,0.99h0.03c0.36-0.66,1.02-1.12,1.89-1.12c1.14,0,1.99,0.85,1.99,2.84
		v5.52h-1.31v-5.3c0-0.97-0.19-1.95-1.14-1.95c-0.54,0-1.07,0.46-1.24,1.34c-0.03,0.2-0.05,0.46-0.05,0.73v5.18h-1.31V131.76z"/>
	<path d="M834.39,136.5c0.29,0.19,0.8,0.42,1.33,0.42c0.75,0,1.21-0.46,1.21-1.19c0-0.63-0.22-1.05-1.05-1.61
		c-1.07-0.7-1.65-1.39-1.65-2.35c0-1.33,0.99-2.28,2.26-2.28c0.65,0,1.14,0.22,1.48,0.42l-0.36,0.99c-0.31-0.2-0.66-0.36-1.09-0.36
		c-0.71,0-1.07,0.51-1.07,1.04c0,0.56,0.2,0.87,1.02,1.43c0.95,0.61,1.7,1.36,1.7,2.5c0,1.65-1.12,2.45-2.46,2.45
		c-0.61,0-1.27-0.19-1.63-0.48L834.39,136.5z"/>
	<path d="M841.12,127.46v2.18h1.58v1h-1.58v4.88c0,1.07,0.39,1.36,0.87,1.36c0.2,0,0.37-0.02,0.53-0.05l0.05,1
		c-0.24,0.08-0.54,0.14-0.97,0.14c-0.51,0-0.97-0.14-1.29-0.49c-0.32-0.37-0.49-0.94-0.49-2.07v-4.76h-1v-1h1v-1.8L841.12,127.46z"
		/>
	<path d="M848.77,133.75c0,3.18-1.48,4.25-2.74,4.25c-1.48,0-2.67-1.34-2.67-4.23c0-3.01,1.34-4.27,2.75-4.27
		C847.58,129.5,848.77,130.88,848.77,133.75z M844.67,133.75c0,1.36,0.24,3.21,1.43,3.21c1.12,0,1.34-1.94,1.34-3.21
		c0-1.26-0.22-3.2-1.38-3.2C844.9,130.55,844.67,132.49,844.67,133.75z"/>
	<path d="M854.25,137.66c-0.29,0.17-0.78,0.31-1.36,0.31c-1.8,0-3.01-1.44-3.01-4.16c0-2.36,1.19-4.28,3.25-4.28
		c0.44,0,0.92,0.12,1.16,0.25l-0.25,1.07c-0.17-0.08-0.51-0.22-0.93-0.22c-1.31,0-1.9,1.56-1.9,3.18c0,1.92,0.73,3.08,1.94,3.08
		c0.36,0,0.65-0.08,0.95-0.22L854.25,137.66z"/>
	<path d="M856.66,133.46h0.03c0.15-0.32,0.29-0.65,0.44-0.92l1.63-2.91h1.41L858,133.1l2.36,4.76h-1.46l-1.78-3.88l-0.46,0.77v3.11
		h-1.31V126.1h1.31V133.46z"/>
	<path d="M869.09,129.64c-0.02,0.58-0.07,1.31-0.07,2.57v4.61c0,2.16-0.27,2.97-0.82,3.57c-0.49,0.56-1.28,0.88-2.19,0.88
		c-0.7,0-1.38-0.17-1.8-0.41l0.31-1.02c0.32,0.17,0.87,0.36,1.53,0.36c1.04,0,1.68-0.65,1.68-2.52v-0.83h-0.03
		c-0.29,0.65-0.88,1-1.58,1c-1.46,0-2.41-1.65-2.41-4.06c0-3.03,1.38-4.28,2.58-4.28c0.88,0,1.29,0.58,1.53,1.07h0.03l0.07-0.94
		H869.09z M867.73,132.48c0-0.2-0.02-0.42-0.07-0.59c-0.15-0.56-0.44-1.26-1.19-1.26c-0.95,0-1.46,1.27-1.46,3.09
		c0,2.11,0.66,3.06,1.46,3.06c0.39,0,0.9-0.19,1.17-1.17c0.07-0.25,0.08-0.51,0.08-0.75V132.48z"/>
	<path d="M871.75,133.87c0.02,2.52,1,3.06,1.96,3.06c0.56,0,1.04-0.14,1.36-0.32l0.2,0.97c-0.46,0.25-1.16,0.39-1.8,0.39
		c-1.97,0-2.99-1.61-2.99-4.13c0-2.67,1.12-4.33,2.77-4.33c1.68,0,2.35,1.77,2.35,3.64c0,0.31,0,0.53-0.02,0.73H871.75z
		 M874.34,132.9c0.03-1.65-0.59-2.38-1.22-2.38c-0.85,0-1.29,1.26-1.34,2.38H874.34z"/>
	<path d="M877.01,131.76c0-0.97-0.05-1.46-0.07-2.13h1.14l0.07,0.99h0.03c0.36-0.66,1.02-1.12,1.89-1.12c1.14,0,1.99,0.85,1.99,2.84
		v5.52h-1.31v-5.3c0-0.97-0.19-1.95-1.14-1.95c-0.54,0-1.07,0.46-1.24,1.34c-0.03,0.2-0.05,0.46-0.05,0.73v5.18h-1.31V131.76z"/>
	<path d="M884.81,133.87c0.02,2.52,1,3.06,1.96,3.06c0.56,0,1.04-0.14,1.36-0.32l0.2,0.97c-0.46,0.25-1.16,0.39-1.8,0.39
		c-1.97,0-2.99-1.61-2.99-4.13c0-2.67,1.12-4.33,2.77-4.33c1.68,0,2.35,1.77,2.35,3.64c0,0.31,0,0.53-0.02,0.73H884.81z
		 M887.39,132.9c0.03-1.65-0.59-2.38-1.22-2.38c-0.85,0-1.29,1.26-1.34,2.38H887.39z M888.31,126.27l-1.79,2.29h-0.87l1.31-2.29
		H888.31z"/>
	<path d="M891.66,127.46v2.18h1.58v1h-1.58v4.88c0,1.07,0.39,1.36,0.87,1.36c0.2,0,0.37-0.02,0.53-0.05l0.05,1
		c-0.24,0.08-0.54,0.14-0.97,0.14c-0.51,0-0.97-0.14-1.29-0.49c-0.32-0.37-0.49-0.94-0.49-2.07v-4.76h-1v-1h1v-1.8L891.66,127.46z"
		/>
	<path d="M895.81,127.51c0.02,0.51-0.31,0.85-0.8,0.85c-0.42,0-0.75-0.34-0.75-0.85c0-0.51,0.34-0.85,0.76-0.85
		C895.5,126.66,895.81,127,895.81,127.51z M894.4,137.86v-8.23h1.31v8.23H894.4z"/>
	<path d="M901.54,137.66c-0.29,0.17-0.78,0.31-1.36,0.31c-1.8,0-3.01-1.44-3.01-4.16c0-2.36,1.19-4.28,3.25-4.28
		c0.44,0,0.92,0.12,1.16,0.25l-0.25,1.07c-0.17-0.08-0.51-0.22-0.94-0.22c-1.31,0-1.9,1.56-1.9,3.18c0,1.92,0.73,3.08,1.94,3.08
		c0.36,0,0.65-0.08,0.95-0.22L901.54,137.66z"/>
	<path d="M907.61,133.75c0,3.18-1.48,4.25-2.74,4.25c-1.48,0-2.67-1.34-2.67-4.23c0-3.01,1.34-4.27,2.75-4.27
		C906.42,129.5,907.61,130.88,907.61,133.75z M903.51,133.75c0,1.36,0.24,3.21,1.43,3.21c1.12,0,1.34-1.94,1.34-3.21
		c0-1.26-0.22-3.2-1.38-3.2C903.73,130.55,903.51,132.49,903.51,133.75z"/>
</g>
<g>
	<g>
		<line class="st1" x1="285.71" y1="93" x2="299.19" y2="93"/>
		<g>
			<polygon class="st2" points="297.56,80.85 297.56,105.15 309.71,93 			"/>
		</g>
	</g>
</g>
<linearGradient id="SVGID_2_" gradientUnits="userSpaceOnUse" x1="530.7081" y1="47.5" x2="717.7081" y2="47.5">
	<stop  offset="0" style="stop-color:#8FCCD5"/>
	<stop  offset="0.5" style="stop-color:#5BBAC7"/>
	<stop  offset="1" style="stop-color:#00AAB9"/>
</linearGradient>
<path class="st3" d="M702.21,86h-156c-6.6,0-12-5.4-12-12V21c0-6.6,5.4-12,12-12h156c6.6,0,12,5.4,12,12v53
	C714.21,80.6,708.81,86,702.21,86z"/>
<g>
	<path d="M574.52,32.1c-0.36,0.19-0.92,0.31-1.63,0.31c-2.24,0-3.84-1.8-3.84-5.69c0-4.52,2.24-5.97,4.05-5.97
		c0.7,0,1.19,0.14,1.43,0.29l-0.29,1.1c-0.27-0.12-0.56-0.24-1.16-0.24c-1.22,0-2.65,1.19-2.65,4.69c0,3.5,1.29,4.66,2.69,4.66
		c0.49,0,0.94-0.12,1.21-0.25L574.52,32.1z"/>
	<path d="M580.5,28.19c0,3.18-1.48,4.25-2.74,4.25c-1.48,0-2.67-1.34-2.67-4.23c0-3.01,1.34-4.27,2.75-4.27
		C579.31,23.94,580.5,25.32,580.5,28.19z M576.41,28.19c0,1.36,0.24,3.21,1.43,3.21c1.12,0,1.34-1.94,1.34-3.21
		c0-1.26-0.22-3.2-1.38-3.2C576.63,24.99,576.41,26.93,576.41,28.19z"/>
	<path d="M581.97,26.2c0-0.97-0.05-1.46-0.07-2.13h1.14l0.07,0.99h0.03c0.36-0.66,1.02-1.12,1.89-1.12c1.14,0,1.99,0.85,1.99,2.84
		v5.52h-1.31V27c0-0.97-0.19-1.95-1.14-1.95c-0.54,0-1.07,0.46-1.24,1.34c-0.03,0.2-0.05,0.46-0.05,0.73v5.18h-1.31V26.2z"/>
	<path d="M590.35,21.9v2.18h1.58v1h-1.58v4.88c0,1.07,0.39,1.36,0.87,1.36c0.2,0,0.37-0.02,0.53-0.05l0.05,1
		c-0.24,0.08-0.54,0.14-0.97,0.14c-0.51,0-0.97-0.14-1.29-0.49c-0.32-0.37-0.49-0.94-0.49-2.07v-4.76h-1v-1h1v-1.8L590.35,21.9z"/>
	<path d="M593.87,28.31c0.02,2.52,1,3.06,1.95,3.06c0.56,0,1.04-0.14,1.36-0.32l0.2,0.97c-0.46,0.25-1.16,0.39-1.8,0.39
		c-1.97,0-2.99-1.61-2.99-4.13c0-2.67,1.12-4.33,2.77-4.33c1.68,0,2.35,1.77,2.35,3.64c0,0.31,0,0.53-0.02,0.73H593.87z
		 M596.45,27.34c0.03-1.65-0.59-2.38-1.22-2.38c-0.85,0-1.29,1.26-1.34,2.38H596.45z"/>
	<path d="M599.12,26.2c0-0.97-0.05-1.46-0.07-2.13h1.14l0.07,0.99h0.03c0.36-0.66,1.02-1.12,1.89-1.12c1.14,0,1.99,0.85,1.99,2.84
		v5.52h-1.31V27c0-0.97-0.19-1.95-1.14-1.95c-0.54,0-1.07,0.46-1.24,1.34c-0.03,0.2-0.05,0.46-0.05,0.73v5.18h-1.31V26.2z"/>
	<path d="M606.92,28.31c0.02,2.52,1,3.06,1.95,3.06c0.56,0,1.04-0.14,1.36-0.32l0.2,0.97c-0.46,0.25-1.16,0.39-1.8,0.39
		c-1.97,0-2.99-1.61-2.99-4.13c0-2.67,1.12-4.33,2.77-4.33c1.68,0,2.35,1.77,2.35,3.64c0,0.31,0,0.53-0.02,0.73H606.92z
		 M609.51,27.34c0.03-1.65-0.59-2.38-1.22-2.38c-0.85,0-1.29,1.26-1.34,2.38H609.51z"/>
	<path d="M612.16,26.2c0-0.7-0.05-1.51-0.07-2.13h1.17l0.07,1.29h0.03c0.27-0.78,0.97-1.43,1.73-1.43c0.1,0,0.19,0.02,0.27,0.02
		v1.34c-0.08-0.02-0.17-0.02-0.27-0.02c-0.83,0-1.44,0.77-1.58,1.72c-0.03,0.22-0.05,0.48-0.05,0.75v4.56h-1.31V26.2z"/>
	<path d="M619.06,26.2c0-0.97-0.05-1.46-0.07-2.13h1.14l0.07,1.02h0.03c0.36-0.66,0.99-1.16,1.85-1.16c0.77,0,1.41,0.37,1.72,1.26
		h0.03c0.22-0.41,0.51-0.73,0.82-0.93c0.32-0.22,0.71-0.32,1.14-0.32c1.1,0,1.97,0.82,1.97,2.91v5.46h-1.29v-5.15
		c0-1.07-0.15-2.11-1.16-2.11c-0.54,0-1.02,0.46-1.21,1.22c-0.03,0.22-0.05,0.48-0.05,0.75v5.29h-1.29v-5.39
		c0-0.92-0.17-1.87-1.14-1.87c-0.53,0-1.07,0.46-1.22,1.33c-0.03,0.22-0.05,0.46-0.05,0.71v5.22h-1.29V26.2z"/>
	<path d="M632.85,32.3l-0.08-0.87h-0.05c-0.36,0.63-0.94,1-1.63,1c-1.1,0-1.96-0.93-1.96-2.35c0-2.06,1.65-2.97,3.5-2.99v-0.25
		c0-1.11-0.27-1.87-1.31-1.87c-0.51,0-0.97,0.17-1.36,0.42l-0.29-0.92c0.34-0.25,1.1-0.54,1.92-0.54c1.65,0,2.36,1.09,2.36,2.94
		v3.55c0,0.63,0,1.34,0.08,1.87H632.85z M632.66,28.05c-0.68,0-2.26,0.12-2.26,1.9c0,1.07,0.54,1.46,1,1.46
		c0.58,0,1.07-0.42,1.22-1.24c0.03-0.15,0.03-0.32,0.03-0.46V28.05z M633.73,20.71L631.95,23h-0.87l1.31-2.29H633.73z"/>
	<path d="M635.57,30.94c0.29,0.19,0.8,0.43,1.33,0.43c0.75,0,1.21-0.46,1.21-1.19c0-0.63-0.22-1.05-1.05-1.61
		c-1.07-0.7-1.65-1.39-1.65-2.35c0-1.33,0.99-2.28,2.26-2.28c0.65,0,1.14,0.22,1.48,0.42l-0.36,0.99c-0.31-0.2-0.66-0.36-1.09-0.36
		c-0.71,0-1.07,0.51-1.07,1.04c0,0.56,0.2,0.87,1.02,1.43c0.95,0.61,1.7,1.36,1.7,2.5c0,1.65-1.12,2.45-2.46,2.45
		c-0.61,0-1.27-0.19-1.63-0.48L635.57,30.94z"/>
	<path d="M648.32,20.54v9.79c0,0.56,0.05,1.5,0.07,1.97h-1.12l-0.08-1.04h-0.05c-0.27,0.59-0.85,1.17-1.72,1.17
		c-1.39,0-2.4-1.51-2.4-4.21c0-2.92,1.21-4.28,2.48-4.28c0.6,0,1.17,0.29,1.5,0.99h0.03v-4.39H648.32z M647.02,27.2
		c0-0.17,0-0.36-0.02-0.54c-0.08-0.85-0.6-1.6-1.22-1.6c-1.09,0-1.46,1.51-1.46,3.16c0,1.73,0.44,3.13,1.39,3.13
		c0.41,0,0.97-0.22,1.26-1.41c0.03-0.15,0.05-0.34,0.05-0.54V27.2z"/>
	<path d="M651.07,28.31c0.02,2.52,1,3.06,1.95,3.06c0.56,0,1.04-0.14,1.36-0.32l0.2,0.97c-0.46,0.25-1.16,0.39-1.8,0.39
		c-1.97,0-2.99-1.61-2.99-4.13c0-2.67,1.12-4.33,2.77-4.33c1.68,0,2.35,1.77,2.35,3.64c0,0.31,0,0.53-0.02,0.73H651.07z
		 M653.65,27.34c0.03-1.65-0.59-2.38-1.22-2.38c-0.85,0-1.29,1.26-1.34,2.38H653.65z"/>
	<path d="M663.92,30.06c0,0.92,0.05,1.63,0.07,2.24h-1.14l-0.08-0.87h-0.03c-0.26,0.41-0.88,1-1.77,1c-1.44,0-2.01-1.12-2.01-3.16
		v-5.2h1.31v5.01c0,1.29,0.2,2.24,1.1,2.24c0.76,0,1.1-0.71,1.17-1.09c0.05-0.22,0.07-0.48,0.07-0.75v-5.42h1.31V30.06z"/>
	<path d="M665.76,26.2c0-0.97-0.05-1.46-0.07-2.13h1.14l0.07,0.99h0.03c0.36-0.66,1.02-1.12,1.89-1.12c1.14,0,1.99,0.85,1.99,2.84
		v5.52h-1.31V27c0-0.97-0.19-1.95-1.14-1.95c-0.54,0-1.07,0.46-1.24,1.34c-0.03,0.2-0.05,0.46-0.05,0.73v5.18h-1.31V26.2z"/>
	<path d="M675.89,32.3l-0.08-0.87h-0.05c-0.36,0.63-0.94,1-1.63,1c-1.1,0-1.96-0.93-1.96-2.35c0-2.06,1.65-2.97,3.5-2.99v-0.25
		c0-1.11-0.27-1.87-1.31-1.87c-0.51,0-0.97,0.17-1.36,0.42l-0.29-0.92c0.34-0.25,1.1-0.54,1.92-0.54c1.65,0,2.36,1.09,2.36,2.94
		v3.55c0,0.63,0,1.34,0.08,1.87H675.89z M675.7,28.05c-0.68,0-2.26,0.12-2.26,1.9c0,1.07,0.54,1.46,1,1.46
		c0.58,0,1.07-0.42,1.22-1.24c0.03-0.15,0.03-0.32,0.03-0.46V28.05z"/>
	<path d="M557.84,47.04c0-1.26-0.05-1.99-0.07-2.57h1.17l0.07,1.05h0.03c0.44-0.88,1.09-1.19,1.73-1.19c1.43,0,2.38,1.53,2.38,4.23
		c0,3.04-1.26,4.27-2.55,4.27c-0.76,0-1.21-0.49-1.43-0.95h-0.03v4.08h-1.31V47.04z M559.15,49.68c0,0.25,0,0.49,0.05,0.68
		c0.25,1.17,0.85,1.39,1.21,1.39c1.09,0,1.43-1.5,1.43-3.16c0-1.7-0.41-3.13-1.44-3.13c-0.59,0-1.12,0.75-1.21,1.5
		c-0.03,0.2-0.03,0.41-0.03,0.63V49.68z"/>
	<path d="M569.68,48.59c0,3.18-1.48,4.25-2.74,4.25c-1.48,0-2.67-1.34-2.67-4.23c0-3.01,1.34-4.27,2.75-4.27
		C568.49,44.34,569.68,45.72,569.68,48.59z M565.59,48.59c0,1.36,0.24,3.21,1.43,3.21c1.12,0,1.34-1.94,1.34-3.21
		c0-1.26-0.22-3.2-1.38-3.2C565.81,45.39,565.59,47.33,565.59,48.59z"/>
	<path d="M571.06,52.7c0.02-0.48,0.07-1.41,0.07-1.97v-9.79h1.31v4.5h0.03c0.43-0.82,1.04-1.11,1.73-1.11
		c1.27,0,2.24,1.48,2.24,4.17c0,2.97-1.22,4.33-2.5,4.33c-0.87,0-1.31-0.51-1.63-1.21h-0.05l-0.09,1.07H571.06z M572.44,49.8
		c0,0.19,0,0.37,0.05,0.51c0.31,1.22,0.87,1.44,1.22,1.44c1.05,0,1.43-1.43,1.43-3.18c0-1.65-0.39-3.11-1.44-3.11
		c-0.61,0-1.12,0.76-1.22,1.46c-0.03,0.19-0.03,0.39-0.03,0.58V49.8z"/>
	<path d="M577.93,40.94h1.31V52.7h-1.31V40.94z"/>
	<path d="M584.42,52.7l-0.08-0.87h-0.05c-0.36,0.63-0.94,1-1.63,1c-1.1,0-1.96-0.93-1.96-2.35c0-2.06,1.65-2.97,3.5-2.99v-0.25
		c0-1.11-0.27-1.87-1.31-1.87c-0.51,0-0.97,0.17-1.36,0.42l-0.29-0.92c0.34-0.25,1.1-0.54,1.92-0.54c1.65,0,2.36,1.09,2.36,2.94
		v3.55c0,0.63,0,1.34,0.08,1.87H584.42z M584.24,48.45c-0.68,0-2.26,0.12-2.26,1.9c0,1.07,0.54,1.46,1,1.46
		c0.58,0,1.07-0.42,1.22-1.24c0.03-0.15,0.03-0.32,0.03-0.46V48.45z"/>
	<path d="M591.38,52.5c-0.29,0.17-0.78,0.31-1.36,0.31c-1.8,0-3.01-1.44-3.01-4.16c0-2.36,1.19-4.28,3.25-4.28
		c0.44,0,0.92,0.12,1.16,0.25l-0.25,1.07c-0.17-0.08-0.51-0.22-0.94-0.22c-1.31,0-1.9,1.56-1.9,3.18c0,1.92,0.73,3.08,1.94,3.08
		c0.36,0,0.65-0.08,0.95-0.22L591.38,52.5z"/>
	<path d="M593.91,42.35c0.02,0.51-0.31,0.85-0.8,0.85c-0.42,0-0.75-0.34-0.75-0.85c0-0.51,0.34-0.85,0.77-0.85
		C593.6,41.5,593.91,41.84,593.91,42.35z M592.5,52.7v-8.23h1.31v8.23H592.5z"/>
	<path d="M600.67,48.59c0,3.18-1.48,4.25-2.74,4.25c-1.48,0-2.67-1.34-2.67-4.23c0-3.01,1.34-4.27,2.75-4.27
		C599.48,44.34,600.67,45.72,600.67,48.59z M596.58,48.59c0,1.36,0.24,3.21,1.43,3.21c1.12,0,1.34-1.94,1.34-3.21
		c0-1.26-0.22-3.2-1.38-3.2C596.8,45.39,596.58,47.33,596.58,48.59z M599.98,41.11l-1.78,2.29h-0.87l1.31-2.29H599.98z"/>
	<path d="M602.14,46.6c0-0.97-0.05-1.46-0.07-2.13h1.14l0.07,0.99h0.03c0.36-0.66,1.02-1.12,1.89-1.12c1.14,0,1.99,0.85,1.99,2.84
		v5.52h-1.31v-5.3c0-0.97-0.19-1.95-1.14-1.95c-0.54,0-1.07,0.46-1.24,1.34c-0.03,0.2-0.05,0.46-0.05,0.73v5.18h-1.31V46.6z"/>
	<path d="M616.72,44.48c-0.02,0.58-0.07,1.31-0.07,2.57v4.61c0,2.16-0.27,2.97-0.82,3.57c-0.49,0.56-1.27,0.88-2.19,0.88
		c-0.7,0-1.38-0.17-1.8-0.41l0.31-1.02c0.32,0.17,0.87,0.36,1.53,0.36c1.04,0,1.68-0.65,1.68-2.52v-0.83h-0.03
		c-0.29,0.65-0.88,1-1.58,1c-1.46,0-2.41-1.65-2.41-4.06c0-3.03,1.38-4.28,2.58-4.28c0.88,0,1.29,0.58,1.53,1.07h0.03l0.07-0.94
		H616.72z M615.36,47.31c0-0.2-0.02-0.42-0.07-0.59c-0.15-0.56-0.44-1.26-1.19-1.26c-0.95,0-1.46,1.27-1.46,3.09
		c0,2.11,0.66,3.06,1.46,3.06c0.39,0,0.9-0.19,1.17-1.17c0.07-0.25,0.08-0.51,0.08-0.75V47.31z"/>
	<path d="M619.39,48.71c0.02,2.52,1,3.06,1.95,3.06c0.56,0,1.04-0.14,1.36-0.32l0.2,0.97c-0.46,0.25-1.16,0.39-1.8,0.39
		c-1.97,0-2.99-1.61-2.99-4.13c0-2.67,1.12-4.33,2.77-4.33c1.68,0,2.35,1.77,2.35,3.64c0,0.31,0,0.53-0.02,0.73H619.39z
		 M621.97,47.74c0.03-1.65-0.59-2.38-1.22-2.38c-0.85,0-1.29,1.26-1.34,2.38H621.97z"/>
	<path d="M624.64,46.6c0-0.97-0.05-1.46-0.07-2.13h1.14l0.07,0.99h0.03c0.36-0.66,1.02-1.12,1.89-1.12c1.14,0,1.99,0.85,1.99,2.84
		v5.52h-1.31v-5.3c0-0.97-0.19-1.95-1.14-1.95c-0.54,0-1.07,0.46-1.24,1.34c-0.03,0.2-0.05,0.46-0.05,0.73v5.18h-1.31V46.6z"/>
	<path d="M632.45,48.71c0.02,2.52,1,3.06,1.95,3.06c0.56,0,1.04-0.14,1.36-0.32l0.2,0.97c-0.46,0.25-1.16,0.39-1.8,0.39
		c-1.97,0-2.99-1.61-2.99-4.13c0-2.67,1.12-4.33,2.77-4.33c1.68,0,2.35,1.77,2.35,3.64c0,0.31,0,0.53-0.02,0.73H632.45z
		 M635.03,47.74c0.03-1.65-0.59-2.38-1.22-2.38c-0.85,0-1.29,1.26-1.34,2.38H635.03z M635.95,41.11l-1.78,2.29h-0.87l1.31-2.29
		H635.95z"/>
	<path d="M639.3,42.3v2.18h1.58v1h-1.58v4.88c0,1.07,0.39,1.36,0.87,1.36c0.2,0,0.37-0.02,0.53-0.05l0.05,1
		c-0.24,0.08-0.54,0.14-0.97,0.14c-0.51,0-0.97-0.14-1.29-0.49c-0.32-0.37-0.49-0.94-0.49-2.07v-4.76h-1v-1h1v-1.8L639.3,42.3z"/>
	<path d="M643.45,42.35c0.02,0.51-0.31,0.85-0.8,0.85c-0.42,0-0.75-0.34-0.75-0.85c0-0.51,0.34-0.85,0.77-0.85
		C643.14,41.5,643.45,41.84,643.45,42.35z M642.03,52.7v-8.23h1.31v8.23H642.03z"/>
	<path d="M649.17,52.5c-0.29,0.17-0.78,0.31-1.36,0.31c-1.8,0-3.01-1.44-3.01-4.16c0-2.36,1.19-4.28,3.25-4.28
		c0.44,0,0.92,0.12,1.16,0.25l-0.25,1.07c-0.17-0.08-0.51-0.22-0.94-0.22c-1.31,0-1.9,1.56-1.9,3.18c0,1.92,0.73,3.08,1.94,3.08
		c0.36,0,0.65-0.08,0.95-0.22L649.17,52.5z"/>
	<path d="M653.59,52.7l-0.08-0.87h-0.05c-0.36,0.63-0.94,1-1.63,1c-1.1,0-1.96-0.93-1.96-2.35c0-2.06,1.65-2.97,3.5-2.99v-0.25
		c0-1.11-0.27-1.87-1.31-1.87c-0.51,0-0.97,0.17-1.36,0.42l-0.29-0.92c0.34-0.25,1.1-0.54,1.92-0.54c1.65,0,2.36,1.09,2.36,2.94
		v3.55c0,0.63,0,1.34,0.08,1.87H653.59z M653.41,48.45c-0.68,0-2.26,0.12-2.26,1.9c0,1.07,0.54,1.46,1,1.46
		c0.58,0,1.07-0.42,1.22-1.24c0.03-0.15,0.03-0.32,0.03-0.46V48.45z"/>
	<path d="M656.54,46.6c0-0.97-0.05-1.46-0.07-2.13h1.14l0.07,1.02h0.03c0.36-0.66,0.99-1.16,1.85-1.16c0.77,0,1.41,0.37,1.72,1.26
		h0.03c0.22-0.41,0.51-0.73,0.82-0.93c0.32-0.22,0.71-0.32,1.14-0.32c1.1,0,1.97,0.82,1.97,2.91v5.46h-1.29v-5.15
		c0-1.07-0.15-2.11-1.16-2.11c-0.54,0-1.02,0.46-1.21,1.22c-0.03,0.22-0.05,0.48-0.05,0.75v5.29h-1.29v-5.39
		c0-0.92-0.17-1.87-1.14-1.87c-0.53,0-1.07,0.46-1.22,1.33c-0.03,0.22-0.05,0.46-0.05,0.71v5.22h-1.29V46.6z"/>
	<path d="M667.99,48.71c0.02,2.52,1,3.06,1.95,3.06c0.56,0,1.04-0.14,1.36-0.32l0.2,0.97c-0.46,0.25-1.16,0.39-1.8,0.39
		c-1.97,0-2.99-1.61-2.99-4.13c0-2.67,1.12-4.33,2.77-4.33c1.68,0,2.35,1.77,2.35,3.64c0,0.31,0,0.53-0.02,0.73H667.99z
		 M670.58,47.74c0.03-1.65-0.59-2.38-1.22-2.38c-0.85,0-1.29,1.26-1.34,2.38H670.58z"/>
	<path d="M673.25,46.6c0-0.97-0.05-1.46-0.07-2.13h1.14l0.07,0.99h0.03c0.36-0.66,1.02-1.12,1.89-1.12c1.14,0,1.99,0.85,1.99,2.84
		v5.52h-1.31v-5.3c0-0.97-0.19-1.95-1.14-1.95c-0.54,0-1.07,0.46-1.24,1.34c-0.03,0.2-0.05,0.46-0.05,0.73v5.18h-1.31V46.6z"/>
	<path d="M681.63,42.3v2.18h1.58v1h-1.58v4.88c0,1.07,0.39,1.36,0.87,1.36c0.2,0,0.37-0.02,0.53-0.05l0.05,1
		c-0.24,0.08-0.54,0.14-0.97,0.14c-0.51,0-0.97-0.14-1.29-0.49c-0.32-0.37-0.49-0.94-0.49-2.07v-4.76h-1v-1h1v-1.8L681.63,42.3z"/>
	<path d="M685.15,48.71c0.02,2.52,1,3.06,1.95,3.06c0.56,0,1.04-0.14,1.36-0.32l0.2,0.97c-0.46,0.25-1.16,0.39-1.8,0.39
		c-1.97,0-2.99-1.61-2.99-4.13c0-2.67,1.12-4.33,2.77-4.33c1.68,0,2.35,1.77,2.35,3.64c0,0.31,0,0.53-0.02,0.73H685.15z
		 M687.73,47.74c0.03-1.65-0.59-2.38-1.22-2.38c-0.85,0-1.29,1.26-1.34,2.38H687.73z"/>
	<path d="M609.06,73.1l-0.08-0.87h-0.05c-0.36,0.63-0.94,1-1.63,1c-1.1,0-1.96-0.93-1.96-2.35c0-2.06,1.65-2.97,3.5-2.99v-0.25
		c0-1.11-0.27-1.87-1.31-1.87c-0.51,0-0.97,0.17-1.36,0.42l-0.29-0.92c0.34-0.25,1.1-0.54,1.92-0.54c1.65,0,2.36,1.09,2.36,2.94
		v3.55c0,0.63,0,1.34,0.08,1.87H609.06z M608.87,68.85c-0.68,0-2.26,0.12-2.26,1.9c0,1.07,0.54,1.46,1,1.46
		c0.58,0,1.07-0.42,1.22-1.24c0.03-0.15,0.03-0.32,0.03-0.46V68.85z"/>
	<path d="M613.41,62.75c0.02,0.51-0.31,0.85-0.8,0.85c-0.42,0-0.75-0.34-0.75-0.85c0-0.51,0.34-0.85,0.77-0.85
		C613.1,61.9,613.41,62.24,613.41,62.75z M612,73.1v-8.23h1.31v8.23H612z"/>
	<path d="M614.9,71.74c0.29,0.19,0.8,0.42,1.33,0.42c0.75,0,1.21-0.46,1.21-1.19c0-0.63-0.22-1.05-1.05-1.61
		c-1.07-0.7-1.65-1.39-1.65-2.35c0-1.33,0.99-2.28,2.26-2.28c0.65,0,1.14,0.22,1.48,0.42l-0.36,0.99c-0.31-0.2-0.66-0.36-1.09-0.36
		c-0.71,0-1.07,0.51-1.07,1.04c0,0.56,0.2,0.87,1.02,1.43c0.95,0.61,1.7,1.36,1.7,2.5c0,1.65-1.12,2.45-2.46,2.45
		c-0.61,0-1.27-0.19-1.63-0.48L614.9,71.74z"/>
	<path d="M620.04,61.34h1.31V73.1h-1.31V61.34z"/>
	<path d="M626.53,73.1l-0.08-0.87h-0.05c-0.36,0.63-0.94,1-1.63,1c-1.1,0-1.96-0.93-1.96-2.35c0-2.06,1.65-2.97,3.5-2.99v-0.25
		c0-1.11-0.27-1.87-1.31-1.87c-0.51,0-0.97,0.17-1.36,0.42l-0.29-0.92c0.34-0.25,1.1-0.54,1.92-0.54c1.65,0,2.36,1.09,2.36,2.94
		v3.55c0,0.63,0,1.34,0.08,1.87H626.53z M626.34,68.85c-0.68,0-2.26,0.12-2.26,1.9c0,1.07,0.54,1.46,1,1.46
		c0.58,0,1.07-0.42,1.22-1.24c0.03-0.15,0.03-0.32,0.03-0.46V68.85z"/>
	<path d="M634.42,61.34v9.79c0,0.56,0.05,1.5,0.07,1.97h-1.12l-0.08-1.04h-0.05c-0.27,0.59-0.85,1.17-1.72,1.17
		c-1.39,0-2.4-1.51-2.4-4.22c0-2.92,1.21-4.28,2.48-4.28c0.6,0,1.17,0.29,1.5,0.99h0.03v-4.39H634.42z M633.13,68
		c0-0.17,0-0.36-0.02-0.54c-0.08-0.85-0.6-1.6-1.22-1.6c-1.09,0-1.46,1.51-1.46,3.16c0,1.73,0.44,3.13,1.39,3.13
		c0.41,0,0.97-0.22,1.26-1.41c0.03-0.15,0.05-0.34,0.05-0.54V68z"/>
	<path d="M639.5,73.1l-0.08-0.87h-0.05c-0.36,0.63-0.94,1-1.63,1c-1.1,0-1.96-0.93-1.96-2.35c0-2.06,1.65-2.97,3.5-2.99v-0.25
		c0-1.11-0.27-1.87-1.31-1.87c-0.51,0-0.97,0.17-1.36,0.42l-0.29-0.92c0.34-0.25,1.1-0.54,1.92-0.54c1.65,0,2.36,1.09,2.36,2.94
		v3.55c0,0.63,0,1.34,0.08,1.87H639.5z M639.31,68.85c-0.68,0-2.26,0.12-2.26,1.9c0,1.07,0.54,1.46,1,1.46
		c0.58,0,1.07-0.42,1.22-1.24c0.03-0.15,0.03-0.32,0.03-0.46V68.85z"/>
</g>
<path class="st2" d="M755.89,153.19c-0.71-0.18-1.43-0.33-2.12-0.53c-1.06-0.3-2.1-0.71-3.1-1.24c-1.08-0.58-2.08-1.34-2.96-2.36
	c-1.02-1.17-1.77-2.56-2.32-4.14c-0.43-1.27-0.71-2.56-0.9-3.91c-0.18-1.24-0.29-2.46-0.35-3.7c-0.06-1.14-0.08-2.26-0.08-3.4
	c0-7.87,0-15.76,0-23.62c0-1.47-0.02-2.92-0.1-4.39c-0.08-1.57-0.24-3.15-0.55-4.67c-0.27-1.24-0.63-2.41-1.16-3.5
	c-0.69-1.37-1.59-2.49-2.67-3.37c-1-0.81-2.1-1.42-3.22-1.88c-0.71-0.3-1.47-0.56-2.2-0.76c-0.04-0.03-0.08-0.03-0.12-0.05
	c0-0.05,0-0.08,0-0.13c0-0.05,0-0.1,0-0.18c0.2-0.08,0.41-0.13,0.61-0.2c1.14-0.38,2.24-0.84,3.32-1.47
	c1.06-0.63,2.04-1.4,2.88-2.41c1.02-1.22,1.73-2.66,2.22-4.31c0.33-1.12,0.53-2.23,0.67-3.4c0.16-1.24,0.24-2.51,0.29-3.78
	c0.04-1.19,0.06-2.41,0.06-3.6c0-7.76,0-15.5,0-23.27c0-1.17,0.04-2.31,0.1-3.48c0.1-1.67,0.31-3.3,0.67-4.92
	c0.33-1.42,0.75-2.77,1.39-4.01c0.9-1.78,2.08-3.12,3.55-4.14c1.1-0.76,2.26-1.27,3.47-1.62c0.77-0.23,1.55-0.41,2.35-0.53
	c0.08,0,0.18-0.03,0.27-0.05c-0.06-0.2-0.18-0.3-0.35-0.3c-1.04,0.03-2.06,0.08-3.1,0.18c-1.35,0.13-2.71,0.33-4.04,0.69
	c-1.28,0.36-2.51,0.81-3.69,1.52c-1.33,0.86-2.47,1.95-3.39,3.43c-0.71,1.12-1.22,2.39-1.61,3.7c-0.35,1.19-0.59,2.41-0.77,3.65
	c-0.16,1.17-0.29,2.36-0.35,3.53c-0.1,1.7-0.14,3.43-0.14,5.15c0,7.54,0,15.07,0,22.63c0,1.17-0.02,2.33-0.06,3.53
	c-0.04,1.34-0.16,2.69-0.39,4.01c-0.2,1.17-0.49,2.28-0.96,3.32c-0.57,1.29-1.37,2.36-2.32,3.22c-0.86,0.76-1.81,1.34-2.79,1.83
	c-0.94,0.46-1.9,0.81-2.88,1.12c-0.04,0.03-0.1,0.03-0.14,0.05c0,0.03,0,0.05,0,0.1c0,0.08,0,0.13,0,0.2
	c0.08,0.03,0.14,0.05,0.22,0.08c1.24,0.41,2.47,0.86,3.63,1.55c0.77,0.43,1.51,0.96,2.2,1.6c1.28,1.22,2.18,2.82,2.71,4.72
	c0.27,1.01,0.45,2.03,0.57,3.07c0.2,1.83,0.24,3.65,0.27,5.51c0,7.94,0,15.88,0,23.8c0,1.24,0,2.46,0.06,3.68
	c0.08,2,0.27,3.98,0.65,5.91c0.29,1.47,0.69,2.87,1.26,4.19c0.94,2.13,2.28,3.73,4,4.9c1.02,0.69,2.1,1.17,3.2,1.55
	c0.88,0.28,1.75,0.51,2.63,0.69c0.88,0.18,1.75,0.28,2.63,0.38c0.67,0.08,1.37,0.1,2.06,0.15c0.18,0,0.37,0,0.55,0.03
	c0.14,0.03,0.27-0.03,0.35-0.18C755.82,153.24,755.87,153.21,755.89,153.19z"/>
<linearGradient id="SVGID_3_" gradientUnits="userSpaceOnUse" x1="530.7081" y1="137.5" x2="717.7081" y2="137.5">
	<stop  offset="0" style="stop-color:#8FCCD5"/>
	<stop  offset="0.5" style="stop-color:#5BBAC7"/>
	<stop  offset="1" style="stop-color:#00AAB9"/>
</linearGradient>
<path class="st4" d="M702.21,176h-156c-6.6,0-12-5.4-12-12v-53c0-6.6,5.4-12,12-12h156c6.6,0,12,5.4,12,12v53
	C714.21,170.6,708.81,176,702.21,176z"/>
<g>
	<path d="M559.43,122.1c-0.36,0.19-0.92,0.31-1.63,0.31c-2.24,0-3.84-1.8-3.84-5.69c0-4.52,2.24-5.97,4.05-5.97
		c0.7,0,1.19,0.14,1.43,0.29l-0.29,1.1c-0.27-0.12-0.56-0.24-1.16-0.24c-1.22,0-2.65,1.19-2.65,4.69c0,3.5,1.29,4.66,2.69,4.66
		c0.49,0,0.94-0.12,1.21-0.25L559.43,122.1z"/>
	<path d="M565.42,118.19c0,3.18-1.48,4.25-2.74,4.25c-1.48,0-2.67-1.34-2.67-4.23c0-3.01,1.34-4.27,2.75-4.27
		C564.23,113.94,565.42,115.32,565.42,118.19z M561.32,118.19c0,1.36,0.24,3.21,1.43,3.21c1.12,0,1.34-1.94,1.34-3.21
		c0-1.26-0.22-3.2-1.38-3.2C561.54,114.99,561.32,116.93,561.32,118.19z"/>
	<path d="M566.88,116.2c0-0.97-0.05-1.46-0.07-2.13h1.14l0.07,0.99h0.03c0.36-0.66,1.02-1.12,1.89-1.12c1.14,0,1.99,0.85,1.99,2.84
		v5.52h-1.31V117c0-0.97-0.19-1.95-1.14-1.95c-0.54,0-1.07,0.46-1.24,1.34c-0.03,0.2-0.05,0.46-0.05,0.73v5.18h-1.31V116.2z"/>
	<path d="M575.26,111.9v2.18h1.58v1h-1.58v4.88c0,1.07,0.39,1.36,0.87,1.36c0.2,0,0.37-0.02,0.53-0.05l0.05,1
		c-0.24,0.08-0.54,0.14-0.97,0.14c-0.51,0-0.97-0.14-1.29-0.49c-0.32-0.37-0.49-0.94-0.49-2.07v-4.76h-1v-1h1v-1.8L575.26,111.9z"/>
	<path d="M578.78,118.31c0.02,2.52,1,3.06,1.95,3.06c0.56,0,1.04-0.14,1.36-0.32l0.2,0.97c-0.46,0.25-1.16,0.39-1.8,0.39
		c-1.97,0-2.99-1.61-2.99-4.13c0-2.67,1.12-4.33,2.77-4.33c1.68,0,2.35,1.77,2.35,3.64c0,0.31,0,0.53-0.02,0.73H578.78z
		 M581.36,117.34c0.03-1.65-0.59-2.38-1.22-2.38c-0.85,0-1.29,1.26-1.34,2.38H581.36z"/>
	<path d="M584.03,116.2c0-0.97-0.05-1.46-0.07-2.13h1.14l0.07,0.99h0.03c0.36-0.66,1.02-1.12,1.89-1.12c1.14,0,1.99,0.85,1.99,2.84
		v5.52h-1.31V117c0-0.97-0.19-1.95-1.14-1.95c-0.54,0-1.07,0.46-1.24,1.34c-0.03,0.2-0.05,0.46-0.05,0.73v5.18h-1.31V116.2z"/>
	<path d="M591.83,118.31c0.02,2.52,1,3.06,1.95,3.06c0.56,0,1.04-0.14,1.36-0.32l0.2,0.97c-0.46,0.25-1.16,0.39-1.8,0.39
		c-1.97,0-2.99-1.61-2.99-4.13c0-2.67,1.12-4.33,2.77-4.33c1.68,0,2.35,1.77,2.35,3.64c0,0.31,0,0.53-0.02,0.73H591.83z
		 M594.42,117.34c0.03-1.65-0.59-2.38-1.22-2.38c-0.85,0-1.29,1.26-1.34,2.38H594.42z"/>
	<path d="M597.07,116.2c0-0.7-0.05-1.51-0.07-2.13h1.17l0.07,1.29h0.03c0.27-0.78,0.97-1.43,1.73-1.43c0.1,0,0.19,0.02,0.27,0.02
		v1.34c-0.08-0.02-0.17-0.02-0.27-0.02c-0.83,0-1.44,0.77-1.58,1.72c-0.03,0.22-0.05,0.48-0.05,0.75v4.56h-1.31V116.2z"/>
	<path d="M603.75,120.94c0.29,0.19,0.8,0.43,1.33,0.43c0.75,0,1.21-0.46,1.21-1.19c0-0.63-0.22-1.05-1.05-1.61
		c-1.07-0.7-1.65-1.39-1.65-2.35c0-1.33,0.99-2.28,2.26-2.28c0.65,0,1.14,0.22,1.48,0.42l-0.36,0.99c-0.31-0.2-0.66-0.36-1.09-0.36
		c-0.71,0-1.07,0.51-1.07,1.04c0,0.56,0.2,0.87,1.02,1.43c0.95,0.61,1.7,1.36,1.7,2.5c0,1.65-1.12,2.45-2.46,2.45
		c-0.61,0-1.27-0.19-1.63-0.48L603.75,120.94z"/>
	<path d="M613.93,118.19c0,3.18-1.48,4.25-2.74,4.25c-1.48,0-2.67-1.34-2.67-4.23c0-3.01,1.34-4.27,2.75-4.27
		C612.74,113.94,613.93,115.32,613.93,118.19z M609.84,118.19c0,1.36,0.24,3.21,1.43,3.21c1.12,0,1.34-1.94,1.34-3.21
		c0-1.26-0.22-3.2-1.38-3.2C610.06,114.99,609.84,116.93,609.84,118.19z"/>
	<path d="M615.4,110.54h1.31v11.76h-1.31V110.54z"/>
	<path d="M623.69,118.19c0,3.18-1.48,4.25-2.74,4.25c-1.48,0-2.67-1.34-2.67-4.23c0-3.01,1.34-4.27,2.75-4.27
		C622.5,113.94,623.69,115.32,623.69,118.19z M619.6,118.19c0,1.36,0.24,3.21,1.43,3.21c1.12,0,1.34-1.94,1.34-3.21
		c0-1.26-0.22-3.2-1.38-3.2C619.82,114.99,619.6,116.93,619.6,118.19z"/>
	<path d="M632.75,120.06c0,0.92,0.05,1.63,0.07,2.24h-1.14l-0.08-0.87h-0.03c-0.26,0.41-0.88,1-1.77,1c-1.44,0-2.01-1.12-2.01-3.16
		v-5.2h1.31v5.01c0,1.29,0.2,2.24,1.1,2.24c0.76,0,1.1-0.71,1.17-1.09c0.05-0.22,0.07-0.48,0.07-0.75v-5.42h1.31V120.06z"/>
	<path d="M634.59,116.2c0-0.97-0.05-1.46-0.07-2.13h1.14l0.07,0.99h0.03c0.36-0.66,1.02-1.12,1.89-1.12c1.14,0,1.99,0.85,1.99,2.84
		v5.52h-1.31V117c0-0.97-0.19-1.95-1.14-1.95c-0.54,0-1.07,0.46-1.24,1.34c-0.03,0.2-0.05,0.46-0.05,0.73v5.18h-1.31V116.2z"/>
	<path d="M644.72,122.3l-0.08-0.87h-0.05c-0.36,0.63-0.94,1-1.63,1c-1.1,0-1.96-0.93-1.96-2.35c0-2.06,1.65-2.97,3.5-2.99v-0.25
		c0-1.11-0.27-1.87-1.31-1.87c-0.51,0-0.97,0.17-1.36,0.42l-0.29-0.92c0.34-0.25,1.1-0.54,1.92-0.54c1.65,0,2.36,1.09,2.36,2.94
		v3.55c0,0.63,0,1.34,0.08,1.87H644.72z M644.53,118.05c-0.68,0-2.26,0.12-2.26,1.9c0,1.07,0.54,1.46,1,1.46
		c0.58,0,1.07-0.42,1.22-1.24c0.03-0.15,0.03-0.32,0.03-0.46V118.05z"/>
	<path d="M650.31,116.64c0-1.26-0.05-1.99-0.07-2.57h1.17l0.07,1.05h0.03c0.44-0.88,1.09-1.19,1.73-1.19c1.43,0,2.38,1.53,2.38,4.23
		c0,3.04-1.26,4.27-2.55,4.27c-0.77,0-1.21-0.49-1.43-0.95h-0.03v4.08h-1.31V116.64z M651.62,119.28c0,0.25,0,0.49,0.05,0.68
		c0.25,1.17,0.85,1.39,1.21,1.39c1.09,0,1.43-1.5,1.43-3.16c0-1.7-0.41-3.13-1.44-3.13c-0.6,0-1.12,0.75-1.21,1.5
		c-0.03,0.2-0.03,0.41-0.03,0.63V119.28z"/>
	<path d="M660.36,122.3l-0.08-0.87h-0.05c-0.36,0.63-0.94,1-1.63,1c-1.1,0-1.96-0.93-1.96-2.35c0-2.06,1.65-2.97,3.5-2.99v-0.25
		c0-1.11-0.27-1.87-1.31-1.87c-0.51,0-0.97,0.17-1.36,0.42l-0.29-0.92c0.34-0.25,1.1-0.54,1.92-0.54c1.65,0,2.36,1.09,2.36,2.94
		v3.55c0,0.63,0,1.34,0.08,1.87H660.36z M660.17,118.05c-0.68,0-2.26,0.12-2.26,1.9c0,1.07,0.54,1.46,1,1.46
		c0.58,0,1.07-0.42,1.22-1.24c0.03-0.15,0.03-0.32,0.03-0.46V118.05z"/>
	<path d="M663.28,116.2c0-0.7-0.05-1.51-0.07-2.13h1.17l0.07,1.29h0.03c0.27-0.78,0.97-1.43,1.73-1.43c0.1,0,0.19,0.02,0.27,0.02
		v1.34c-0.08-0.02-0.17-0.02-0.27-0.02c-0.83,0-1.44,0.77-1.58,1.72c-0.03,0.22-0.05,0.48-0.05,0.75v4.56h-1.31V116.2z"/>
	<path d="M669.52,111.9v2.18h1.58v1h-1.58v4.88c0,1.07,0.39,1.36,0.87,1.36c0.2,0,0.37-0.02,0.53-0.05l0.05,1
		c-0.24,0.08-0.54,0.14-0.97,0.14c-0.51,0-0.97-0.14-1.29-0.49c-0.32-0.37-0.49-0.94-0.49-2.07v-4.76h-1v-1h1v-1.8L669.52,111.9z"/>
	<path d="M673.04,118.31c0.02,2.52,1,3.06,1.95,3.06c0.56,0,1.04-0.14,1.36-0.32l0.2,0.97c-0.46,0.25-1.16,0.39-1.8,0.39
		c-1.97,0-2.99-1.61-2.99-4.13c0-2.67,1.12-4.33,2.77-4.33c1.68,0,2.35,1.77,2.35,3.64c0,0.31,0,0.53-0.02,0.73H673.04z
		 M675.63,117.34c0.03-1.65-0.59-2.38-1.22-2.38c-0.85,0-1.29,1.26-1.34,2.38H675.63z"/>
	<path d="M685.91,110.54v9.79c0,0.56,0.05,1.5,0.07,1.97h-1.12l-0.08-1.04h-0.05c-0.27,0.59-0.85,1.17-1.72,1.17
		c-1.39,0-2.4-1.51-2.4-4.21c0-2.92,1.21-4.28,2.48-4.28c0.6,0,1.17,0.29,1.5,0.99h0.03v-4.39H685.91z M684.62,117.2
		c0-0.17,0-0.36-0.02-0.54c-0.08-0.85-0.59-1.6-1.22-1.6c-1.09,0-1.46,1.51-1.46,3.16c0,1.73,0.44,3.13,1.39,3.13
		c0.41,0,0.97-0.22,1.26-1.41c0.03-0.15,0.05-0.34,0.05-0.54V117.2z"/>
	<path d="M688.67,118.31c0.02,2.52,1,3.06,1.95,3.06c0.56,0,1.04-0.14,1.36-0.32l0.2,0.97c-0.46,0.25-1.16,0.39-1.8,0.39
		c-1.97,0-2.99-1.61-2.99-4.13c0-2.67,1.12-4.33,2.77-4.33c1.68,0,2.35,1.77,2.35,3.64c0,0.31,0,0.53-0.02,0.73H688.67z
		 M691.25,117.34c0.03-1.65-0.59-2.38-1.22-2.38c-0.85,0-1.29,1.26-1.34,2.38H691.25z"/>
	<path d="M592.22,140.46c0,0.92,0.05,1.63,0.07,2.24h-1.14l-0.08-0.87h-0.03c-0.26,0.41-0.88,1-1.77,1c-1.44,0-2.01-1.12-2.01-3.16
		v-5.2h1.31v5.01c0,1.29,0.2,2.24,1.1,2.24c0.76,0,1.1-0.71,1.17-1.09c0.05-0.22,0.07-0.48,0.07-0.75v-5.42h1.31V140.46z"/>
	<path d="M594.05,136.6c0-0.97-0.05-1.46-0.07-2.13h1.14l0.07,0.99h0.03c0.36-0.66,1.02-1.12,1.89-1.12c1.14,0,1.99,0.85,1.99,2.84
		v5.52h-1.31v-5.3c0-0.97-0.19-1.95-1.14-1.95c-0.54,0-1.07,0.46-1.24,1.34c-0.03,0.2-0.05,0.46-0.05,0.73v5.18h-1.31V136.6z"/>
	<path d="M604.19,142.7l-0.08-0.87h-0.05c-0.36,0.63-0.94,1-1.63,1c-1.1,0-1.96-0.93-1.96-2.35c0-2.06,1.65-2.97,3.5-2.99v-0.25
		c0-1.11-0.27-1.87-1.31-1.87c-0.51,0-0.97,0.17-1.36,0.42l-0.29-0.92c0.34-0.25,1.1-0.54,1.92-0.54c1.65,0,2.36,1.09,2.36,2.94
		v3.55c0,0.63,0,1.34,0.08,1.87H604.19z M604,138.45c-0.68,0-2.26,0.12-2.26,1.9c0,1.07,0.54,1.46,1,1.46
		c0.58,0,1.07-0.42,1.22-1.24c0.03-0.15,0.03-0.32,0.03-0.46V138.45z"/>
	<path d="M609.78,137.04c0-1.26-0.05-1.99-0.07-2.57h1.17l0.07,1.05h0.03c0.44-0.88,1.09-1.19,1.73-1.19c1.43,0,2.38,1.53,2.38,4.23
		c0,3.04-1.26,4.27-2.55,4.27c-0.76,0-1.21-0.49-1.43-0.95h-0.03v4.08h-1.31V137.04z M611.09,139.68c0,0.25,0,0.49,0.05,0.68
		c0.25,1.17,0.85,1.39,1.21,1.39c1.09,0,1.43-1.5,1.43-3.16c0-1.7-0.41-3.13-1.44-3.13c-0.59,0-1.12,0.75-1.21,1.5
		c-0.03,0.2-0.03,0.41-0.03,0.63V139.68z"/>
	<path d="M621.63,138.59c0,3.18-1.48,4.25-2.74,4.25c-1.48,0-2.67-1.34-2.67-4.23c0-3.01,1.34-4.27,2.75-4.27
		C620.44,134.34,621.63,135.72,621.63,138.59z M617.53,138.59c0,1.36,0.24,3.21,1.43,3.21c1.12,0,1.34-1.94,1.34-3.21
		c0-1.26-0.22-3.2-1.38-3.2C617.75,135.39,617.53,137.33,617.53,138.59z"/>
	<path d="M623,142.7c0.02-0.48,0.07-1.41,0.07-1.97v-9.79h1.31v4.5h0.03c0.43-0.82,1.04-1.11,1.73-1.11c1.27,0,2.24,1.48,2.24,4.17
		c0,2.97-1.22,4.33-2.5,4.33c-0.87,0-1.31-0.51-1.63-1.21h-0.05l-0.09,1.07H623z M624.38,139.8c0,0.19,0,0.37,0.05,0.51
		c0.31,1.22,0.87,1.44,1.22,1.44c1.05,0,1.43-1.43,1.43-3.18c0-1.65-0.39-3.11-1.44-3.11c-0.61,0-1.12,0.76-1.22,1.46
		c-0.03,0.19-0.03,0.39-0.03,0.58V139.8z"/>
	<path d="M629.87,130.94h1.31v11.76h-1.31V130.94z"/>
	<path d="M636.37,142.7l-0.08-0.87h-0.05c-0.36,0.63-0.94,1-1.63,1c-1.1,0-1.96-0.93-1.96-2.35c0-2.06,1.65-2.97,3.5-2.99v-0.25
		c0-1.11-0.27-1.87-1.31-1.87c-0.51,0-0.97,0.17-1.36,0.42l-0.29-0.92c0.34-0.25,1.1-0.54,1.92-0.54c1.65,0,2.36,1.09,2.36,2.94
		v3.55c0,0.63,0,1.34,0.08,1.87H636.37z M636.18,138.45c-0.68,0-2.26,0.12-2.26,1.9c0,1.07,0.54,1.46,1,1.46
		c0.58,0,1.07-0.42,1.22-1.24c0.03-0.15,0.03-0.32,0.03-0.46V138.45z"/>
	<path d="M643.32,142.5c-0.29,0.17-0.78,0.31-1.36,0.31c-1.8,0-3.01-1.44-3.01-4.16c0-2.36,1.19-4.28,3.25-4.28
		c0.44,0,0.92,0.12,1.16,0.25l-0.25,1.07c-0.17-0.08-0.51-0.22-0.94-0.22c-1.31,0-1.9,1.56-1.9,3.18c0,1.92,0.73,3.08,1.94,3.08
		c0.36,0,0.65-0.08,0.95-0.22L643.32,142.5z"/>
	<path d="M645.85,132.35c0.02,0.51-0.31,0.85-0.8,0.85c-0.42,0-0.75-0.34-0.75-0.85c0-0.51,0.34-0.85,0.77-0.85
		C645.55,131.5,645.85,131.84,645.85,132.35z M644.44,142.7v-8.23h1.31v8.23H644.44z"/>
	<path d="M652.62,138.59c0,3.18-1.48,4.25-2.74,4.25c-1.48,0-2.67-1.34-2.67-4.23c0-3.01,1.34-4.27,2.75-4.27
		C651.43,134.34,652.62,135.72,652.62,138.59z M648.52,138.59c0,1.36,0.24,3.21,1.43,3.21c1.12,0,1.34-1.94,1.34-3.21
		c0-1.26-0.22-3.2-1.38-3.2C648.74,135.39,648.52,137.33,648.52,138.59z M651.92,131.11l-1.78,2.29h-0.87l1.31-2.29H651.92z"/>
	<path d="M654.08,136.6c0-0.97-0.05-1.46-0.07-2.13h1.14l0.07,0.99h0.03c0.36-0.66,1.02-1.12,1.89-1.12c1.14,0,1.99,0.85,1.99,2.84
		v5.52h-1.31v-5.3c0-0.97-0.19-1.95-1.14-1.95c-0.54,0-1.07,0.46-1.24,1.34c-0.03,0.2-0.05,0.46-0.05,0.73v5.18h-1.31V136.6z"/>
</g>
<linearGradient id="SVGID_4_" gradientUnits="userSpaceOnUse" x1="320.7081" y1="92.5" x2="487.7081" y2="92.5">
	<stop  offset="0" style="stop-color:#8FCCD5"/>
	<stop  offset="0.5" style="stop-color:#5BBAC7"/>
	<stop  offset="1" style="stop-color:#00AAB9"/>
</linearGradient>
<path class="st5" d="M472.21,131h-136c-6.6,0-12-5.4-12-12V66c0-6.6,5.4-12,12-12h136c6.6,0,12,5.4,12,12v53
	C484.21,125.6,478.81,131,472.21,131z"/>
<g>
	<path d="M359.4,71.86h-2.87v4.3h3.26v1.14h-4.57V65.85h4.37v1.14h-3.06v3.77h2.87V71.86z"/>
	<path d="M361,65.54h1.31V77.3H361V65.54z"/>
	<path d="M366.69,75.94c0.29,0.19,0.8,0.43,1.33,0.43c0.75,0,1.21-0.46,1.21-1.19c0-0.63-0.22-1.05-1.05-1.61
		c-1.07-0.7-1.65-1.39-1.65-2.35c0-1.33,0.99-2.28,2.26-2.28c0.65,0,1.14,0.22,1.48,0.42l-0.36,0.99c-0.31-0.2-0.66-0.36-1.09-0.36
		c-0.71,0-1.07,0.51-1.07,1.04c0,0.56,0.2,0.87,1.02,1.43c0.95,0.61,1.7,1.36,1.7,2.5c0,1.65-1.12,2.45-2.46,2.45
		c-0.61,0-1.27-0.19-1.63-0.48L366.69,75.94z"/>
	<path d="M373.42,66.9v2.18H375v1h-1.58v4.88c0,1.07,0.39,1.36,0.87,1.36c0.2,0,0.37-0.02,0.53-0.05l0.05,1
		c-0.24,0.08-0.54,0.14-0.97,0.14c-0.51,0-0.97-0.14-1.29-0.49c-0.32-0.37-0.49-0.94-0.49-2.07v-4.76h-1v-1h1v-1.8L373.42,66.9z"/>
	<path d="M381.07,73.19c0,3.18-1.48,4.25-2.74,4.25c-1.48,0-2.67-1.34-2.67-4.23c0-3.01,1.34-4.27,2.75-4.27
		C379.88,68.94,381.07,70.32,381.07,73.19z M376.98,73.19c0,1.36,0.24,3.21,1.43,3.21c1.12,0,1.34-1.94,1.34-3.21
		c0-1.26-0.22-3.2-1.38-3.2C377.2,69.99,376.98,71.93,376.98,73.19z"/>
	<path d="M386.55,77.1c-0.29,0.17-0.78,0.31-1.36,0.31c-1.8,0-3.01-1.44-3.01-4.16c0-2.36,1.19-4.28,3.25-4.28
		c0.44,0,0.92,0.12,1.16,0.25l-0.25,1.07c-0.17-0.08-0.51-0.22-0.94-0.22c-1.31,0-1.9,1.56-1.9,3.18c0,1.92,0.73,3.08,1.94,3.08
		c0.36,0,0.65-0.08,0.95-0.22L386.55,77.1z"/>
	<path d="M388.96,72.9H389c0.15-0.32,0.29-0.65,0.44-0.92l1.63-2.91h1.41l-2.18,3.47l2.36,4.76h-1.46l-1.78-3.88l-0.46,0.77v3.11
		h-1.31V65.54h1.31V72.9z"/>
	<path d="M397.27,73.31c0.02,2.52,1,3.06,1.95,3.06c0.56,0,1.04-0.14,1.36-0.32l0.2,0.97c-0.46,0.25-1.16,0.39-1.8,0.39
		c-1.97,0-2.99-1.61-2.99-4.13c0-2.67,1.12-4.33,2.77-4.33c1.68,0,2.35,1.77,2.35,3.64c0,0.31,0,0.53-0.02,0.73H397.27z
		 M399.86,72.34c0.03-1.65-0.59-2.38-1.22-2.38c-0.85,0-1.29,1.26-1.34,2.38H399.86z"/>
	<path d="M403.19,69.08l1.04,4.62c0.12,0.56,0.25,1.29,0.36,2.01h0.05c0.08-0.68,0.22-1.38,0.34-2.01l1.02-4.62h1.29l-2.14,8.23
		h-1.17l-2.14-8.23H403.19z"/>
	<path d="M411.52,77.3l-0.08-0.87h-0.05c-0.36,0.63-0.94,1-1.63,1c-1.1,0-1.96-0.93-1.96-2.35c0-2.06,1.65-2.97,3.5-2.99v-0.25
		c0-1.11-0.27-1.87-1.31-1.87c-0.51,0-0.97,0.17-1.36,0.42l-0.29-0.92c0.34-0.25,1.1-0.54,1.92-0.54c1.65,0,2.36,1.09,2.36,2.94
		v3.55c0,0.63,0,1.34,0.08,1.87H411.52z M411.33,73.05c-0.68,0-2.26,0.12-2.26,1.9c0,1.07,0.54,1.46,1,1.46
		c0.58,0,1.07-0.42,1.22-1.24c0.03-0.15,0.03-0.32,0.03-0.46V73.05z"/>
	<path d="M414.46,65.54h1.31V77.3h-1.31V65.54z"/>
	<path d="M422.64,75.06c0,0.92,0.05,1.63,0.07,2.24h-1.14l-0.08-0.87h-0.03c-0.26,0.41-0.88,1-1.77,1c-1.44,0-2.01-1.12-2.01-3.16
		v-5.2h1.31v5.01c0,1.29,0.2,2.24,1.1,2.24c0.76,0,1.1-0.71,1.17-1.09c0.05-0.22,0.07-0.48,0.07-0.75v-5.42h1.31V75.06z"/>
	<path d="M427.72,77.3l-0.08-0.87h-0.05c-0.36,0.63-0.94,1-1.63,1c-1.1,0-1.96-0.93-1.96-2.35c0-2.06,1.65-2.97,3.5-2.99v-0.25
		c0-1.11-0.27-1.87-1.31-1.87c-0.51,0-0.97,0.17-1.36,0.42l-0.29-0.92c0.34-0.25,1.1-0.54,1.92-0.54c1.65,0,2.36,1.09,2.36,2.94
		v3.55c0,0.63,0,1.34,0.08,1.87H427.72z M427.53,73.05c-0.68,0-2.26,0.12-2.26,1.9c0,1.07,0.54,1.46,1,1.46
		c0.58,0,1.07-0.42,1.22-1.24c0.03-0.15,0.03-0.32,0.03-0.46V73.05z"/>
	<path d="M435.61,65.54v9.79c0,0.56,0.05,1.5,0.07,1.97h-1.12l-0.08-1.04h-0.05c-0.27,0.59-0.85,1.17-1.72,1.17
		c-1.39,0-2.4-1.51-2.4-4.21c0-2.92,1.21-4.28,2.48-4.28c0.6,0,1.17,0.29,1.5,0.99h0.03v-4.39H435.61z M434.32,72.2
		c0-0.17,0-0.36-0.02-0.54c-0.08-0.85-0.6-1.6-1.22-1.6c-1.09,0-1.46,1.51-1.46,3.16c0,1.73,0.44,3.13,1.39,3.13
		c0.41,0,0.97-0.22,1.26-1.41c0.03-0.15,0.05-0.34,0.05-0.54V72.2z"/>
	<path d="M442.49,73.19c0,3.18-1.48,4.25-2.74,4.25c-1.48,0-2.67-1.34-2.67-4.23c0-3.01,1.34-4.27,2.75-4.27
		C441.3,68.94,442.49,70.32,442.49,73.19z M438.4,73.19c0,1.36,0.24,3.21,1.43,3.21c1.12,0,1.34-1.94,1.34-3.21
		c0-1.26-0.22-3.2-1.38-3.2C438.62,69.99,438.4,71.93,438.4,73.19z"/>
	<path d="M451.67,73.19c0,3.18-1.48,4.25-2.74,4.25c-1.48,0-2.67-1.34-2.67-4.23c0-3.01,1.34-4.27,2.75-4.27
		C450.48,68.94,451.67,70.32,451.67,73.19z M447.58,73.19c0,1.36,0.24,3.21,1.43,3.21c1.12,0,1.34-1.94,1.34-3.21
		c0-1.26-0.22-3.2-1.38-3.2C447.8,69.99,447.58,71.93,447.58,73.19z"/>
	<path d="M360.22,91.6c0-0.97-0.05-1.46-0.07-2.13h1.14l0.07,1.02h0.03c0.36-0.66,0.99-1.16,1.85-1.16c0.76,0,1.41,0.37,1.72,1.26
		H365c0.22-0.41,0.51-0.73,0.82-0.93c0.32-0.22,0.71-0.32,1.14-0.32c1.1,0,1.97,0.82,1.97,2.91v5.46h-1.29v-5.15
		c0-1.07-0.15-2.11-1.16-2.11c-0.54,0-1.02,0.46-1.21,1.22c-0.03,0.22-0.05,0.48-0.05,0.75v5.29h-1.29v-5.39
		c0-0.92-0.17-1.87-1.14-1.87c-0.53,0-1.07,0.46-1.22,1.33c-0.03,0.22-0.05,0.46-0.05,0.71v5.22h-1.29V91.6z"/>
	<path d="M374.01,97.7l-0.08-0.87h-0.05c-0.36,0.63-0.94,1-1.63,1c-1.1,0-1.96-0.93-1.96-2.35c0-2.06,1.65-2.97,3.5-2.99v-0.25
		c0-1.11-0.27-1.87-1.31-1.87c-0.51,0-0.97,0.17-1.36,0.42l-0.29-0.92c0.34-0.25,1.1-0.54,1.92-0.54c1.65,0,2.36,1.09,2.36,2.94
		v3.55c0,0.63,0,1.34,0.08,1.87H374.01z M373.82,93.45c-0.68,0-2.26,0.12-2.26,1.9c0,1.07,0.54,1.46,1,1.46
		c0.58,0,1.07-0.42,1.22-1.24c0.03-0.15,0.03-0.32,0.03-0.46V93.45z"/>
	<path d="M376.95,91.6c0-0.97-0.05-1.46-0.07-2.13h1.14l0.07,0.99h0.03c0.36-0.66,1.02-1.12,1.89-1.12c1.14,0,1.99,0.85,1.99,2.84
		v5.52h-1.31v-5.3c0-0.97-0.19-1.95-1.14-1.95c-0.54,0-1.07,0.46-1.24,1.34c-0.03,0.2-0.05,0.46-0.05,0.73v5.18h-1.31V91.6z"/>
	<path d="M384.75,93.71c0.02,2.52,1,3.06,1.95,3.06c0.56,0,1.04-0.14,1.36-0.32l0.2,0.97c-0.46,0.25-1.16,0.39-1.8,0.39
		c-1.97,0-2.99-1.61-2.99-4.13c0-2.67,1.12-4.33,2.77-4.33c1.68,0,2.35,1.77,2.35,3.64c0,0.31,0,0.53-0.02,0.73H384.75z
		 M387.34,92.74c0.03-1.65-0.59-2.38-1.22-2.38c-0.85,0-1.29,1.26-1.34,2.38H387.34z"/>
	<path d="M388.61,100.07c0.37-0.1,0.83-0.24,1.1-0.65c0.29-0.44,0.39-1.05,0.39-2.62v-7.33h1.31v7.7c0,1.73-0.25,2.53-0.83,3.15
		c-0.49,0.51-1.29,0.76-1.8,0.78L388.61,100.07z M391.54,87.35c0,0.51-0.31,0.85-0.8,0.85c-0.43,0-0.77-0.34-0.75-0.85
		c-0.02-0.51,0.32-0.85,0.78-0.85S391.54,86.84,391.54,87.35z"/>
	<path d="M396.45,97.7l-0.08-0.87h-0.05c-0.36,0.63-0.94,1-1.63,1c-1.1,0-1.96-0.93-1.96-2.35c0-2.06,1.65-2.97,3.5-2.99v-0.25
		c0-1.11-0.27-1.87-1.31-1.87c-0.51,0-0.97,0.17-1.36,0.42l-0.29-0.92c0.34-0.25,1.1-0.54,1.92-0.54c1.65,0,2.36,1.09,2.36,2.94
		v3.55c0,0.63,0,1.34,0.08,1.87H396.45z M396.26,93.45c-0.68,0-2.26,0.12-2.26,1.9c0,1.07,0.54,1.46,1,1.46
		c0.58,0,1.07-0.42,1.22-1.24c0.03-0.15,0.03-0.32,0.03-0.46V93.45z"/>
	<path d="M404.34,85.94v9.79c0,0.56,0.05,1.5,0.07,1.97h-1.12l-0.08-1.04h-0.05c-0.27,0.59-0.85,1.17-1.72,1.17
		c-1.39,0-2.4-1.51-2.4-4.21c0-2.92,1.21-4.28,2.48-4.28c0.6,0,1.17,0.29,1.5,0.99h0.03v-4.39H404.34z M403.05,92.6
		c0-0.17,0-0.36-0.02-0.54c-0.08-0.85-0.6-1.6-1.22-1.6c-1.09,0-1.46,1.51-1.46,3.16c0,1.73,0.44,3.13,1.39,3.13
		c0.41,0,0.97-0.22,1.26-1.41c0.03-0.15,0.05-0.34,0.05-0.54V92.6z"/>
	<path d="M411.22,93.59c0,3.18-1.48,4.25-2.74,4.25c-1.48,0-2.67-1.34-2.67-4.23c0-3.01,1.34-4.27,2.75-4.27
		C410.03,89.34,411.22,90.72,411.22,93.59z M407.13,93.59c0,1.36,0.24,3.21,1.43,3.21c1.12,0,1.34-1.94,1.34-3.21
		c0-1.26-0.22-3.2-1.38-3.2C407.35,90.39,407.13,92.33,407.13,93.59z"/>
	<path d="M415.34,92.04c0-1.26-0.05-1.99-0.07-2.57h1.17l0.07,1.05h0.03c0.44-0.88,1.09-1.19,1.73-1.19c1.43,0,2.38,1.53,2.38,4.23
		c0,3.04-1.26,4.27-2.55,4.27c-0.76,0-1.21-0.49-1.43-0.95h-0.03v4.08h-1.31V92.04z M416.65,94.68c0,0.25,0,0.49,0.05,0.68
		c0.25,1.17,0.85,1.39,1.21,1.39c1.09,0,1.43-1.5,1.43-3.16c0-1.7-0.41-3.13-1.44-3.13c-0.59,0-1.12,0.75-1.21,1.5
		c-0.03,0.2-0.03,0.41-0.03,0.63V94.68z"/>
	<path d="M427.07,95.46c0,0.92,0.05,1.63,0.07,2.24H426l-0.08-0.87h-0.03c-0.26,0.41-0.88,1-1.77,1c-1.44,0-2.01-1.12-2.01-3.16
		v-5.2h1.31v5.01c0,1.29,0.2,2.24,1.1,2.24c0.76,0,1.1-0.71,1.17-1.09c0.05-0.22,0.07-0.48,0.07-0.75v-5.42h1.31V95.46z"/>
	<path d="M429.82,93.71c0.02,2.52,1,3.06,1.95,3.06c0.56,0,1.04-0.14,1.36-0.32l0.2,0.97c-0.46,0.25-1.16,0.39-1.8,0.39
		c-1.97,0-2.99-1.61-2.99-4.13c0-2.67,1.12-4.33,2.77-4.33c1.68,0,2.35,1.77,2.35,3.64c0,0.31,0,0.53-0.02,0.73H429.82z
		 M432.4,92.74c0.03-1.65-0.59-2.38-1.22-2.38c-0.85,0-1.29,1.26-1.34,2.38H432.4z"/>
	<path d="M440.02,85.94v9.79c0,0.56,0.05,1.5,0.07,1.97h-1.12l-0.08-1.04h-0.05c-0.27,0.59-0.85,1.17-1.72,1.17
		c-1.39,0-2.4-1.51-2.4-4.21c0-2.92,1.21-4.28,2.48-4.28c0.6,0,1.17,0.29,1.5,0.99h0.03v-4.39H440.02z M438.73,92.6
		c0-0.17,0-0.36-0.02-0.54c-0.08-0.85-0.6-1.6-1.22-1.6c-1.09,0-1.46,1.51-1.46,3.16c0,1.73,0.44,3.13,1.39,3.13
		c0.41,0,0.97-0.22,1.26-1.41c0.03-0.15,0.05-0.34,0.05-0.54V92.6z"/>
	<path d="M442.77,93.71c0.02,2.52,1,3.06,1.95,3.06c0.56,0,1.04-0.14,1.36-0.32l0.2,0.97c-0.46,0.25-1.16,0.39-1.8,0.39
		c-1.97,0-2.99-1.61-2.99-4.13c0-2.67,1.12-4.33,2.77-4.33c1.68,0,2.35,1.77,2.35,3.64c0,0.31,0,0.53-0.02,0.73H442.77z
		 M445.36,92.74c0.03-1.65-0.59-2.38-1.22-2.38c-0.85,0-1.29,1.26-1.34,2.38H445.36z"/>
</g>
<g>
	<g>
		<line class="st1" x1="496.54" y1="84.69" x2="514.56" y2="66.67"/>
		<g>
			<polygon class="st2" points="504.81,59.23 521.99,76.41 521.99,59.23 			"/>
		</g>
	</g>
</g>
<g>
	<g>
		<line class="st1" x1="496.54" y1="99.23" x2="514.56" y2="117.25"/>
		<g>
			<polygon class="st2" points="521.99,107.51 504.81,124.69 521.99,124.69 			"/>
		</g>
	</g>
</g>
<linearGradient id="SVGID_5_" gradientUnits="userSpaceOnUse" x1="110.7081" y1="92.5" x2="277.7081" y2="92.5">
	<stop  offset="0" style="stop-color:#8FCCD5"/>
	<stop  offset="0.5" style="stop-color:#5BBAC7"/>
	<stop  offset="1" style="stop-color:#00AAB9"/>
</linearGradient>
<path class="st6" d="M262.21,131h-136c-6.6,0-12-5.4-12-12V66c0-6.6,5.4-12,12-12h136c6.6,0,12,5.4,12,12v53
	C274.21,125.6,268.81,131,262.21,131z"/>
<g>
	<path d="M146.71,71.86h-2.87v4.3h3.26v1.14h-4.57V65.85h4.37v1.14h-3.06v3.77h2.87V71.86z"/>
	<path d="M148.31,65.54h1.31V77.3h-1.31V65.54z"/>
	<path d="M159.26,69.08c-0.02,0.58-0.07,1.31-0.07,2.57v4.61c0,2.16-0.27,2.97-0.82,3.57c-0.49,0.56-1.27,0.88-2.19,0.88
		c-0.7,0-1.38-0.17-1.8-0.41l0.31-1.02c0.32,0.17,0.87,0.36,1.53,0.36c1.04,0,1.68-0.65,1.68-2.52v-0.83h-0.03
		c-0.29,0.65-0.88,1-1.58,1c-1.46,0-2.41-1.65-2.41-4.06c0-3.03,1.38-4.28,2.58-4.28c0.88,0,1.29,0.58,1.53,1.07h0.03l0.07-0.94
		H159.26z M157.9,71.91c0-0.2-0.02-0.42-0.07-0.59c-0.15-0.56-0.44-1.26-1.19-1.26c-0.95,0-1.46,1.27-1.46,3.09
		c0,2.11,0.66,3.06,1.46,3.06c0.39,0,0.9-0.19,1.17-1.17c0.07-0.25,0.08-0.51,0.08-0.75V71.91z"/>
	<path d="M160.99,71.2c0-0.7-0.05-1.51-0.07-2.13h1.17l0.07,1.29h0.03c0.27-0.78,0.97-1.43,1.73-1.43c0.1,0,0.19,0.02,0.27,0.02
		v1.34c-0.08-0.02-0.17-0.02-0.27-0.02c-0.83,0-1.44,0.77-1.58,1.72c-0.03,0.22-0.05,0.48-0.05,0.75v4.56h-1.31V71.2z"/>
	<path d="M170.11,75.06c0,0.92,0.05,1.63,0.07,2.24h-1.14l-0.08-0.87h-0.03c-0.26,0.41-0.88,1-1.77,1c-1.44,0-2.01-1.12-2.01-3.16
		v-5.2h1.31v5.01c0,1.29,0.2,2.24,1.1,2.24c0.76,0,1.1-0.71,1.17-1.09c0.05-0.22,0.07-0.48,0.07-0.75v-5.42h1.31V75.06z"/>
	<path d="M171.92,71.64c0-1.26-0.05-1.99-0.07-2.57h1.17l0.07,1.05h0.03c0.44-0.88,1.09-1.19,1.73-1.19c1.43,0,2.38,1.53,2.38,4.23
		c0,3.04-1.26,4.27-2.55,4.27c-0.77,0-1.21-0.49-1.43-0.95h-0.03v4.08h-1.31V71.64z M173.23,74.28c0,0.25,0,0.49,0.05,0.68
		c0.25,1.17,0.85,1.39,1.21,1.39c1.09,0,1.43-1.5,1.43-3.16c0-1.7-0.41-3.13-1.44-3.13c-0.6,0-1.12,0.75-1.21,1.5
		c-0.03,0.2-0.03,0.41-0.03,0.63V74.28z"/>
	<path d="M183.77,73.19c0,3.18-1.48,4.25-2.74,4.25c-1.48,0-2.67-1.34-2.67-4.23c0-3.01,1.34-4.27,2.75-4.27
		C182.58,68.94,183.77,70.32,183.77,73.19z M179.68,73.19c0,1.36,0.24,3.21,1.43,3.21c1.12,0,1.34-1.94,1.34-3.21
		c0-1.26-0.22-3.2-1.38-3.2C179.9,69.99,179.68,71.93,179.68,73.19z"/>
	<path d="M187.89,71.64c0-1.26-0.05-1.99-0.07-2.57h1.17l0.07,1.05h0.03c0.44-0.88,1.09-1.19,1.73-1.19c1.43,0,2.38,1.53,2.38,4.23
		c0,3.04-1.26,4.27-2.55,4.27c-0.77,0-1.21-0.49-1.43-0.95h-0.03v4.08h-1.31V71.64z M189.2,74.28c0,0.25,0,0.49,0.05,0.68
		c0.25,1.17,0.85,1.39,1.21,1.39c1.09,0,1.43-1.5,1.43-3.16c0-1.7-0.41-3.13-1.44-3.13c-0.6,0-1.12,0.75-1.21,1.5
		c-0.03,0.2-0.03,0.41-0.03,0.63V74.28z"/>
	<path d="M199.62,75.06c0,0.92,0.05,1.63,0.07,2.24h-1.14l-0.08-0.87h-0.03c-0.26,0.41-0.88,1-1.77,1c-1.44,0-2.01-1.12-2.01-3.16
		v-5.2h1.31v5.01c0,1.29,0.2,2.24,1.1,2.24c0.76,0,1.1-0.71,1.17-1.09c0.05-0.22,0.07-0.48,0.07-0.75v-5.42h1.31V75.06z"/>
	<path d="M202.37,73.31c0.02,2.52,1,3.06,1.95,3.06c0.56,0,1.04-0.14,1.36-0.32l0.2,0.97c-0.46,0.25-1.16,0.39-1.8,0.39
		c-1.97,0-2.99-1.61-2.99-4.13c0-2.67,1.12-4.33,2.77-4.33c1.68,0,2.35,1.77,2.35,3.64c0,0.31,0,0.53-0.02,0.73H202.37z
		 M204.95,72.34c0.03-1.65-0.59-2.38-1.22-2.38c-0.85,0-1.29,1.26-1.34,2.38H204.95z"/>
	<path d="M212.57,65.54v9.79c0,0.56,0.05,1.5,0.07,1.97h-1.12l-0.08-1.04h-0.05c-0.27,0.59-0.85,1.17-1.72,1.17
		c-1.39,0-2.4-1.51-2.4-4.21c0-2.92,1.21-4.28,2.48-4.28c0.6,0,1.17,0.29,1.5,0.99h0.03v-4.39H212.57z M211.28,72.2
		c0-0.17,0-0.36-0.02-0.54c-0.08-0.85-0.6-1.6-1.22-1.6c-1.09,0-1.46,1.51-1.46,3.16c0,1.73,0.44,3.13,1.39,3.13
		c0.41,0,0.97-0.22,1.26-1.41c0.03-0.15,0.05-0.34,0.05-0.54V72.2z"/>
	<path d="M215.32,73.31c0.02,2.52,1,3.06,1.95,3.06c0.56,0,1.04-0.14,1.36-0.32l0.2,0.97c-0.46,0.25-1.16,0.39-1.8,0.39
		c-1.97,0-2.99-1.61-2.99-4.13c0-2.67,1.12-4.33,2.77-4.33c1.68,0,2.35,1.77,2.35,3.64c0,0.31,0,0.53-0.02,0.73H215.32z
		 M217.91,72.34c0.03-1.65-0.59-2.38-1.22-2.38c-0.85,0-1.29,1.26-1.34,2.38H217.91z"/>
	<path d="M228.29,73.19c0,3.18-1.48,4.25-2.74,4.25c-1.48,0-2.67-1.34-2.67-4.23c0-3.01,1.34-4.27,2.75-4.27
		C227.1,68.94,228.29,70.32,228.29,73.19z M224.2,73.19c0,1.36,0.24,3.21,1.43,3.21c1.12,0,1.34-1.94,1.34-3.21
		c0-1.26-0.22-3.2-1.38-3.2C224.42,69.99,224.2,71.93,224.2,73.19z"/>
	<path d="M232.43,71.2c0-0.97-0.05-1.46-0.07-2.13h1.14l0.07,0.99h0.03c0.36-0.66,1.02-1.12,1.89-1.12c1.14,0,1.99,0.85,1.99,2.84
		v5.52h-1.31V72c0-0.97-0.19-1.95-1.14-1.95c-0.54,0-1.07,0.46-1.24,1.34c-0.03,0.2-0.05,0.46-0.05,0.73v5.18h-1.31V71.2z"/>
	<path d="M244.36,73.19c0,3.18-1.48,4.25-2.74,4.25c-1.48,0-2.67-1.34-2.67-4.23c0-3.01,1.34-4.27,2.75-4.27
		C243.17,68.94,244.36,70.32,244.36,73.19z M240.26,73.19c0,1.36,0.24,3.21,1.43,3.21c1.12,0,1.34-1.94,1.34-3.21
		c0-1.26-0.22-3.2-1.38-3.2C240.48,69.99,240.26,71.93,240.26,73.19z"/>
	<path d="M153.49,87.3v2.18h1.58v1h-1.58v4.88c0,1.07,0.39,1.36,0.87,1.36c0.2,0,0.37-0.02,0.53-0.05l0.05,1
		c-0.24,0.08-0.54,0.14-0.97,0.14c-0.51,0-0.97-0.14-1.29-0.49c-0.32-0.37-0.49-0.94-0.49-2.07v-4.76h-1v-1h1v-1.8L153.49,87.3z"/>
	<path d="M157.01,93.71c0.02,2.52,1,3.06,1.95,3.06c0.56,0,1.04-0.14,1.36-0.32l0.2,0.97c-0.46,0.25-1.16,0.39-1.8,0.39
		c-1.97,0-2.99-1.61-2.99-4.13c0-2.67,1.12-4.33,2.77-4.33c1.68,0,2.35,1.77,2.35,3.64c0,0.31,0,0.53-0.02,0.73H157.01z
		 M159.59,92.74c0.03-1.65-0.59-2.38-1.22-2.38c-0.85,0-1.29,1.26-1.34,2.38H159.59z"/>
	<path d="M162.26,91.6c0-0.97-0.05-1.46-0.07-2.13h1.14l0.07,0.99h0.03c0.36-0.66,1.02-1.12,1.89-1.12c1.14,0,1.99,0.85,1.99,2.84
		v5.52H166v-5.3c0-0.97-0.19-1.95-1.14-1.95c-0.54,0-1.07,0.46-1.24,1.34c-0.03,0.2-0.05,0.46-0.05,0.73v5.18h-1.31V91.6z"/>
	<path d="M170.06,93.71c0.02,2.52,1,3.06,1.95,3.06c0.56,0,1.04-0.14,1.36-0.32l0.2,0.97c-0.46,0.25-1.16,0.39-1.8,0.39
		c-1.97,0-2.99-1.61-2.99-4.13c0-2.67,1.12-4.33,2.77-4.33c1.68,0,2.35,1.77,2.35,3.64c0,0.31,0,0.53-0.02,0.73H170.06z
		 M172.65,92.74c0.03-1.65-0.59-2.38-1.22-2.38c-0.85,0-1.29,1.26-1.34,2.38H172.65z"/>
	<path d="M175.3,91.6c0-0.7-0.05-1.51-0.07-2.13h1.17l0.07,1.29h0.03c0.27-0.78,0.97-1.43,1.73-1.43c0.1,0,0.19,0.02,0.27,0.02v1.34
		c-0.08-0.02-0.17-0.02-0.27-0.02c-0.83,0-1.44,0.77-1.58,1.72c-0.03,0.22-0.05,0.48-0.05,0.75v4.56h-1.31V91.6z"/>
	<path d="M183.61,87.35c0.02,0.51-0.31,0.85-0.8,0.85c-0.42,0-0.75-0.34-0.75-0.85c0-0.51,0.34-0.85,0.77-0.85
		C183.31,86.5,183.61,86.84,183.61,87.35z M182.2,97.7v-8.23h1.31v8.23H182.2z"/>
	<path d="M185.33,91.6c0-0.97-0.05-1.46-0.07-2.13h1.14l0.07,0.99h0.03c0.36-0.66,1.02-1.12,1.89-1.12c1.14,0,1.99,0.85,1.99,2.84
		v5.52h-1.31v-5.3c0-0.97-0.19-1.95-1.14-1.95c-0.54,0-1.07,0.46-1.24,1.34c-0.03,0.2-0.05,0.46-0.05,0.73v5.18h-1.31V91.6z"/>
	<path d="M193.71,87.3v2.18h1.58v1h-1.58v4.88c0,1.07,0.39,1.36,0.87,1.36c0.2,0,0.37-0.02,0.53-0.05l0.05,1
		c-0.24,0.08-0.54,0.14-0.97,0.14c-0.51,0-0.97-0.14-1.29-0.49c-0.32-0.37-0.49-0.94-0.49-2.07v-4.76h-1v-1h1v-1.8L193.71,87.3z"/>
	<path d="M197.23,93.71c0.02,2.52,1,3.06,1.95,3.06c0.56,0,1.04-0.14,1.36-0.32l0.2,0.97c-0.46,0.25-1.16,0.39-1.8,0.39
		c-1.97,0-2.99-1.61-2.99-4.13c0-2.67,1.12-4.33,2.77-4.33c1.68,0,2.35,1.77,2.35,3.64c0,0.31,0,0.53-0.02,0.73H197.23z
		 M199.81,92.74c0.03-1.65-0.59-2.38-1.22-2.38c-0.85,0-1.29,1.26-1.34,2.38H199.81z"/>
	<path d="M207.51,89.48c-0.02,0.58-0.07,1.31-0.07,2.57v4.61c0,2.16-0.27,2.97-0.82,3.57c-0.49,0.56-1.27,0.88-2.19,0.88
		c-0.7,0-1.38-0.17-1.8-0.41l0.31-1.02c0.32,0.17,0.87,0.36,1.53,0.36c1.04,0,1.68-0.65,1.68-2.52v-0.83h-0.03
		c-0.29,0.65-0.88,1-1.58,1c-1.46,0-2.41-1.65-2.41-4.06c0-3.03,1.38-4.28,2.58-4.28c0.88,0,1.29,0.58,1.53,1.07h0.03l0.07-0.94
		H207.51z M206.15,92.31c0-0.2-0.02-0.42-0.07-0.59c-0.15-0.56-0.44-1.26-1.19-1.26c-0.95,0-1.46,1.27-1.46,3.09
		c0,2.11,0.66,3.06,1.46,3.06c0.39,0,0.9-0.19,1.17-1.17c0.07-0.25,0.08-0.51,0.08-0.75V92.31z"/>
	<path d="M209.25,91.6c0-0.7-0.05-1.51-0.07-2.13h1.17l0.07,1.29h0.03c0.27-0.78,0.97-1.43,1.73-1.43c0.1,0,0.19,0.02,0.27,0.02
		v1.34c-0.08-0.02-0.17-0.02-0.27-0.02c-0.83,0-1.44,0.77-1.58,1.72c-0.03,0.22-0.05,0.48-0.05,0.75v4.56h-1.31V91.6z"/>
	<path d="M214.89,87.35c0.02,0.51-0.31,0.85-0.8,0.85c-0.42,0-0.75-0.34-0.75-0.85c0-0.51,0.34-0.85,0.77-0.85
		C214.58,86.5,214.89,86.84,214.89,87.35z M213.48,97.7v-8.23h1.31v8.23H213.48z"/>
	<path d="M221.55,85.94v9.79c0,0.56,0.05,1.5,0.07,1.97h-1.12l-0.08-1.04h-0.05c-0.27,0.59-0.85,1.17-1.72,1.17
		c-1.39,0-2.4-1.51-2.4-4.21c0-2.92,1.21-4.28,2.48-4.28c0.6,0,1.17,0.29,1.5,0.99h0.03v-4.39H221.55z M220.26,92.6
		c0-0.17,0-0.36-0.02-0.54c-0.08-0.85-0.6-1.6-1.22-1.6c-1.09,0-1.46,1.51-1.46,3.16c0,1.73,0.44,3.13,1.39,3.13
		c0.41,0,0.97-0.22,1.26-1.41c0.03-0.15,0.05-0.34,0.05-0.54V92.6z"/>
	<path d="M226.64,97.7l-0.08-0.87h-0.05c-0.36,0.63-0.94,1-1.63,1c-1.1,0-1.96-0.93-1.96-2.35c0-2.06,1.65-2.97,3.5-2.99v-0.25
		c0-1.11-0.27-1.87-1.31-1.87c-0.51,0-0.97,0.17-1.36,0.42l-0.29-0.92c0.34-0.25,1.1-0.54,1.92-0.54c1.65,0,2.36,1.09,2.36,2.94
		v3.55c0,0.63,0,1.34,0.08,1.87H226.64z M226.45,93.45c-0.68,0-2.26,0.12-2.26,1.9c0,1.07,0.54,1.46,1,1.46
		c0.58,0,1.07-0.42,1.22-1.24c0.03-0.15,0.03-0.32,0.03-0.46V93.45z"/>
	<path d="M234.52,85.94v9.79c0,0.56,0.05,1.5,0.07,1.97h-1.12l-0.08-1.04h-0.05c-0.27,0.59-0.85,1.17-1.72,1.17
		c-1.39,0-2.4-1.51-2.4-4.21c0-2.92,1.21-4.28,2.48-4.28c0.6,0,1.17,0.29,1.5,0.99h0.03v-4.39H234.52z M233.23,92.6
		c0-0.17,0-0.36-0.02-0.54c-0.08-0.85-0.6-1.6-1.22-1.6c-1.09,0-1.46,1.51-1.46,3.16c0,1.73,0.44,3.13,1.39,3.13
		c0.41,0,0.97-0.22,1.26-1.41c0.03-0.15,0.05-0.34,0.05-0.54V92.6z"/>
	<path d="M176.73,109.88c-0.02,0.58-0.07,1.31-0.07,2.57v4.61c0,2.16-0.27,2.97-0.82,3.57c-0.49,0.56-1.27,0.88-2.19,0.88
		c-0.7,0-1.38-0.17-1.8-0.41l0.31-1.02c0.32,0.17,0.87,0.36,1.53,0.36c1.04,0,1.68-0.65,1.68-2.52v-0.83h-0.03
		c-0.29,0.65-0.88,1-1.58,1c-1.46,0-2.41-1.65-2.41-4.06c0-3.03,1.38-4.28,2.58-4.28c0.88,0,1.29,0.58,1.53,1.07h0.03l0.07-0.94
		H176.73z M175.38,112.71c0-0.2-0.02-0.42-0.07-0.59c-0.15-0.56-0.44-1.26-1.19-1.26c-0.95,0-1.46,1.27-1.46,3.09
		c0,2.11,0.66,3.06,1.46,3.06c0.39,0,0.9-0.19,1.17-1.17c0.07-0.25,0.08-0.51,0.08-0.75V112.71z"/>
	<path d="M179.4,114.11c0.02,2.52,1,3.06,1.95,3.06c0.56,0,1.04-0.14,1.36-0.32l0.2,0.97c-0.46,0.25-1.16,0.39-1.8,0.39
		c-1.97,0-2.99-1.61-2.99-4.13c0-2.67,1.12-4.33,2.77-4.33c1.68,0,2.35,1.77,2.35,3.64c0,0.31,0,0.53-0.02,0.73H179.4z
		 M181.99,113.14c0.03-1.65-0.59-2.38-1.22-2.38c-0.85,0-1.29,1.26-1.34,2.38H181.99z"/>
	<path d="M184.66,112c0-0.97-0.05-1.46-0.07-2.13h1.14l0.07,0.99h0.03c0.36-0.66,1.02-1.12,1.89-1.12c1.14,0,1.99,0.85,1.99,2.84
		v5.52h-1.31v-5.3c0-0.97-0.19-1.95-1.14-1.95c-0.54,0-1.07,0.46-1.24,1.34c-0.03,0.2-0.05,0.46-0.05,0.73v5.18h-1.31V112z"/>
	<path d="M192.46,114.11c0.02,2.52,1,3.06,1.95,3.06c0.56,0,1.04-0.14,1.36-0.32l0.2,0.97c-0.46,0.25-1.16,0.39-1.8,0.39
		c-1.97,0-2.99-1.61-2.99-4.13c0-2.67,1.12-4.33,2.77-4.33c1.68,0,2.35,1.77,2.35,3.64c0,0.31,0,0.53-0.02,0.73H192.46z
		 M195.04,113.14c0.03-1.65-0.59-2.38-1.22-2.38c-0.85,0-1.29,1.26-1.34,2.38H195.04z M195.96,106.51l-1.78,2.29h-0.87l1.31-2.29
		H195.96z"/>
	<path d="M199.31,107.7v2.18h1.58v1h-1.58v4.88c0,1.07,0.39,1.36,0.87,1.36c0.2,0,0.37-0.02,0.53-0.05l0.05,1
		c-0.24,0.08-0.54,0.14-0.97,0.14c-0.51,0-0.97-0.14-1.29-0.49c-0.32-0.37-0.49-0.94-0.49-2.07v-4.76h-1v-1h1v-1.8L199.31,107.7z"/>
	<path d="M203.46,107.75c0.02,0.51-0.31,0.85-0.8,0.85c-0.42,0-0.75-0.34-0.75-0.85c0-0.51,0.34-0.85,0.77-0.85
		C203.15,106.9,203.46,107.24,203.46,107.75z M202.05,118.1v-8.23h1.31v8.23H202.05z"/>
	<path d="M209.19,117.9c-0.29,0.17-0.78,0.31-1.36,0.31c-1.8,0-3.01-1.44-3.01-4.16c0-2.36,1.19-4.28,3.25-4.28
		c0.44,0,0.92,0.12,1.16,0.25l-0.25,1.07c-0.17-0.08-0.51-0.22-0.94-0.22c-1.31,0-1.9,1.56-1.9,3.18c0,1.92,0.73,3.08,1.94,3.08
		c0.36,0,0.65-0.08,0.95-0.22L209.19,117.9z"/>
	<path d="M213.61,118.1l-0.08-0.87h-0.05c-0.36,0.63-0.94,1-1.63,1c-1.1,0-1.96-0.93-1.96-2.35c0-2.06,1.65-2.97,3.5-2.99v-0.25
		c0-1.11-0.27-1.87-1.31-1.87c-0.51,0-0.97,0.17-1.36,0.42l-0.29-0.92c0.34-0.25,1.1-0.54,1.92-0.54c1.65,0,2.36,1.09,2.36,2.94
		v3.55c0,0.63,0,1.34,0.08,1.87H213.61z M213.42,113.85c-0.68,0-2.26,0.12-2.26,1.9c0,1.07,0.54,1.46,1,1.46
		c0.58,0,1.07-0.42,1.22-1.24c0.03-0.15,0.03-0.32,0.03-0.46V113.85z"/>
</g>
<g>
	<g>
		<line class="st1" x1="75.71" y1="93" x2="89.19" y2="93"/>
		<g>
			<polygon class="st2" points="87.56,80.85 87.56,105.15 99.71,93 			"/>
		</g>
	</g>
</g>
<g>
	<path d="M7.9,98.57c0.73,0.41,1.97,0.7,3,0.7c1.67,0,2.48-0.86,2.48-2.05c0-1.32-0.81-1.97-2.35-2.97
		c-2.48-1.51-3.43-3.43-3.43-5.08c0-2.92,1.94-5.34,5.75-5.34c1.19,0,2.32,0.32,2.86,0.65l-0.57,3.05c-0.51-0.32-1.3-0.62-2.32-0.62
		c-1.51,0-2.24,0.92-2.24,1.89c0,1.08,0.54,1.65,2.51,2.83c2.4,1.46,3.29,3.29,3.29,5.21c0,3.32-2.46,5.51-6.02,5.51
		c-1.46,0-2.89-0.38-3.48-0.73L7.9,98.57z"/>
	<path d="M20.91,87.26H17.7v-3.27h9.99v3.27h-3.24v14.93h-3.54V87.26z"/>
	<path d="M39.94,92.76c0,6.86-2.43,9.64-5.88,9.64c-4.13,0-5.75-4.37-5.75-9.37c0-4.97,1.97-9.26,5.99-9.26
		C38.7,83.77,39.94,88.61,39.94,92.76z M31.98,93.09c0,4.13,0.78,6.24,2.21,6.24c1.48,0,2.05-2.7,2.05-6.4
		c0-3.18-0.49-6.07-2.08-6.07C32.76,86.85,31.98,89.17,31.98,93.09z"/>
	<path d="M50.91,101.91c-0.51,0.24-1.51,0.43-2.75,0.43c-4.64,0-6.86-3.83-6.86-8.99c0-6.86,3.81-9.53,7.34-9.53
		c1.24,0,2.1,0.24,2.46,0.49l-0.59,2.97c-0.4-0.19-0.86-0.35-1.65-0.35c-2,0-3.81,1.73-3.81,6.24c0,4.35,1.65,6.05,3.81,6.05
		c0.59,0,1.27-0.14,1.7-0.27L50.91,101.91z"/>
	<path d="M52.85,83.99h3.54v8.18h0.05c0.3-0.76,0.59-1.57,0.89-2.35l2.43-5.83h3.89l-4.08,7.91l4.13,10.28h-3.86l-2.65-7.53
		l-0.81,1.49v6.05h-3.54V83.99z"/>
</g>
</svg>
