<?xml version="1.0" encoding="utf-8"?>
<!-- Generator: Adobe Illustrator 24.0.1, SVG Export Plug-In . SVG Version: 6.00 Build 0)  -->
<svg version="1.1" id="Layer_1" xmlns="http://www.w3.org/2000/svg" xmlns:xlink="http://www.w3.org/1999/xlink" x="0px" y="0px"
	 viewBox="0 0 251 85" style="enable-background:new 0 0 251 85;" xml:space="preserve">
<style type="text/css">
	.st0{fill:none;stroke:url(#SVGID_1_);stroke-width:7;stroke-miterlimit:10;}
	.st1{fill:none;stroke:url(#SVGID_2_);stroke-width:7;stroke-miterlimit:10;}
	.st2{fill:none;stroke:url(#SVGID_3_);stroke-width:7;stroke-miterlimit:10;}
	.st3{fill:none;stroke:url(#SVGID_4_);stroke-width:7;stroke-miterlimit:10;}
	.st4{fill:none;stroke:url(#SVGID_5_);stroke-width:7;stroke-miterlimit:10;}
</style>
<linearGradient id="SVGID_1_" gradientUnits="userSpaceOnUse" x1="6.3258" y1="42" x2="243.6742" y2="42">
	<stop  offset="0" style="stop-color:#8FCCD5"/>
	<stop  offset="0.5" style="stop-color:#5BBAC7"/>
	<stop  offset="1" style="stop-color:#00AAB9"/>
</linearGradient>
<polygon class="st0" points="210.89,8.5 14.47,8.5 46.26,42 14.47,75.5 210.89,75.5 239.1,42 "/>
<g>
	<path d="M69.38,41.51c-0.07-1.32-0.15-2.9-0.14-4.08H69.2c-0.32,1.11-0.71,2.28-1.19,3.59l-1.67,4.58h-0.92l-1.53-4.5
		c-0.45-1.33-0.83-2.55-1.09-3.67h-0.03c-0.03,1.18-0.1,2.76-0.18,4.17l-0.25,4.05h-1.16l0.66-9.44h1.55L65,40.78
		c0.39,1.16,0.71,2.2,0.95,3.18h0.04c0.24-0.95,0.57-1.99,0.99-3.18l1.68-4.57h1.55l0.59,9.44h-1.19L69.38,41.51z"/>
	<path d="M78.86,42.21c0,2.51-1.74,3.6-3.38,3.6c-1.83,0-3.25-1.34-3.25-3.49c0-2.27,1.48-3.6,3.36-3.6
		C77.54,38.72,78.86,40.14,78.86,42.21z M73.48,42.28c0,1.49,0.85,2.61,2.06,2.61c1.18,0,2.06-1.11,2.06-2.63
		c0-1.15-0.57-2.6-2.03-2.6C74.11,39.65,73.48,40.99,73.48,42.28z"/>
	<path d="M86.26,35.71v8.19c0,0.6,0.01,1.29,0.06,1.75h-1.11l-0.06-1.18h-0.03c-0.38,0.76-1.2,1.33-2.31,1.33
		c-1.64,0-2.9-1.39-2.9-3.45c-0.01-2.25,1.39-3.64,3.04-3.64c1.04,0,1.74,0.49,2.05,1.04h0.03v-4.05H86.26z M85.03,41.64
		c0-0.15-0.01-0.36-0.06-0.52c-0.18-0.79-0.85-1.43-1.78-1.43c-1.27,0-2.03,1.12-2.03,2.62c0,1.37,0.67,2.51,2,2.51
		c0.83,0,1.58-0.55,1.81-1.47c0.04-0.17,0.06-0.34,0.06-0.53V41.64z"/>
	<path d="M88.99,42.49c0.03,1.67,1.09,2.35,2.33,2.35c0.88,0,1.41-0.15,1.88-0.35l0.21,0.88c-0.43,0.2-1.18,0.42-2.25,0.42
		c-2.09,0-3.33-1.37-3.33-3.42c0-2.05,1.2-3.66,3.18-3.66c2.21,0,2.8,1.95,2.8,3.19c0,0.25-0.03,0.45-0.04,0.57H88.99z M92.61,41.61
		c0.01-0.79-0.32-2-1.71-2c-1.25,0-1.79,1.15-1.89,2H92.61z"/>
	<path d="M95.32,35.71h1.23v9.95h-1.23V35.71z"/>
	<path d="M104.76,42.21c0,2.51-1.74,3.6-3.38,3.6c-1.83,0-3.25-1.34-3.25-3.49c0-2.27,1.48-3.6,3.36-3.6
		C103.44,38.72,104.76,40.14,104.76,42.21z M99.38,42.28c0,1.49,0.85,2.61,2.06,2.61c1.18,0,2.06-1.11,2.06-2.63
		c0-1.15-0.57-2.6-2.03-2.6C100.01,39.65,99.38,40.99,99.38,42.28z"/>
	<path d="M106.14,44.4c0.36,0.24,1.01,0.49,1.63,0.49c0.9,0,1.32-0.45,1.32-1.01c0-0.59-0.35-0.91-1.26-1.25
		c-1.22-0.43-1.79-1.11-1.79-1.92c0-1.09,0.88-1.99,2.34-1.99c0.69,0,1.29,0.2,1.67,0.42l-0.31,0.9c-0.27-0.17-0.76-0.39-1.39-0.39
		c-0.73,0-1.13,0.42-1.13,0.92c0,0.56,0.41,0.81,1.29,1.15c1.18,0.45,1.78,1.04,1.78,2.05c0,1.19-0.92,2.03-2.54,2.03
		c-0.74,0-1.43-0.18-1.9-0.46L106.14,44.4z"/>
	<path d="M120.68,35.71v8.19c0,0.6,0.01,1.29,0.06,1.75h-1.11l-0.06-1.18h-0.03c-0.38,0.76-1.2,1.33-2.31,1.33
		c-1.64,0-2.9-1.39-2.9-3.45c-0.01-2.25,1.39-3.64,3.04-3.64c1.04,0,1.74,0.49,2.05,1.04h0.03v-4.05H120.68z M119.44,41.64
		c0-0.15-0.01-0.36-0.06-0.52c-0.18-0.79-0.85-1.43-1.78-1.43c-1.27,0-2.03,1.12-2.03,2.62c0,1.37,0.67,2.51,2,2.51
		c0.83,0,1.58-0.55,1.81-1.47c0.04-0.17,0.06-0.34,0.06-0.53V41.64z"/>
	<path d="M123.4,42.49c0.03,1.67,1.09,2.35,2.33,2.35c0.88,0,1.41-0.15,1.88-0.35l0.21,0.88c-0.43,0.2-1.18,0.42-2.25,0.42
		c-2.09,0-3.33-1.37-3.33-3.42c0-2.05,1.2-3.66,3.18-3.66c2.21,0,2.8,1.95,2.8,3.19c0,0.25-0.03,0.45-0.04,0.57H123.4z
		 M127.02,41.61c0.01-0.79-0.32-2-1.71-2c-1.25,0-1.79,1.15-1.89,2H127.02z"/>
	<path d="M132.7,41.09c0-0.87-0.03-1.57-0.06-2.21h1.11l0.06,1.16h0.03c0.5-0.83,1.3-1.32,2.41-1.32c1.64,0,2.87,1.39,2.87,3.45
		c0,2.44-1.48,3.64-3.08,3.64c-0.9,0-1.68-0.39-2.09-1.06h-0.03v3.68h-1.22V41.09z M133.92,42.9c0,0.18,0.03,0.35,0.06,0.5
		c0.22,0.85,0.97,1.44,1.85,1.44c1.3,0,2.06-1.06,2.06-2.62c0-1.36-0.71-2.52-2.02-2.52c-0.84,0-1.63,0.6-1.86,1.53
		c-0.04,0.15-0.08,0.34-0.08,0.5V42.9z"/>
	<path d="M140.66,40.99c0-0.8-0.01-1.49-0.06-2.12h1.08l0.04,1.33h0.06c0.31-0.91,1.05-1.48,1.88-1.48c0.14,0,0.24,0.01,0.35,0.04
		v1.16c-0.13-0.03-0.25-0.04-0.42-0.04c-0.87,0-1.48,0.66-1.65,1.58c-0.03,0.17-0.06,0.36-0.06,0.57v3.61h-1.22V40.99z"/>
	<path d="M151.24,42.21c0,2.51-1.74,3.6-3.38,3.6c-1.83,0-3.25-1.34-3.25-3.49c0-2.27,1.48-3.6,3.36-3.6
		C149.92,38.72,151.24,40.14,151.24,42.21z M145.86,42.28c0,1.49,0.85,2.61,2.06,2.61c1.18,0,2.06-1.11,2.06-2.63
		c0-1.15-0.57-2.6-2.03-2.6C146.49,39.65,145.86,40.99,145.86,42.28z"/>
	<path d="M158.64,35.71v8.19c0,0.6,0.01,1.29,0.06,1.75h-1.11l-0.06-1.18h-0.03c-0.38,0.76-1.2,1.33-2.31,1.33
		c-1.64,0-2.9-1.39-2.9-3.45c-0.01-2.25,1.39-3.64,3.04-3.64c1.04,0,1.74,0.49,2.05,1.04h0.03v-4.05H158.64z M157.41,41.64
		c0-0.15-0.01-0.36-0.06-0.52c-0.18-0.79-0.85-1.43-1.78-1.43c-1.27,0-2.03,1.12-2.03,2.62c0,1.37,0.67,2.51,2,2.51
		c0.83,0,1.58-0.55,1.81-1.47c0.04-0.17,0.06-0.34,0.06-0.53V41.64z"/>
	<path d="M166.36,43.81c0,0.7,0.01,1.32,0.06,1.85h-1.09l-0.07-1.11h-0.03c-0.32,0.55-1.04,1.26-2.24,1.26
		c-1.06,0-2.34-0.59-2.34-2.97v-3.96h1.23v3.75c0,1.29,0.39,2.16,1.51,2.16c0.83,0,1.4-0.57,1.63-1.12
		c0.07-0.18,0.11-0.41,0.11-0.63v-4.16h1.23V43.81z"/>
	<path d="M173.23,45.41c-0.32,0.17-1.04,0.39-1.95,0.39c-2.05,0-3.38-1.39-3.38-3.46c0-2.09,1.43-3.6,3.64-3.6
		c0.73,0,1.37,0.18,1.71,0.35l-0.28,0.95c-0.29-0.17-0.76-0.32-1.43-0.32c-1.55,0-2.4,1.15-2.4,2.56c0,1.57,1.01,2.54,2.35,2.54
		c0.7,0,1.16-0.18,1.51-0.34L173.23,45.41z"/>
	<path d="M179.42,45.41c-0.32,0.17-1.04,0.39-1.95,0.39c-2.05,0-3.38-1.39-3.38-3.46c0-2.09,1.43-3.6,3.64-3.6
		c0.73,0,1.37,0.18,1.71,0.35l-0.28,0.95c-0.29-0.17-0.76-0.32-1.43-0.32c-1.55,0-2.4,1.15-2.4,2.56c0,1.57,1.01,2.54,2.35,2.54
		c0.7,0,1.16-0.18,1.51-0.34L179.42,45.41z"/>
	<path d="M182.23,36.97c0.01,0.42-0.29,0.76-0.78,0.76c-0.43,0-0.74-0.34-0.74-0.76c0-0.43,0.32-0.77,0.77-0.77
		C181.94,36.2,182.23,36.54,182.23,36.97z M180.86,45.66v-6.78h1.23v6.78H180.86z"/>
	<path d="M190.27,42.21c0,2.51-1.74,3.6-3.38,3.6c-1.83,0-3.25-1.34-3.25-3.49c0-2.27,1.48-3.6,3.36-3.6
		C188.95,38.72,190.27,40.14,190.27,42.21z M184.89,42.28c0,1.49,0.85,2.61,2.06,2.61c1.18,0,2.06-1.11,2.06-2.63
		c0-1.15-0.57-2.6-2.03-2.6C185.52,39.65,184.89,40.99,184.89,42.28z M188.8,35.95l-1.71,2h-0.88l1.23-2H188.8z"/>
	<path d="M191.82,40.71c0-0.7-0.01-1.28-0.06-1.83h1.09l0.07,1.12h0.03c0.34-0.64,1.12-1.27,2.24-1.27c0.94,0,2.4,0.56,2.4,2.89
		v4.05h-1.23v-3.91c0-1.09-0.41-2-1.57-2c-0.81,0-1.44,0.57-1.65,1.26c-0.06,0.15-0.08,0.36-0.08,0.57v4.08h-1.23V40.71z"/>
</g>
<linearGradient id="SVGID_2_" gradientUnits="userSpaceOnUse" x1="266.3258" y1="42" x2="503.6742" y2="42">
	<stop  offset="0" style="stop-color:#8FCCD5"/>
	<stop  offset="0.5" style="stop-color:#5BBAC7"/>
	<stop  offset="1" style="stop-color:#00AAB9"/>
</linearGradient>
<polygon class="st1" points="470.89,8.5 274.47,8.5 306.26,42 274.47,75.5 470.89,75.5 499.1,42 "/>
<g>
	<path d="M334.02,34.51c-0.07-1.32-0.15-2.9-0.14-4.08h-0.04c-0.32,1.11-0.71,2.28-1.19,3.59l-1.67,4.58h-0.92l-1.53-4.5
		c-0.45-1.33-0.83-2.55-1.09-3.67h-0.03c-0.03,1.18-0.1,2.76-0.18,4.17l-0.25,4.05h-1.16l0.66-9.44h1.56l1.61,4.57
		c0.39,1.16,0.71,2.2,0.95,3.18h0.04c0.24-0.95,0.57-1.99,0.99-3.18l1.68-4.57h1.55l0.59,9.44h-1.19L334.02,34.51z"/>
	<path d="M343.5,35.21c0,2.51-1.74,3.6-3.38,3.6c-1.83,0-3.25-1.34-3.25-3.49c0-2.27,1.48-3.6,3.36-3.6
		C342.18,31.72,343.5,33.14,343.5,35.21z M338.12,35.28c0,1.49,0.85,2.61,2.06,2.61c1.18,0,2.06-1.11,2.06-2.63
		c0-1.15-0.57-2.6-2.03-2.6C338.75,32.65,338.12,33.99,338.12,35.28z"/>
	<path d="M350.91,28.71v8.19c0,0.6,0.01,1.29,0.06,1.75h-1.11l-0.06-1.18h-0.03c-0.38,0.76-1.2,1.33-2.31,1.33
		c-1.64,0-2.9-1.39-2.9-3.45c-0.01-2.25,1.39-3.64,3.04-3.64c1.04,0,1.74,0.49,2.05,1.04h0.03v-4.05H350.91z M349.67,34.64
		c0-0.15-0.01-0.36-0.06-0.52c-0.18-0.79-0.85-1.43-1.78-1.43c-1.27,0-2.03,1.12-2.03,2.62c0,1.37,0.67,2.51,2,2.51
		c0.83,0,1.58-0.55,1.81-1.47c0.04-0.17,0.06-0.34,0.06-0.53V34.64z"/>
	<path d="M353.63,35.49c0.03,1.67,1.09,2.35,2.33,2.35c0.88,0,1.41-0.15,1.88-0.35l0.21,0.88c-0.43,0.2-1.18,0.42-2.25,0.42
		c-2.09,0-3.33-1.37-3.33-3.42c0-2.05,1.2-3.66,3.18-3.66c2.21,0,2.8,1.95,2.8,3.19c0,0.25-0.03,0.45-0.04,0.57H353.63z
		 M357.25,34.61c0.01-0.79-0.32-2-1.71-2c-1.25,0-1.79,1.15-1.89,2H357.25z"/>
	<path d="M359.96,28.71h1.23v9.95h-1.23V28.71z"/>
	<path d="M369.4,35.21c0,2.51-1.74,3.6-3.38,3.6c-1.83,0-3.25-1.34-3.25-3.49c0-2.27,1.48-3.6,3.36-3.6
		C368.08,31.72,369.4,33.14,369.4,35.21z M364.02,35.28c0,1.49,0.85,2.61,2.06,2.61c1.18,0,2.06-1.11,2.06-2.63
		c0-1.15-0.57-2.6-2.03-2.6C364.65,32.65,364.02,33.99,364.02,35.28z"/>
	<path d="M370.78,37.4c0.36,0.24,1.01,0.49,1.63,0.49c0.9,0,1.32-0.45,1.32-1.01c0-0.59-0.35-0.91-1.26-1.25
		c-1.22-0.43-1.79-1.11-1.79-1.92c0-1.09,0.88-1.99,2.34-1.99c0.69,0,1.29,0.2,1.67,0.42l-0.31,0.9c-0.27-0.17-0.76-0.39-1.39-0.39
		c-0.73,0-1.13,0.42-1.13,0.92c0,0.56,0.41,0.81,1.29,1.15c1.18,0.45,1.78,1.04,1.78,2.05c0,1.19-0.92,2.03-2.54,2.03
		c-0.74,0-1.43-0.18-1.9-0.46L370.78,37.4z"/>
	<path d="M385.32,28.71v8.19c0,0.6,0.01,1.29,0.06,1.75h-1.11l-0.06-1.18h-0.03c-0.38,0.76-1.2,1.33-2.31,1.33
		c-1.64,0-2.9-1.39-2.9-3.45c-0.01-2.25,1.39-3.64,3.04-3.64c1.04,0,1.74,0.49,2.05,1.04h0.03v-4.05H385.32z M384.08,34.64
		c0-0.15-0.01-0.36-0.06-0.52c-0.18-0.79-0.85-1.43-1.78-1.43c-1.27,0-2.03,1.12-2.03,2.62c0,1.37,0.67,2.51,2,2.51
		c0.83,0,1.58-0.55,1.81-1.47c0.04-0.17,0.06-0.34,0.06-0.53V34.64z"/>
	<path d="M388.04,35.49c0.03,1.67,1.09,2.35,2.33,2.35c0.88,0,1.41-0.15,1.88-0.35l0.21,0.88c-0.43,0.2-1.18,0.42-2.25,0.42
		c-2.09,0-3.33-1.37-3.33-3.42c0-2.05,1.2-3.66,3.18-3.66c2.21,0,2.8,1.95,2.8,3.19c0,0.25-0.03,0.45-0.04,0.57H388.04z
		 M391.66,34.61c0.01-0.79-0.32-2-1.71-2c-1.25,0-1.79,1.15-1.89,2H391.66z"/>
	<path d="M403.19,28.71v8.19c0,0.6,0.01,1.29,0.06,1.75h-1.11l-0.06-1.18h-0.03c-0.38,0.76-1.2,1.33-2.31,1.33
		c-1.64,0-2.9-1.39-2.9-3.45c-0.01-2.25,1.39-3.64,3.04-3.64c1.04,0,1.74,0.49,2.05,1.04h0.03v-4.05H403.19z M401.96,34.64
		c0-0.15-0.01-0.36-0.06-0.52c-0.18-0.79-0.85-1.43-1.78-1.43c-1.27,0-2.03,1.12-2.03,2.62c0,1.37,0.67,2.51,2,2.51
		c0.83,0,1.58-0.55,1.81-1.47c0.04-0.17,0.06-0.34,0.06-0.53V34.64z"/>
	<path d="M406.61,29.97c0.01,0.42-0.29,0.76-0.78,0.76c-0.43,0-0.74-0.34-0.74-0.76c0-0.43,0.32-0.77,0.77-0.77
		C406.31,29.2,406.61,29.54,406.61,29.97z M405.23,38.66v-6.78h1.23v6.78H405.23z"/>
	<path d="M408.64,38.66v-5.84h-0.95v-0.94h0.95v-0.32c0-0.95,0.21-1.82,0.78-2.37c0.46-0.45,1.08-0.63,1.65-0.63
		c0.43,0,0.81,0.1,1.05,0.2l-0.17,0.95c-0.18-0.08-0.43-0.15-0.78-0.15c-1.05,0-1.32,0.92-1.32,1.96v0.36h1.64v0.94h-1.64v5.84
		H408.64z"/>
	<path d="M413.1,35.49c0.03,1.67,1.09,2.35,2.33,2.35c0.88,0,1.41-0.15,1.88-0.35l0.21,0.88c-0.43,0.2-1.18,0.42-2.25,0.42
		c-2.09,0-3.33-1.37-3.33-3.42c0-2.05,1.2-3.66,3.18-3.66c2.21,0,2.8,1.95,2.8,3.19c0,0.25-0.03,0.45-0.04,0.57H413.1z
		 M416.72,34.61c0.01-0.79-0.32-2-1.71-2c-1.25,0-1.79,1.15-1.89,2H416.72z"/>
	<path d="M419.43,33.99c0-0.8-0.01-1.49-0.06-2.12h1.08l0.04,1.33h0.06c0.31-0.91,1.05-1.48,1.88-1.48c0.14,0,0.24,0.01,0.35,0.04
		v1.16c-0.13-0.03-0.25-0.04-0.42-0.04c-0.87,0-1.48,0.66-1.65,1.58c-0.03,0.17-0.06,0.36-0.06,0.57v3.61h-1.22V33.99z"/>
	<path d="M424.56,35.49c0.03,1.67,1.09,2.35,2.33,2.35c0.88,0,1.41-0.15,1.88-0.35l0.21,0.88c-0.43,0.2-1.18,0.42-2.25,0.42
		c-2.09,0-3.33-1.37-3.33-3.42c0-2.05,1.2-3.66,3.18-3.66c2.21,0,2.8,1.95,2.8,3.19c0,0.25-0.03,0.45-0.04,0.57H424.56z
		 M428.17,34.61c0.01-0.79-0.32-2-1.71-2c-1.25,0-1.79,1.15-1.89,2H428.17z"/>
	<path d="M430.88,33.71c0-0.7-0.01-1.28-0.06-1.83h1.09l0.07,1.12h0.03c0.34-0.64,1.12-1.27,2.24-1.27c0.94,0,2.4,0.56,2.4,2.89
		v4.05h-1.23v-3.91c0-1.09-0.41-2-1.57-2c-0.81,0-1.44,0.57-1.65,1.26c-0.06,0.15-0.08,0.36-0.08,0.57v4.08h-1.23V33.71z"/>
	<path d="M443.48,38.41c-0.32,0.17-1.04,0.39-1.95,0.39c-2.05,0-3.38-1.39-3.38-3.46c0-2.09,1.43-3.6,3.64-3.6
		c0.73,0,1.37,0.18,1.71,0.35l-0.28,0.95c-0.29-0.17-0.76-0.32-1.43-0.32c-1.55,0-2.4,1.15-2.4,2.56c0,1.57,1.01,2.54,2.35,2.54
		c0.7,0,1.16-0.18,1.51-0.34L443.48,38.41z"/>
	<path d="M446.3,29.97c0.01,0.42-0.29,0.76-0.78,0.76c-0.43,0-0.74-0.34-0.74-0.76c0-0.43,0.32-0.77,0.77-0.77
		C446,29.2,446.3,29.54,446.3,29.97z M444.92,38.66v-6.78h1.23v6.78H444.92z"/>
	<path d="M451.95,38.66l-0.1-0.85h-0.04c-0.38,0.53-1.11,1.01-2.07,1.01c-1.37,0-2.07-0.97-2.07-1.95c0-1.64,1.46-2.54,4.08-2.52
		V34.2c0-0.56-0.15-1.57-1.54-1.57c-0.63,0-1.29,0.2-1.77,0.5l-0.28-0.81c0.56-0.36,1.37-0.6,2.23-0.6c2.07,0,2.58,1.42,2.58,2.77
		v2.54c0,0.59,0.03,1.16,0.11,1.63H451.95z M451.77,35.2c-1.34-0.03-2.87,0.21-2.87,1.53c0,0.8,0.53,1.18,1.16,1.18
		c0.88,0,1.44-0.56,1.64-1.13c0.04-0.13,0.07-0.27,0.07-0.39V35.2z"/>
	<path d="M367.12,45.51v8.19c0,0.6,0.01,1.29,0.06,1.75h-1.11l-0.06-1.18h-0.03c-0.38,0.76-1.2,1.33-2.31,1.33
		c-1.64,0-2.9-1.39-2.9-3.45c-0.01-2.25,1.39-3.64,3.04-3.64c1.04,0,1.74,0.49,2.05,1.04h0.03v-4.05H367.12z M365.88,51.44
		c0-0.15-0.01-0.36-0.06-0.52c-0.18-0.79-0.85-1.43-1.78-1.43c-1.27,0-2.03,1.12-2.03,2.62c0,1.37,0.67,2.51,2,2.51
		c0.83,0,1.58-0.55,1.81-1.47c0.04-0.17,0.06-0.34,0.06-0.53V51.44z"/>
	<path d="M369.84,52.29c0.03,1.67,1.09,2.35,2.33,2.35c0.88,0,1.41-0.15,1.88-0.35l0.21,0.88c-0.43,0.2-1.18,0.42-2.25,0.42
		c-2.09,0-3.33-1.37-3.33-3.42c0-2.05,1.2-3.66,3.18-3.66c2.21,0,2.8,1.95,2.8,3.19c0,0.25-0.03,0.45-0.04,0.57H369.84z
		 M373.46,51.41c0.01-0.79-0.32-2-1.71-2c-1.25,0-1.79,1.15-1.89,2H373.46z"/>
	<path d="M379.14,50.79c0-0.8-0.01-1.49-0.06-2.12h1.08l0.04,1.33h0.06c0.31-0.91,1.05-1.48,1.88-1.48c0.14,0,0.24,0.01,0.35,0.04
		v1.16c-0.13-0.03-0.25-0.04-0.42-0.04c-0.87,0-1.48,0.66-1.65,1.58c-0.03,0.17-0.06,0.36-0.06,0.57v3.61h-1.22V50.79z"/>
	<path d="M384.26,52.29c0.03,1.67,1.09,2.35,2.33,2.35c0.88,0,1.41-0.15,1.88-0.35l0.21,0.88c-0.43,0.2-1.18,0.42-2.25,0.42
		c-2.09,0-3.33-1.37-3.33-3.42c0-2.05,1.2-3.66,3.18-3.66c2.21,0,2.8,1.95,2.8,3.19c0,0.25-0.03,0.45-0.04,0.57H384.26z
		 M387.88,51.41c0.01-0.79-0.32-2-1.71-2c-1.25,0-1.79,1.15-1.89,2H387.88z"/>
	<path d="M392.08,46.73v1.95h1.77v0.94h-1.77v3.66c0,0.84,0.24,1.32,0.92,1.32c0.32,0,0.56-0.04,0.71-0.08l0.06,0.92
		c-0.24,0.1-0.62,0.17-1.09,0.17c-0.57,0-1.04-0.18-1.33-0.52c-0.35-0.36-0.48-0.97-0.48-1.77v-3.7h-1.05v-0.94h1.05v-1.63
		L392.08,46.73z"/>
	<path d="M395.22,50.79c0-0.8-0.01-1.49-0.06-2.12h1.08l0.04,1.33h0.06c0.31-0.91,1.05-1.48,1.88-1.48c0.14,0,0.24,0.01,0.35,0.04
		v1.16c-0.13-0.03-0.25-0.04-0.42-0.04c-0.87,0-1.48,0.66-1.65,1.58c-0.03,0.17-0.06,0.36-0.06,0.57v3.61h-1.22V50.79z"/>
	<path d="M403.49,55.46l-0.1-0.85h-0.04c-0.38,0.53-1.11,1.01-2.07,1.01c-1.37,0-2.07-0.97-2.07-1.95c0-1.64,1.46-2.54,4.08-2.52V51
		c0-0.56-0.15-1.57-1.54-1.57c-0.63,0-1.29,0.2-1.76,0.5l-0.28-0.81c0.56-0.36,1.37-0.6,2.23-0.6c2.07,0,2.58,1.42,2.58,2.77v2.54
		c0,0.59,0.03,1.16,0.11,1.63H403.49z M403.31,52c-1.34-0.03-2.87,0.21-2.87,1.53c0,0.8,0.53,1.18,1.16,1.18
		c0.88,0,1.44-0.56,1.64-1.13c0.04-0.13,0.07-0.27,0.07-0.39V52z"/>
	<path d="M406.31,54.2c0.36,0.24,1.01,0.49,1.63,0.49c0.9,0,1.32-0.45,1.32-1.01c0-0.59-0.35-0.91-1.26-1.25
		c-1.22-0.43-1.79-1.11-1.79-1.92c0-1.09,0.88-1.99,2.34-1.99c0.69,0,1.29,0.2,1.67,0.42l-0.31,0.9c-0.27-0.17-0.76-0.39-1.39-0.39
		c-0.73,0-1.13,0.42-1.13,0.92c0,0.56,0.41,0.81,1.29,1.15c1.18,0.45,1.78,1.04,1.78,2.05c0,1.19-0.92,2.03-2.54,2.03
		c-0.74,0-1.43-0.18-1.9-0.46L406.31,54.2z"/>
	<path d="M418.16,52.01c0,2.51-1.74,3.6-3.38,3.6c-1.83,0-3.25-1.34-3.25-3.49c0-2.27,1.48-3.6,3.36-3.6
		C416.84,48.52,418.16,49.94,418.16,52.01z M412.78,52.08c0,1.49,0.85,2.61,2.06,2.61c1.18,0,2.06-1.11,2.06-2.63
		c0-1.15-0.57-2.6-2.03-2.6C413.41,49.45,412.78,50.79,412.78,52.08z"/>
</g>
<linearGradient id="SVGID_3_" gradientUnits="userSpaceOnUse" x1="486.3258" y1="42" x2="723.6743" y2="42">
	<stop  offset="0" style="stop-color:#8FCCD5"/>
	<stop  offset="0.5" style="stop-color:#5BBAC7"/>
	<stop  offset="1" style="stop-color:#00AAB9"/>
</linearGradient>
<polygon class="st2" points="690.89,8.5 494.47,8.5 526.26,42 494.47,75.5 690.89,75.5 719.1,42 "/>
<g>
	<path d="M558.82,34.51c-0.07-1.32-0.15-2.9-0.14-4.08h-0.04c-0.32,1.11-0.71,2.28-1.19,3.59l-1.67,4.58h-0.92l-1.53-4.5
		c-0.45-1.33-0.83-2.55-1.09-3.67h-0.03c-0.03,1.18-0.1,2.76-0.18,4.17l-0.25,4.05h-1.16l0.66-9.44h1.56l1.61,4.57
		c0.39,1.16,0.71,2.2,0.95,3.18h0.04c0.24-0.95,0.57-1.99,0.99-3.18l1.68-4.57h1.55l0.59,9.44h-1.19L558.82,34.51z"/>
	<path d="M568.3,35.21c0,2.51-1.74,3.6-3.38,3.6c-1.83,0-3.25-1.34-3.25-3.49c0-2.27,1.48-3.6,3.36-3.6
		C566.98,31.72,568.3,33.14,568.3,35.21z M562.92,35.28c0,1.49,0.85,2.61,2.06,2.61c1.18,0,2.06-1.11,2.06-2.63
		c0-1.15-0.57-2.6-2.03-2.6C563.55,32.65,562.92,33.99,562.92,35.28z"/>
	<path d="M575.71,28.71v8.19c0,0.6,0.01,1.29,0.06,1.75h-1.11l-0.06-1.18h-0.03c-0.38,0.76-1.2,1.33-2.31,1.33
		c-1.64,0-2.9-1.39-2.9-3.45c-0.01-2.25,1.39-3.64,3.04-3.64c1.04,0,1.74,0.49,2.05,1.04h0.03v-4.05H575.71z M574.47,34.64
		c0-0.15-0.01-0.36-0.06-0.52c-0.18-0.79-0.85-1.43-1.78-1.43c-1.27,0-2.03,1.12-2.03,2.62c0,1.37,0.67,2.51,2,2.51
		c0.83,0,1.58-0.55,1.81-1.47c0.04-0.17,0.06-0.34,0.06-0.53V34.64z"/>
	<path d="M578.43,35.49c0.03,1.67,1.09,2.35,2.33,2.35c0.88,0,1.41-0.15,1.88-0.35l0.21,0.88c-0.43,0.2-1.18,0.42-2.25,0.42
		c-2.09,0-3.33-1.37-3.33-3.42c0-2.05,1.2-3.66,3.18-3.66c2.21,0,2.8,1.95,2.8,3.19c0,0.25-0.03,0.45-0.04,0.57H578.43z
		 M582.05,34.61c0.01-0.79-0.32-2-1.71-2c-1.25,0-1.79,1.15-1.89,2H582.05z"/>
	<path d="M584.76,28.71h1.23v9.95h-1.23V28.71z"/>
	<path d="M594.2,35.21c0,2.51-1.74,3.6-3.38,3.6c-1.83,0-3.25-1.34-3.25-3.49c0-2.27,1.48-3.6,3.36-3.6
		C592.88,31.72,594.2,33.14,594.2,35.21z M588.82,35.28c0,1.49,0.85,2.61,2.06,2.61c1.18,0,2.06-1.11,2.06-2.63
		c0-1.15-0.57-2.6-2.03-2.6C589.45,32.65,588.82,33.99,588.82,35.28z"/>
	<path d="M595.58,37.4c0.36,0.24,1.01,0.49,1.63,0.49c0.9,0,1.32-0.45,1.32-1.01c0-0.59-0.35-0.91-1.26-1.25
		c-1.22-0.43-1.79-1.11-1.79-1.92c0-1.09,0.88-1.99,2.34-1.99c0.69,0,1.29,0.2,1.67,0.42l-0.31,0.9c-0.27-0.17-0.76-0.39-1.39-0.39
		c-0.73,0-1.13,0.42-1.13,0.92c0,0.56,0.41,0.81,1.29,1.15c1.18,0.45,1.78,1.04,1.78,2.05c0,1.19-0.92,2.03-2.54,2.03
		c-0.74,0-1.43-0.18-1.9-0.46L595.58,37.4z"/>
	<path d="M604.21,38.66c0.03-0.46,0.06-1.15,0.06-1.75v-8.19h1.22v4.26h0.03c0.43-0.76,1.22-1.25,2.31-1.25
		c1.68,0,2.87,1.4,2.86,3.46c0,2.42-1.53,3.63-3.04,3.63c-0.98,0-1.77-0.38-2.27-1.27h-0.04l-0.06,1.12H604.21z M605.48,35.94
		c0,0.15,0.03,0.31,0.06,0.45c0.24,0.85,0.95,1.44,1.85,1.44c1.29,0,2.06-1.05,2.06-2.61c0-1.36-0.7-2.52-2.02-2.52
		c-0.84,0-1.63,0.57-1.88,1.51c-0.03,0.14-0.07,0.31-0.07,0.5V35.94z"/>
	<path d="M615.98,38.66l-0.1-0.85h-0.04c-0.38,0.53-1.11,1.01-2.07,1.01c-1.37,0-2.07-0.97-2.07-1.95c0-1.64,1.46-2.54,4.08-2.52
		V34.2c0-0.56-0.15-1.57-1.54-1.57c-0.63,0-1.29,0.2-1.76,0.5l-0.28-0.81c0.56-0.36,1.37-0.6,2.23-0.6c2.07,0,2.58,1.42,2.58,2.77
		v2.54c0,0.59,0.03,1.16,0.11,1.63H615.98z M615.8,35.2c-1.34-0.03-2.87,0.21-2.87,1.53c0,0.8,0.53,1.18,1.16,1.18
		c0.88,0,1.44-0.56,1.64-1.13c0.04-0.13,0.07-0.27,0.07-0.39V35.2z"/>
	<path d="M618.81,37.4c0.36,0.24,1.01,0.49,1.63,0.49c0.9,0,1.32-0.45,1.32-1.01c0-0.59-0.35-0.91-1.26-1.25
		c-1.22-0.43-1.79-1.11-1.79-1.92c0-1.09,0.88-1.99,2.34-1.99c0.69,0,1.29,0.2,1.67,0.42l-0.31,0.9c-0.27-0.17-0.76-0.39-1.39-0.39
		c-0.73,0-1.13,0.42-1.13,0.92c0,0.56,0.41,0.81,1.29,1.15c1.18,0.45,1.78,1.04,1.78,2.05c0,1.19-0.92,2.03-2.54,2.03
		c-0.74,0-1.43-0.18-1.9-0.46L618.81,37.4z"/>
	<path d="M628.27,38.66l-0.1-0.85h-0.04c-0.38,0.53-1.11,1.01-2.07,1.01c-1.37,0-2.07-0.97-2.07-1.95c0-1.64,1.46-2.54,4.08-2.52
		V34.2c0-0.56-0.15-1.57-1.54-1.57c-0.63,0-1.29,0.2-1.76,0.5l-0.28-0.81c0.56-0.36,1.37-0.6,2.23-0.6c2.07,0,2.58,1.42,2.58,2.77
		v2.54c0,0.59,0.03,1.16,0.11,1.63H628.27z M628.09,35.2c-1.34-0.03-2.87,0.21-2.87,1.53c0,0.8,0.53,1.18,1.16,1.18
		c0.88,0,1.44-0.56,1.64-1.13c0.04-0.13,0.07-0.27,0.07-0.39V35.2z"/>
	<path d="M637.12,28.71v8.19c0,0.6,0.01,1.29,0.06,1.75h-1.11l-0.06-1.18h-0.03c-0.38,0.76-1.2,1.33-2.31,1.33
		c-1.64,0-2.9-1.39-2.9-3.45c-0.01-2.25,1.39-3.64,3.04-3.64c1.04,0,1.74,0.49,2.05,1.04h0.03v-4.05H637.12z M635.89,34.64
		c0-0.15-0.01-0.36-0.06-0.52c-0.18-0.79-0.85-1.43-1.78-1.43c-1.27,0-2.03,1.12-2.03,2.62c0,1.37,0.67,2.51,2,2.51
		c0.83,0,1.58-0.55,1.81-1.47c0.04-0.17,0.06-0.34,0.06-0.53V34.64z"/>
	<path d="M645.3,35.21c0,2.51-1.74,3.6-3.38,3.6c-1.83,0-3.25-1.34-3.25-3.49c0-2.27,1.48-3.6,3.36-3.6
		C643.98,31.72,645.3,33.14,645.3,35.21z M639.92,35.28c0,1.49,0.85,2.61,2.06,2.61c1.18,0,2.06-1.11,2.06-2.63
		c0-1.15-0.57-2.6-2.03-2.6C640.55,32.65,639.92,33.99,639.92,35.28z"/>
	<path d="M646.68,37.4c0.36,0.24,1.01,0.49,1.63,0.49c0.9,0,1.32-0.45,1.32-1.01c0-0.59-0.35-0.91-1.26-1.25
		c-1.22-0.43-1.79-1.11-1.79-1.92c0-1.09,0.88-1.99,2.34-1.99c0.69,0,1.29,0.2,1.67,0.42l-0.31,0.9c-0.27-0.17-0.76-0.39-1.39-0.39
		c-0.73,0-1.13,0.42-1.13,0.92c0,0.56,0.41,0.81,1.29,1.15c1.18,0.45,1.78,1.04,1.78,2.05c0,1.19-0.92,2.03-2.54,2.03
		c-0.74,0-1.43-0.18-1.9-0.46L646.68,37.4z"/>
	<path d="M656.05,35.49c0.03,1.67,1.09,2.35,2.33,2.35c0.88,0,1.41-0.15,1.88-0.35l0.21,0.88c-0.43,0.2-1.18,0.42-2.25,0.42
		c-2.09,0-3.33-1.37-3.33-3.42c0-2.05,1.2-3.66,3.18-3.66c2.21,0,2.8,1.95,2.8,3.19c0,0.25-0.03,0.45-0.04,0.57H656.05z
		 M659.66,34.61c0.01-0.79-0.32-2-1.71-2c-1.25,0-1.79,1.15-1.89,2H659.66z"/>
	<path d="M662.38,33.71c0-0.7-0.01-1.28-0.06-1.83h1.09l0.07,1.12h0.03c0.34-0.64,1.12-1.27,2.24-1.27c0.94,0,2.4,0.56,2.4,2.89
		v4.05h-1.23v-3.91c0-1.09-0.41-2-1.57-2c-0.81,0-1.44,0.57-1.65,1.26c-0.06,0.15-0.08,0.36-0.08,0.57v4.08h-1.23V33.71z"/>
	<path d="M581.9,52.29c0.03,1.67,1.09,2.35,2.33,2.35c0.88,0,1.41-0.15,1.88-0.35l0.21,0.88c-0.43,0.2-1.18,0.42-2.25,0.42
		c-2.09,0-3.33-1.37-3.33-3.42c0-2.05,1.2-3.66,3.18-3.66c2.21,0,2.8,1.95,2.8,3.19c0,0.25-0.03,0.45-0.04,0.57H581.9z
		 M585.51,51.41c0.01-0.79-0.32-2-1.71-2c-1.25,0-1.79,1.15-1.89,2H585.51z"/>
	<path d="M588.23,45.51h1.23v9.95h-1.23V45.51z"/>
	<path d="M595.98,46.73v1.95h1.77v0.94h-1.77v3.66c0,0.84,0.24,1.32,0.92,1.32c0.32,0,0.56-0.04,0.71-0.08l0.06,0.92
		c-0.24,0.1-0.62,0.17-1.09,0.17c-0.57,0-1.04-0.18-1.33-0.52c-0.35-0.36-0.48-0.97-0.48-1.77v-3.7h-1.05v-0.94h1.05v-1.63
		L595.98,46.73z"/>
	<path d="M602.89,55.46l-0.1-0.85h-0.04c-0.38,0.53-1.11,1.01-2.07,1.01c-1.37,0-2.07-0.97-2.07-1.95c0-1.64,1.46-2.54,4.08-2.52V51
		c0-0.56-0.15-1.57-1.54-1.57c-0.63,0-1.29,0.2-1.77,0.5l-0.28-0.81c0.56-0.36,1.37-0.6,2.23-0.6c2.07,0,2.58,1.42,2.58,2.77v2.54
		c0,0.59,0.03,1.16,0.11,1.63H602.89z M602.7,52c-1.34-0.03-2.87,0.21-2.87,1.53c0,0.8,0.53,1.18,1.16,1.18
		c0.88,0,1.44-0.56,1.64-1.13c0.04-0.13,0.07-0.27,0.07-0.39V52z"/>
	<path d="M605.88,50.51c0-0.7-0.01-1.28-0.06-1.83h1.08l0.06,1.09H607c0.38-0.64,1.01-1.25,2.13-1.25c0.92,0,1.62,0.56,1.92,1.36
		h0.03c0.21-0.38,0.48-0.67,0.76-0.88c0.41-0.31,0.85-0.48,1.5-0.48c0.9,0,2.23,0.59,2.23,2.94v3.99h-1.2v-3.84
		c0-1.3-0.48-2.09-1.47-2.09c-0.7,0-1.25,0.52-1.46,1.12c-0.06,0.17-0.1,0.39-0.1,0.62v4.19h-1.2V51.4c0-1.08-0.48-1.86-1.42-1.86
		c-0.77,0-1.33,0.62-1.53,1.23c-0.07,0.18-0.1,0.39-0.1,0.6v4.09h-1.2V50.51z"/>
	<path d="M621.31,55.46l-0.1-0.85h-0.04c-0.38,0.53-1.11,1.01-2.07,1.01c-1.37,0-2.07-0.97-2.07-1.95c0-1.64,1.46-2.54,4.08-2.52V51
		c0-0.56-0.15-1.57-1.54-1.57c-0.63,0-1.29,0.2-1.77,0.5l-0.28-0.81c0.56-0.36,1.37-0.6,2.23-0.6c2.07,0,2.58,1.42,2.58,2.77v2.54
		c0,0.59,0.03,1.16,0.11,1.63H621.31z M621.13,52c-1.34-0.03-2.87,0.21-2.87,1.53c0,0.8,0.53,1.18,1.16,1.18
		c0.88,0,1.44-0.56,1.64-1.13c0.04-0.13,0.07-0.27,0.07-0.39V52z"/>
	<path d="M624.3,50.51c0-0.7-0.01-1.28-0.06-1.83h1.09l0.07,1.12h0.03c0.34-0.64,1.12-1.27,2.24-1.27c0.94,0,2.4,0.56,2.4,2.89v4.05
		h-1.23v-3.91c0-1.09-0.41-2-1.57-2c-0.81,0-1.44,0.57-1.65,1.26c-0.06,0.15-0.08,0.36-0.08,0.57v4.08h-1.23V50.51z M625.45,47.52
		c-0.03-0.91,0.35-1.46,0.95-1.46c0.31,0,0.55,0.13,0.87,0.31c0.22,0.13,0.42,0.24,0.59,0.24c0.22,0,0.36-0.13,0.39-0.6h0.66
		c0.01,0.94-0.31,1.42-0.97,1.42c-0.29,0-0.56-0.13-0.85-0.28c-0.28-0.17-0.43-0.25-0.6-0.25c-0.22,0-0.34,0.24-0.36,0.63H625.45z"
		/>
	<path d="M638.21,52.01c0,2.51-1.74,3.6-3.38,3.6c-1.83,0-3.25-1.34-3.25-3.49c0-2.27,1.48-3.6,3.36-3.6
		C636.89,48.52,638.21,49.94,638.21,52.01z M632.83,52.08c0,1.49,0.85,2.61,2.06,2.61c1.18,0,2.06-1.11,2.06-2.63
		c0-1.15-0.57-2.6-2.03-2.6C633.46,49.45,632.83,50.79,632.83,52.08z"/>
</g>
<linearGradient id="SVGID_4_" gradientUnits="userSpaceOnUse" x1="706.3257" y1="42" x2="943.6743" y2="42">
	<stop  offset="0" style="stop-color:#8FCCD5"/>
	<stop  offset="0.5" style="stop-color:#5BBAC7"/>
	<stop  offset="1" style="stop-color:#00AAB9"/>
</linearGradient>
<polygon class="st3" points="910.89,8.5 714.47,8.5 746.26,42 714.47,75.5 910.89,75.5 939.1,42 "/>
<g>
	<path d="M772.31,34.51c-0.07-1.32-0.15-2.9-0.14-4.08h-0.04c-0.32,1.11-0.71,2.28-1.19,3.59l-1.67,4.58h-0.92l-1.53-4.5
		c-0.45-1.33-0.83-2.55-1.09-3.67h-0.03c-0.03,1.18-0.1,2.76-0.18,4.17l-0.25,4.05h-1.16l0.66-9.44h1.56l1.61,4.57
		c0.39,1.16,0.71,2.2,0.95,3.18h0.04c0.24-0.95,0.58-1.99,1-3.18l1.68-4.57h1.55l0.59,9.44h-1.19L772.31,34.51z"/>
	<path d="M781.79,35.21c0,2.51-1.74,3.6-3.38,3.6c-1.83,0-3.25-1.34-3.25-3.49c0-2.27,1.48-3.6,3.36-3.6
		C780.47,31.72,781.79,33.14,781.79,35.21z M776.41,35.28c0,1.49,0.86,2.61,2.06,2.61c1.18,0,2.06-1.11,2.06-2.63
		c0-1.15-0.57-2.6-2.03-2.6S776.41,33.99,776.41,35.28z"/>
	<path d="M789.2,28.71v8.19c0,0.6,0.01,1.29,0.06,1.75h-1.11l-0.06-1.18h-0.03c-0.38,0.76-1.2,1.33-2.31,1.33
		c-1.64,0-2.9-1.39-2.9-3.45c-0.01-2.25,1.39-3.64,3.04-3.64c1.04,0,1.74,0.49,2.05,1.04h0.03v-4.05H789.2z M787.96,34.64
		c0-0.15-0.01-0.36-0.06-0.52c-0.18-0.79-0.85-1.43-1.78-1.43c-1.27,0-2.03,1.12-2.03,2.62c0,1.37,0.67,2.51,2,2.51
		c0.83,0,1.58-0.55,1.81-1.47c0.04-0.17,0.06-0.34,0.06-0.53V34.64z"/>
	<path d="M791.92,35.49c0.03,1.67,1.09,2.35,2.33,2.35c0.88,0,1.41-0.15,1.88-0.35l0.21,0.88c-0.43,0.2-1.18,0.42-2.25,0.42
		c-2.09,0-3.33-1.37-3.33-3.42c0-2.05,1.21-3.66,3.18-3.66c2.21,0,2.8,1.95,2.8,3.19c0,0.25-0.03,0.45-0.04,0.57H791.92z
		 M795.54,34.61c0.01-0.79-0.32-2-1.71-2c-1.25,0-1.79,1.15-1.89,2H795.54z"/>
	<path d="M798.25,28.71h1.23v9.95h-1.23V28.71z"/>
	<path d="M807.69,35.21c0,2.51-1.74,3.6-3.38,3.6c-1.83,0-3.25-1.34-3.25-3.49c0-2.27,1.49-3.6,3.36-3.6
		C806.38,31.72,807.69,33.14,807.69,35.21z M802.31,35.28c0,1.49,0.85,2.61,2.06,2.61c1.18,0,2.06-1.11,2.06-2.63
		c0-1.15-0.57-2.6-2.03-2.6C802.94,32.65,802.31,33.99,802.31,35.28z"/>
	<path d="M809.07,37.4c0.36,0.24,1.01,0.49,1.63,0.49c0.9,0,1.32-0.45,1.32-1.01c0-0.59-0.35-0.91-1.26-1.25
		c-1.22-0.43-1.79-1.11-1.79-1.92c0-1.09,0.88-1.99,2.34-1.99c0.69,0,1.29,0.2,1.67,0.42l-0.31,0.9c-0.27-0.17-0.76-0.39-1.39-0.39
		c-0.73,0-1.13,0.42-1.13,0.92c0,0.56,0.41,0.81,1.29,1.15c1.18,0.45,1.78,1.04,1.78,2.05c0,1.19-0.92,2.03-2.54,2.03
		c-0.74,0-1.43-0.18-1.9-0.46L809.07,37.4z"/>
	<path d="M817.7,38.66c0.03-0.46,0.06-1.15,0.06-1.75v-8.19h1.22v4.26H819c0.43-0.76,1.22-1.25,2.31-1.25c1.68,0,2.87,1.4,2.86,3.46
		c0,2.42-1.53,3.63-3.04,3.63c-0.98,0-1.76-0.38-2.27-1.27h-0.04l-0.06,1.12H817.7z M818.97,35.94c0,0.15,0.03,0.31,0.06,0.45
		c0.24,0.85,0.95,1.44,1.85,1.44c1.29,0,2.06-1.05,2.06-2.61c0-1.36-0.7-2.52-2.02-2.52c-0.84,0-1.63,0.57-1.88,1.51
		c-0.03,0.14-0.07,0.31-0.07,0.5V35.94z"/>
	<path d="M829.47,38.66l-0.1-0.85h-0.04c-0.38,0.53-1.11,1.01-2.07,1.01c-1.37,0-2.07-0.97-2.07-1.95c0-1.64,1.46-2.54,4.08-2.52
		V34.2c0-0.56-0.15-1.57-1.54-1.57c-0.63,0-1.29,0.2-1.77,0.5l-0.28-0.81c0.56-0.36,1.37-0.6,2.23-0.6c2.07,0,2.58,1.42,2.58,2.77
		v2.54c0,0.59,0.03,1.16,0.11,1.63H829.47z M829.29,35.2c-1.34-0.03-2.87,0.21-2.87,1.53c0,0.8,0.53,1.18,1.16,1.18
		c0.88,0,1.44-0.56,1.64-1.13c0.04-0.13,0.07-0.27,0.07-0.39V35.2z"/>
	<path d="M832.3,37.4c0.37,0.24,1.01,0.49,1.63,0.49c0.9,0,1.32-0.45,1.32-1.01c0-0.59-0.35-0.91-1.26-1.25
		c-1.22-0.43-1.79-1.11-1.79-1.92c0-1.09,0.88-1.99,2.34-1.99c0.69,0,1.29,0.2,1.67,0.42l-0.31,0.9c-0.27-0.17-0.76-0.39-1.39-0.39
		c-0.73,0-1.13,0.42-1.13,0.92c0,0.56,0.41,0.81,1.29,1.15c1.18,0.45,1.78,1.04,1.78,2.05c0,1.19-0.92,2.03-2.54,2.03
		c-0.74,0-1.43-0.18-1.91-0.46L832.3,37.4z"/>
	<path d="M841.77,38.66l-0.1-0.85h-0.04c-0.38,0.53-1.11,1.01-2.07,1.01c-1.37,0-2.07-0.97-2.07-1.95c0-1.64,1.46-2.54,4.08-2.52
		V34.2c0-0.56-0.15-1.57-1.54-1.57c-0.63,0-1.29,0.2-1.76,0.5l-0.28-0.81c0.56-0.36,1.37-0.6,2.23-0.6c2.07,0,2.58,1.42,2.58,2.77
		v2.54c0,0.59,0.03,1.16,0.11,1.63H841.77z M841.58,35.2c-1.35-0.03-2.87,0.21-2.87,1.53c0,0.8,0.53,1.18,1.16,1.18
		c0.88,0,1.44-0.56,1.64-1.13c0.04-0.13,0.07-0.27,0.07-0.39V35.2z"/>
	<path d="M850.62,28.71v8.19c0,0.6,0.01,1.29,0.05,1.75h-1.11l-0.06-1.18h-0.03c-0.38,0.76-1.21,1.33-2.31,1.33
		c-1.64,0-2.9-1.39-2.9-3.45c-0.01-2.25,1.39-3.64,3.04-3.64c1.04,0,1.74,0.49,2.04,1.04h0.03v-4.05H850.62z M849.38,34.64
		c0-0.15-0.01-0.36-0.06-0.52c-0.18-0.79-0.86-1.43-1.78-1.43c-1.28,0-2.03,1.12-2.03,2.62c0,1.37,0.67,2.51,2,2.51
		c0.83,0,1.58-0.55,1.81-1.47c0.04-0.17,0.06-0.34,0.06-0.53V34.64z"/>
	<path d="M858.79,35.21c0,2.51-1.74,3.6-3.38,3.6c-1.83,0-3.25-1.34-3.25-3.49c0-2.27,1.49-3.6,3.36-3.6
		C857.47,31.72,858.79,33.14,858.79,35.21z M853.41,35.28c0,1.49,0.85,2.61,2.06,2.61c1.18,0,2.06-1.11,2.06-2.63
		c0-1.15-0.57-2.6-2.03-2.6C854.04,32.65,853.41,33.99,853.41,35.28z"/>
	<path d="M860.17,37.4c0.36,0.24,1.01,0.49,1.63,0.49c0.9,0,1.32-0.45,1.32-1.01c0-0.59-0.35-0.91-1.26-1.25
		c-1.22-0.43-1.79-1.11-1.79-1.92c0-1.09,0.88-1.99,2.34-1.99c0.69,0,1.29,0.2,1.67,0.42l-0.31,0.9c-0.27-0.17-0.76-0.39-1.39-0.39
		c-0.73,0-1.13,0.42-1.13,0.92c0,0.56,0.41,0.81,1.29,1.15c1.18,0.45,1.78,1.04,1.78,2.05c0,1.19-0.92,2.03-2.54,2.03
		c-0.74,0-1.43-0.18-1.9-0.46L860.17,37.4z"/>
	<path d="M869.54,35.49c0.03,1.67,1.09,2.35,2.33,2.35c0.88,0,1.41-0.15,1.88-0.35l0.21,0.88c-0.43,0.2-1.18,0.42-2.25,0.42
		c-2.09,0-3.33-1.37-3.33-3.42c0-2.05,1.2-3.66,3.18-3.66c2.21,0,2.8,1.95,2.8,3.19c0,0.25-0.03,0.45-0.04,0.57H869.54z
		 M873.15,34.61c0.01-0.79-0.32-2-1.71-2c-1.25,0-1.79,1.15-1.89,2H873.15z"/>
	<path d="M875.87,33.71c0-0.7-0.01-1.28-0.06-1.83h1.09l0.07,1.12H877c0.34-0.64,1.12-1.27,2.24-1.27c0.94,0,2.4,0.56,2.4,2.89v4.05
		h-1.23v-3.91c0-1.09-0.41-2-1.57-2c-0.81,0-1.44,0.57-1.65,1.26c-0.06,0.15-0.08,0.36-0.08,0.57v4.08h-1.23V33.71z"/>
	<path d="M886.6,28.71h1.23v9.95h-1.23V28.71z"/>
	<path d="M893.66,38.66l-0.1-0.85h-0.04c-0.38,0.53-1.11,1.01-2.07,1.01c-1.37,0-2.07-0.97-2.07-1.95c0-1.64,1.46-2.54,4.08-2.52
		V34.2c0-0.56-0.15-1.57-1.54-1.57c-0.63,0-1.29,0.2-1.77,0.5l-0.28-0.81c0.56-0.36,1.37-0.6,2.23-0.6c2.07,0,2.58,1.42,2.58,2.77
		v2.54c0,0.59,0.03,1.16,0.11,1.63H893.66z M893.48,35.2c-1.35-0.03-2.87,0.21-2.87,1.53c0,0.8,0.53,1.18,1.16,1.18
		c0.88,0,1.44-0.56,1.64-1.13c0.04-0.13,0.07-0.27,0.07-0.39V35.2z"/>
	<path d="M774.27,52.29c0.03,1.67,1.09,2.35,2.33,2.35c0.88,0,1.41-0.15,1.88-0.35l0.21,0.88c-0.43,0.2-1.18,0.42-2.25,0.42
		c-2.09,0-3.33-1.37-3.33-3.42c0-2.05,1.21-3.66,3.18-3.66c2.21,0,2.8,1.95,2.8,3.19c0,0.25-0.03,0.45-0.04,0.57H774.27z
		 M777.88,51.41c0.01-0.79-0.32-2-1.71-2c-1.25,0-1.79,1.15-1.89,2H777.88z"/>
	<path d="M786.45,45.51v8.19c0,0.6,0.01,1.29,0.06,1.75h-1.11l-0.06-1.18h-0.03c-0.38,0.76-1.21,1.33-2.31,1.33
		c-1.64,0-2.9-1.39-2.9-3.45c-0.01-2.25,1.39-3.64,3.04-3.64c1.04,0,1.74,0.49,2.05,1.04h0.03v-4.05H786.45z M785.22,51.44
		c0-0.15-0.01-0.36-0.06-0.52c-0.18-0.79-0.85-1.43-1.78-1.43c-1.27,0-2.03,1.12-2.03,2.62c0,1.37,0.67,2.51,2,2.51
		c0.83,0,1.58-0.55,1.81-1.47c0.04-0.17,0.06-0.34,0.06-0.53V51.44z"/>
	<path d="M792.25,55.46l-0.1-0.85h-0.04c-0.38,0.53-1.11,1.01-2.07,1.01c-1.37,0-2.07-0.97-2.07-1.95c0-1.64,1.46-2.54,4.08-2.52V51
		c0-0.56-0.15-1.57-1.54-1.57c-0.63,0-1.29,0.2-1.76,0.5l-0.28-0.81c0.56-0.36,1.37-0.6,2.23-0.6c2.07,0,2.58,1.42,2.58,2.77v2.54
		c0,0.59,0.03,1.16,0.11,1.63H792.25z M792.07,52c-1.35-0.03-2.87,0.21-2.87,1.53c0,0.8,0.53,1.18,1.16,1.18
		c0.88,0,1.44-0.56,1.64-1.13c0.04-0.13,0.07-0.27,0.07-0.39V52z"/>
	<path d="M801.1,45.51v8.19c0,0.6,0.01,1.29,0.05,1.75h-1.11l-0.06-1.18h-0.03c-0.38,0.76-1.21,1.33-2.31,1.33
		c-1.64,0-2.9-1.39-2.9-3.45c-0.01-2.25,1.39-3.64,3.04-3.64c1.04,0,1.74,0.49,2.04,1.04h0.03v-4.05H801.1z M799.86,51.44
		c0-0.15-0.01-0.36-0.06-0.52c-0.18-0.79-0.86-1.43-1.78-1.43c-1.28,0-2.03,1.12-2.03,2.62c0,1.37,0.67,2.51,2,2.51
		c0.83,0,1.58-0.55,1.81-1.47c0.04-0.17,0.06-0.34,0.06-0.53V51.44z"/>
	<path d="M808.78,45.74c-1.02,1.37-1.77,3.19-1.77,5.73c0,2.49,0.77,4.29,1.77,5.69h-0.97c-0.88-1.16-1.83-2.96-1.83-5.69
		c0.01-2.76,0.95-4.55,1.83-5.73H808.78z"/>
	<path d="M816.22,52.01c0,2.51-1.74,3.6-3.38,3.6c-1.84,0-3.25-1.34-3.25-3.49c0-2.27,1.48-3.6,3.36-3.6
		C814.9,48.52,816.22,49.94,816.22,52.01z M810.84,52.08c0,1.49,0.85,2.61,2.06,2.61c1.18,0,2.06-1.11,2.06-2.63
		c0-1.15-0.57-2.6-2.03-2.6C811.47,49.45,810.84,50.79,810.84,52.08z"/>
	<path d="M822.11,46.77c0.01,0.42-0.29,0.76-0.78,0.76c-0.43,0-0.74-0.34-0.74-0.76c0-0.43,0.32-0.77,0.77-0.77
		C821.81,46,822.11,46.34,822.11,46.77z M820.74,55.46v-6.78h1.23v6.78H820.74z"/>
	<path d="M824.01,50.51c0-0.7-0.01-1.28-0.06-1.83h1.09l0.07,1.12h0.03c0.34-0.64,1.12-1.27,2.24-1.27c0.94,0,2.4,0.56,2.4,2.89
		v4.05h-1.23v-3.91c0-1.09-0.41-2-1.57-2c-0.81,0-1.44,0.57-1.65,1.26c-0.06,0.15-0.08,0.36-0.08,0.57v4.08h-1.23V50.51z"/>
	<path d="M833.21,46.73v1.95h1.76v0.94h-1.76v3.66c0,0.84,0.24,1.32,0.92,1.32c0.32,0,0.56-0.04,0.71-0.08l0.05,0.92
		c-0.24,0.1-0.62,0.17-1.09,0.17c-0.57,0-1.04-0.18-1.33-0.52c-0.35-0.36-0.48-0.97-0.48-1.77v-3.7h-1.05v-0.94h1.05v-1.63
		L833.21,46.73z"/>
	<path d="M836.96,52.29c0.03,1.67,1.09,2.35,2.33,2.35c0.88,0,1.41-0.15,1.88-0.35l0.21,0.88c-0.43,0.2-1.18,0.42-2.25,0.42
		c-2.09,0-3.33-1.37-3.33-3.42c0-2.05,1.2-3.66,3.18-3.66c2.21,0,2.8,1.95,2.8,3.19c0,0.25-0.03,0.45-0.04,0.57H836.96z
		 M840.58,51.41c0.01-0.79-0.32-2-1.71-2c-1.25,0-1.79,1.15-1.89,2H840.58z"/>
	<path d="M849.13,48.68c-0.03,0.49-0.06,1.04-0.06,1.86v3.94c0,1.55-0.31,2.51-0.97,3.1c-0.66,0.62-1.61,0.81-2.46,0.81
		c-0.81,0-1.71-0.2-2.26-0.56l0.31-0.94c0.45,0.28,1.15,0.53,1.99,0.53c1.26,0,2.19-0.66,2.19-2.37v-0.76h-0.03
		c-0.38,0.63-1.11,1.13-2.16,1.13c-1.68,0-2.88-1.43-2.88-3.31c0-2.3,1.5-3.6,3.05-3.6c1.18,0,1.82,0.62,2.12,1.18H848l0.06-1.02
		H849.13z M847.86,51.35c0-0.21-0.01-0.39-0.07-0.56c-0.22-0.71-0.83-1.3-1.72-1.3c-1.18,0-2.02,0.99-2.02,2.56
		c0,1.33,0.67,2.44,2,2.44c0.76,0,1.44-0.48,1.71-1.26c0.07-0.21,0.1-0.45,0.1-0.66V51.35z"/>
	<path d="M851.03,50.79c0-0.8-0.01-1.49-0.06-2.12h1.08l0.04,1.33h0.06c0.31-0.91,1.05-1.48,1.88-1.48c0.14,0,0.24,0.01,0.35,0.04
		v1.16c-0.13-0.03-0.25-0.04-0.42-0.04c-0.87,0-1.49,0.66-1.65,1.58c-0.03,0.17-0.06,0.36-0.06,0.57v3.61h-1.22V50.79z"/>
	<path d="M859.29,55.46l-0.1-0.85h-0.04c-0.38,0.53-1.11,1.01-2.07,1.01c-1.37,0-2.07-0.97-2.07-1.95c0-1.64,1.46-2.54,4.08-2.52V51
		c0-0.56-0.15-1.57-1.54-1.57c-0.63,0-1.29,0.2-1.76,0.5l-0.28-0.81c0.56-0.36,1.37-0.6,2.23-0.6c2.07,0,2.58,1.42,2.58,2.77v2.54
		c0,0.59,0.03,1.16,0.11,1.63H859.29z M859.11,52c-1.35-0.03-2.87,0.21-2.87,1.53c0,0.8,0.53,1.18,1.16,1.18
		c0.88,0,1.44-0.56,1.64-1.13c0.04-0.13,0.07-0.27,0.07-0.39V52z"/>
	<path d="M868.14,45.51v8.19c0,0.6,0.01,1.29,0.05,1.75h-1.11l-0.06-1.18h-0.03c-0.38,0.76-1.21,1.33-2.31,1.33
		c-1.64,0-2.9-1.39-2.9-3.45c-0.01-2.25,1.39-3.64,3.04-3.64c1.04,0,1.74,0.49,2.04,1.04h0.03v-4.05H868.14z M866.91,51.44
		c0-0.15-0.01-0.36-0.06-0.52c-0.18-0.79-0.86-1.43-1.78-1.43c-1.28,0-2.03,1.12-2.03,2.62c0,1.37,0.67,2.51,2,2.51
		c0.83,0,1.58-0.55,1.81-1.47c0.04-0.17,0.06-0.34,0.06-0.53V51.44z"/>
	<path d="M876.32,52.01c0,2.51-1.74,3.6-3.38,3.6c-1.83,0-3.25-1.34-3.25-3.49c0-2.27,1.49-3.6,3.36-3.6
		C875,48.52,876.32,49.94,876.32,52.01z M870.94,52.08c0,1.49,0.85,2.61,2.06,2.61c1.18,0,2.06-1.11,2.06-2.63
		c0-1.15-0.57-2.6-2.03-2.6C871.57,49.45,870.94,50.79,870.94,52.08z"/>
	<path d="M877.7,54.2c0.36,0.24,1.01,0.49,1.63,0.49c0.9,0,1.32-0.45,1.32-1.01c0-0.59-0.35-0.91-1.26-1.25
		c-1.22-0.43-1.79-1.11-1.79-1.92c0-1.09,0.88-1.99,2.34-1.99c0.69,0,1.29,0.2,1.67,0.42l-0.31,0.9c-0.27-0.17-0.76-0.39-1.39-0.39
		c-0.73,0-1.13,0.42-1.13,0.92c0,0.56,0.41,0.81,1.29,1.15c1.18,0.45,1.78,1.04,1.78,2.05c0,1.19-0.92,2.03-2.54,2.03
		c-0.74,0-1.43-0.18-1.9-0.46L877.7,54.2z"/>
	<path d="M882.67,57.15c1-1.39,1.77-3.21,1.77-5.73c0-2.51-0.76-4.3-1.77-5.69h0.95c0.9,1.15,1.83,2.94,1.83,5.7
		c0,2.75-0.94,4.52-1.83,5.72H882.67z"/>
</g>
<linearGradient id="SVGID_5_" gradientUnits="userSpaceOnUse" x1="926.3257" y1="42" x2="1163.6742" y2="42">
	<stop  offset="0" style="stop-color:#8FCCD5"/>
	<stop  offset="0.5" style="stop-color:#5BBAC7"/>
	<stop  offset="1" style="stop-color:#00AAB9"/>
</linearGradient>
<polygon class="st4" points="1130.89,8.5 934.47,8.5 966.26,42 934.47,75.5 1130.89,75.5 1159.1,42 "/>
<g>
	<path d="M998.82,25.51c-0.07-1.32-0.15-2.9-0.14-4.08h-0.04c-0.32,1.11-0.71,2.28-1.19,3.59l-1.67,4.58h-0.92l-1.53-4.5
		c-0.45-1.33-0.83-2.55-1.09-3.67h-0.03c-0.03,1.18-0.1,2.76-0.18,4.17l-0.25,4.05h-1.16l0.66-9.44h1.56l1.61,4.57
		c0.39,1.16,0.71,2.2,0.95,3.18h0.04c0.24-0.95,0.58-1.99,1-3.18l1.68-4.57h1.55l0.59,9.44h-1.19L998.82,25.51z"/>
	<path d="M1008.3,26.21c0,2.51-1.74,3.6-3.38,3.6c-1.83,0-3.25-1.34-3.25-3.49c0-2.27,1.48-3.6,3.36-3.6
		C1006.98,22.72,1008.3,24.14,1008.3,26.21z M1002.92,26.28c0,1.49,0.86,2.61,2.06,2.61c1.18,0,2.06-1.11,2.06-2.63
		c0-1.15-0.57-2.6-2.03-2.6S1002.92,24.99,1002.92,26.28z"/>
	<path d="M1015.71,19.71v8.19c0,0.6,0.01,1.29,0.06,1.75h-1.11l-0.06-1.18h-0.03c-0.38,0.76-1.2,1.33-2.31,1.33
		c-1.64,0-2.9-1.39-2.9-3.45c-0.01-2.25,1.39-3.64,3.04-3.64c1.04,0,1.74,0.49,2.05,1.04h0.03v-4.05H1015.71z M1014.47,25.64
		c0-0.15-0.01-0.36-0.06-0.52c-0.18-0.79-0.85-1.43-1.78-1.43c-1.27,0-2.03,1.12-2.03,2.62c0,1.37,0.67,2.51,2,2.51
		c0.83,0,1.58-0.55,1.81-1.47c0.04-0.17,0.06-0.34,0.06-0.53V25.64z"/>
	<path d="M1018.43,26.49c0.03,1.67,1.09,2.35,2.33,2.35c0.88,0,1.41-0.15,1.88-0.35l0.21,0.88c-0.43,0.2-1.18,0.42-2.25,0.42
		c-2.09,0-3.33-1.37-3.33-3.42c0-2.05,1.21-3.66,3.18-3.66c2.21,0,2.8,1.95,2.8,3.19c0,0.25-0.03,0.45-0.04,0.57H1018.43z
		 M1022.05,25.61c0.01-0.79-0.32-2-1.71-2c-1.25,0-1.79,1.15-1.89,2H1022.05z"/>
	<path d="M1024.76,19.71h1.23v9.95h-1.23V19.71z"/>
	<path d="M1034.2,26.21c0,2.51-1.74,3.6-3.38,3.6c-1.83,0-3.25-1.34-3.25-3.49c0-2.27,1.49-3.6,3.36-3.6
		C1032.88,22.72,1034.2,24.14,1034.2,26.21z M1028.82,26.28c0,1.49,0.85,2.61,2.06,2.61c1.18,0,2.06-1.11,2.06-2.63
		c0-1.15-0.57-2.6-2.03-2.6C1029.45,23.65,1028.82,24.99,1028.82,26.28z"/>
	<path d="M1035.58,28.4c0.36,0.24,1.01,0.49,1.63,0.49c0.9,0,1.32-0.45,1.32-1.01c0-0.59-0.35-0.91-1.26-1.25
		c-1.22-0.43-1.79-1.11-1.79-1.92c0-1.09,0.88-1.99,2.34-1.99c0.69,0,1.29,0.2,1.67,0.42l-0.31,0.9c-0.27-0.17-0.76-0.39-1.39-0.39
		c-0.73,0-1.13,0.42-1.13,0.92c0,0.56,0.41,0.81,1.29,1.15c1.18,0.45,1.78,1.04,1.78,2.05c0,1.19-0.92,2.03-2.54,2.03
		c-0.74,0-1.43-0.18-1.9-0.46L1035.58,28.4z"/>
	<path d="M1044.21,29.66c0.03-0.46,0.06-1.15,0.06-1.75v-8.19h1.22v4.26h0.03c0.43-0.76,1.22-1.25,2.31-1.25
		c1.68,0,2.87,1.4,2.86,3.46c0,2.42-1.53,3.63-3.04,3.63c-0.98,0-1.76-0.38-2.27-1.27h-0.04l-0.06,1.12H1044.21z M1045.48,26.94
		c0,0.15,0.03,0.31,0.06,0.45c0.24,0.85,0.95,1.44,1.85,1.44c1.29,0,2.06-1.05,2.06-2.61c0-1.36-0.7-2.52-2.02-2.52
		c-0.84,0-1.63,0.57-1.88,1.51c-0.03,0.14-0.07,0.31-0.07,0.5V26.94z"/>
	<path d="M1055.98,29.66l-0.1-0.85h-0.04c-0.38,0.53-1.11,1.01-2.07,1.01c-1.37,0-2.07-0.97-2.07-1.95c0-1.64,1.46-2.54,4.08-2.52
		V25.2c0-0.56-0.15-1.57-1.54-1.57c-0.63,0-1.29,0.2-1.77,0.5l-0.28-0.81c0.56-0.36,1.37-0.6,2.23-0.6c2.07,0,2.58,1.42,2.58,2.77
		v2.54c0,0.59,0.03,1.16,0.11,1.63H1055.98z M1055.8,26.2c-1.34-0.03-2.87,0.21-2.87,1.53c0,0.8,0.53,1.18,1.16,1.18
		c0.88,0,1.44-0.56,1.64-1.13c0.04-0.13,0.07-0.27,0.07-0.39V26.2z"/>
	<path d="M1058.81,28.4c0.37,0.24,1.01,0.49,1.63,0.49c0.9,0,1.32-0.45,1.32-1.01c0-0.59-0.35-0.91-1.26-1.25
		c-1.22-0.43-1.79-1.11-1.79-1.92c0-1.09,0.88-1.99,2.34-1.99c0.69,0,1.29,0.2,1.67,0.42l-0.31,0.9c-0.27-0.17-0.76-0.39-1.39-0.39
		c-0.73,0-1.13,0.42-1.13,0.92c0,0.56,0.41,0.81,1.29,1.15c1.18,0.45,1.78,1.04,1.78,2.05c0,1.19-0.92,2.03-2.54,2.03
		c-0.74,0-1.43-0.18-1.91-0.46L1058.81,28.4z"/>
	<path d="M1068.28,29.66l-0.1-0.85h-0.04c-0.38,0.53-1.11,1.01-2.07,1.01c-1.37,0-2.07-0.97-2.07-1.95c0-1.64,1.46-2.54,4.08-2.52
		V25.2c0-0.56-0.15-1.57-1.54-1.57c-0.63,0-1.29,0.2-1.76,0.5l-0.28-0.81c0.56-0.36,1.37-0.6,2.23-0.6c2.07,0,2.58,1.42,2.58,2.77
		v2.54c0,0.59,0.03,1.16,0.11,1.63H1068.28z M1068.09,26.2c-1.35-0.03-2.87,0.21-2.87,1.53c0,0.8,0.53,1.18,1.16,1.18
		c0.88,0,1.44-0.56,1.64-1.13c0.04-0.13,0.07-0.27,0.07-0.39V26.2z"/>
	<path d="M1077.13,19.71v8.19c0,0.6,0.01,1.29,0.05,1.75h-1.11l-0.06-1.18h-0.03c-0.38,0.76-1.21,1.33-2.31,1.33
		c-1.64,0-2.9-1.39-2.9-3.45c-0.01-2.25,1.39-3.64,3.04-3.64c1.04,0,1.74,0.49,2.04,1.04h0.03v-4.05H1077.13z M1075.89,25.64
		c0-0.15-0.01-0.36-0.06-0.52c-0.18-0.79-0.86-1.43-1.78-1.43c-1.28,0-2.03,1.12-2.03,2.62c0,1.37,0.67,2.51,2,2.51
		c0.83,0,1.58-0.55,1.81-1.47c0.04-0.17,0.06-0.34,0.06-0.53V25.64z"/>
	<path d="M1085.3,26.21c0,2.51-1.74,3.6-3.38,3.6c-1.83,0-3.25-1.34-3.25-3.49c0-2.27,1.49-3.6,3.36-3.6
		C1083.98,22.72,1085.3,24.14,1085.3,26.21z M1079.92,26.28c0,1.49,0.85,2.61,2.06,2.61c1.18,0,2.06-1.11,2.06-2.63
		c0-1.15-0.57-2.6-2.03-2.6C1080.55,23.65,1079.92,24.99,1079.92,26.28z"/>
	<path d="M1086.68,28.4c0.36,0.24,1.01,0.49,1.63,0.49c0.9,0,1.32-0.45,1.32-1.01c0-0.59-0.35-0.91-1.26-1.25
		c-1.22-0.43-1.79-1.11-1.79-1.92c0-1.09,0.88-1.99,2.34-1.99c0.69,0,1.29,0.2,1.67,0.42l-0.31,0.9c-0.27-0.17-0.76-0.39-1.39-0.39
		c-0.73,0-1.13,0.42-1.13,0.92c0,0.56,0.41,0.81,1.29,1.15c1.18,0.45,1.78,1.04,1.78,2.05c0,1.19-0.92,2.03-2.54,2.03
		c-0.74,0-1.43-0.18-1.9-0.46L1086.68,28.4z"/>
	<path d="M1096.05,26.49c0.03,1.67,1.09,2.35,2.33,2.35c0.88,0,1.41-0.15,1.88-0.35l0.21,0.88c-0.43,0.2-1.18,0.42-2.25,0.42
		c-2.09,0-3.33-1.37-3.33-3.42c0-2.05,1.2-3.66,3.18-3.66c2.21,0,2.8,1.95,2.8,3.19c0,0.25-0.03,0.45-0.04,0.57H1096.05z
		 M1099.66,25.61c0.01-0.79-0.32-2-1.71-2c-1.25,0-1.79,1.15-1.89,2H1099.66z"/>
	<path d="M1102.38,24.71c0-0.7-0.01-1.28-0.06-1.83h1.09l0.07,1.12h0.03c0.34-0.64,1.12-1.27,2.24-1.27c0.94,0,2.4,0.56,2.4,2.89
		v4.05h-1.23v-3.91c0-1.09-0.41-2-1.57-2c-0.81,0-1.44,0.57-1.65,1.26c-0.06,0.15-0.08,0.36-0.08,0.57v4.08h-1.23V24.71z"/>
	<path d="M997.12,36.51h1.23v9.95h-1.23V36.51z"/>
	<path d="M1006.56,43.01c0,2.51-1.74,3.6-3.38,3.6c-1.83,0-3.25-1.34-3.25-3.49c0-2.27,1.49-3.6,3.36-3.6
		C1005.24,39.52,1006.56,40.94,1006.56,43.01z M1001.18,43.08c0,1.49,0.85,2.61,2.06,2.61c1.18,0,2.06-1.11,2.06-2.63
		c0-1.15-0.57-2.6-2.03-2.6C1001.81,40.45,1001.18,41.79,1001.18,43.08z"/>
	<path d="M1008.11,41.51c0-0.7-0.01-1.28-0.06-1.83h1.09l0.07,1.12h0.03c0.34-0.64,1.12-1.27,2.24-1.27c0.94,0,2.4,0.56,2.4,2.89
		v4.05h-1.23v-3.91c0-1.09-0.41-2-1.57-2c-0.81,0-1.44,0.57-1.65,1.26c-0.06,0.15-0.08,0.36-0.08,0.57v4.08h-1.23V41.51z"/>
	<path d="M1021.72,39.68c-0.03,0.49-0.06,1.04-0.06,1.86v3.94c0,1.55-0.31,2.51-0.97,3.1c-0.66,0.62-1.61,0.81-2.46,0.81
		c-0.81,0-1.71-0.2-2.26-0.56l0.31-0.94c0.45,0.28,1.15,0.53,1.99,0.53c1.26,0,2.18-0.66,2.18-2.37v-0.76h-0.03
		c-0.38,0.63-1.11,1.13-2.16,1.13c-1.68,0-2.89-1.43-2.89-3.31c0-2.3,1.5-3.6,3.05-3.6c1.18,0,1.82,0.62,2.12,1.18h0.03l0.06-1.02
		H1021.72z M1020.45,42.35c0-0.21-0.01-0.39-0.07-0.56c-0.22-0.71-0.83-1.3-1.72-1.3c-1.18,0-2.02,0.99-2.02,2.56
		c0,1.33,0.67,2.44,2,2.44c0.76,0,1.44-0.48,1.71-1.26c0.07-0.21,0.1-0.45,0.1-0.66V42.35z"/>
	<path d="M1024.99,37.77c0.01,0.42-0.29,0.76-0.79,0.76c-0.43,0-0.74-0.34-0.74-0.76c0-0.43,0.32-0.77,0.77-0.77
		C1024.7,37,1024.99,37.34,1024.99,37.77z M1023.62,46.46v-6.78h1.23v6.78H1023.62z"/>
	<path d="M1028.38,37.73v1.95h1.77v0.94h-1.77v3.66c0,0.84,0.24,1.32,0.92,1.32c0.32,0,0.56-0.04,0.71-0.08l0.06,0.92
		c-0.24,0.1-0.62,0.17-1.09,0.17c-0.58,0-1.04-0.18-1.33-0.52c-0.35-0.36-0.48-0.97-0.48-1.77v-3.7h-1.05v-0.94h1.05v-1.63
		L1028.38,37.73z"/>
	<path d="M1037.2,44.61c0,0.7,0.01,1.32,0.06,1.85h-1.09l-0.07-1.11h-0.03c-0.32,0.55-1.04,1.26-2.24,1.26
		c-1.06,0-2.34-0.59-2.34-2.97v-3.96h1.23v3.75c0,1.29,0.39,2.16,1.51,2.16c0.83,0,1.4-0.57,1.63-1.12
		c0.07-0.18,0.11-0.41,0.11-0.63v-4.16h1.23V44.61z"/>
	<path d="M1045.1,36.51v8.19c0,0.6,0.01,1.29,0.06,1.75h-1.11l-0.06-1.18h-0.03c-0.38,0.76-1.21,1.33-2.31,1.33
		c-1.64,0-2.9-1.39-2.9-3.45c-0.01-2.25,1.39-3.64,3.04-3.64c1.04,0,1.74,0.49,2.05,1.04h0.03v-4.05H1045.1z M1043.87,42.44
		c0-0.15-0.01-0.36-0.06-0.52c-0.18-0.79-0.85-1.43-1.78-1.43c-1.27,0-2.03,1.12-2.03,2.62c0,1.37,0.67,2.51,2,2.51
		c0.83,0,1.58-0.55,1.81-1.47c0.04-0.17,0.06-0.34,0.06-0.53V42.44z"/>
	<path d="M1050.56,39.68l1.48,4.01c0.15,0.45,0.32,0.98,0.43,1.39h0.03c0.13-0.41,0.27-0.92,0.43-1.42l1.34-3.98h1.3l-1.85,4.83
		c-0.88,2.33-1.49,3.52-2.33,4.24c-0.6,0.53-1.2,0.74-1.51,0.8l-0.31-1.04c0.31-0.1,0.71-0.29,1.08-0.6
		c0.34-0.27,0.76-0.74,1.04-1.37c0.06-0.13,0.1-0.22,0.1-0.29s-0.03-0.17-0.08-0.32l-2.51-6.25H1050.56z"/>
	<path d="M1060.36,43.29c0.03,1.67,1.09,2.35,2.33,2.35c0.88,0,1.41-0.15,1.88-0.35l0.21,0.88c-0.43,0.2-1.18,0.42-2.25,0.42
		c-2.09,0-3.33-1.37-3.33-3.42c0-2.05,1.2-3.66,3.18-3.66c2.21,0,2.8,1.95,2.8,3.19c0,0.25-0.03,0.45-0.04,0.57H1060.36z
		 M1063.97,42.41c0.01-0.79-0.32-2-1.71-2c-1.25,0-1.79,1.15-1.89,2H1063.97z"/>
	<path d="M1072.54,36.51v8.19c0,0.6,0.01,1.29,0.05,1.75h-1.11l-0.06-1.18h-0.03c-0.38,0.76-1.21,1.33-2.31,1.33
		c-1.64,0-2.9-1.39-2.9-3.45c-0.01-2.25,1.39-3.64,3.04-3.64c1.04,0,1.74,0.49,2.04,1.04h0.03v-4.05H1072.54z M1071.31,42.44
		c0-0.15-0.01-0.36-0.06-0.52c-0.18-0.79-0.86-1.43-1.78-1.43c-1.28,0-2.03,1.12-2.03,2.62c0,1.37,0.67,2.51,2,2.51
		c0.83,0,1.58-0.55,1.81-1.47c0.04-0.17,0.06-0.34,0.06-0.53V42.44z"/>
	<path d="M1078.33,46.46l-0.1-0.85h-0.04c-0.38,0.53-1.11,1.01-2.07,1.01c-1.37,0-2.07-0.97-2.07-1.95c0-1.64,1.46-2.54,4.08-2.52
		V42c0-0.56-0.15-1.57-1.54-1.57c-0.63,0-1.29,0.2-1.76,0.5l-0.28-0.81c0.56-0.36,1.37-0.6,2.23-0.6c2.07,0,2.58,1.42,2.58,2.77
		v2.54c0,0.59,0.03,1.16,0.11,1.63H1078.33z M1078.15,43c-1.34-0.03-2.87,0.21-2.87,1.53c0,0.8,0.53,1.18,1.16,1.18
		c0.88,0,1.44-0.56,1.64-1.13c0.04-0.13,0.07-0.27,0.07-0.39V43z"/>
	<path d="M1087.18,36.51v8.19c0,0.6,0.01,1.29,0.06,1.75h-1.11l-0.06-1.18h-0.03c-0.38,0.76-1.2,1.33-2.31,1.33
		c-1.64,0-2.9-1.39-2.9-3.45c-0.01-2.25,1.39-3.64,3.04-3.64c1.04,0,1.74,0.49,2.04,1.04h0.03v-4.05H1087.18z M1085.95,42.44
		c0-0.15-0.01-0.36-0.06-0.52c-0.18-0.79-0.85-1.43-1.78-1.43c-1.28,0-2.03,1.12-2.03,2.62c0,1.37,0.67,2.51,2,2.51
		c0.83,0,1.58-0.55,1.81-1.47c0.04-0.17,0.06-0.34,0.06-0.53V42.44z"/>
	<path d="M1094.87,36.74c-1.02,1.37-1.77,3.19-1.77,5.73c0,2.49,0.77,4.29,1.77,5.69h-0.97c-0.88-1.16-1.84-2.96-1.84-5.69
		c0.01-2.76,0.95-4.55,1.84-5.73H1094.87z"/>
	<path d="M1102.3,43.01c0,2.51-1.74,3.6-3.38,3.6c-1.83,0-3.25-1.34-3.25-3.49c0-2.27,1.49-3.6,3.36-3.6
		C1100.99,39.52,1102.3,40.94,1102.3,43.01z M1096.92,43.08c0,1.49,0.85,2.61,2.06,2.61c1.18,0,2.06-1.11,2.06-2.63
		c0-1.15-0.57-2.6-2.03-2.6C1097.55,40.45,1096.92,41.79,1096.92,43.08z"/>
	<path d="M984.72,54.53v1.95h1.76v0.94h-1.76v3.66c0,0.84,0.24,1.32,0.92,1.32c0.32,0,0.56-0.04,0.71-0.08l0.05,0.92
		c-0.24,0.1-0.62,0.17-1.09,0.17c-0.57,0-1.04-0.18-1.33-0.52c-0.35-0.36-0.48-0.97-0.48-1.77v-3.7h-1.05v-0.94h1.05v-1.63
		L984.72,54.53z"/>
	<path d="M993.92,59.81c0,2.51-1.74,3.6-3.38,3.6c-1.84,0-3.25-1.34-3.25-3.49c0-2.27,1.48-3.6,3.36-3.6
		C992.6,56.32,993.92,57.74,993.92,59.81z M988.54,59.88c0,1.49,0.85,2.61,2.06,2.61c1.18,0,2.06-1.11,2.06-2.63
		c0-1.15-0.57-2.6-2.03-2.6C989.17,57.25,988.54,58.59,988.54,59.88z"/>
	<path d="M996.95,54.53v1.95h1.77v0.94h-1.77v3.66c0,0.84,0.24,1.32,0.92,1.32c0.32,0,0.56-0.04,0.71-0.08l0.06,0.92
		c-0.24,0.1-0.62,0.17-1.09,0.17c-0.58,0-1.04-0.18-1.33-0.52c-0.35-0.36-0.48-0.97-0.48-1.77v-3.7h-1.05v-0.94h1.05v-1.63
		L996.95,54.53z"/>
	<path d="M1003.85,63.26l-0.1-0.85h-0.04c-0.38,0.53-1.11,1.01-2.07,1.01c-1.37,0-2.07-0.97-2.07-1.95c0-1.64,1.46-2.54,4.08-2.52
		V58.8c0-0.56-0.15-1.57-1.54-1.57c-0.63,0-1.29,0.2-1.76,0.5l-0.28-0.81c0.56-0.36,1.37-0.6,2.23-0.6c2.07,0,2.58,1.42,2.58,2.77
		v2.54c0,0.59,0.03,1.16,0.11,1.63H1003.85z M1003.67,59.8c-1.34-0.03-2.87,0.21-2.87,1.53c0,0.8,0.53,1.18,1.16,1.18
		c0.88,0,1.44-0.56,1.64-1.13c0.04-0.13,0.07-0.27,0.07-0.39V59.8z"/>
	<path d="M1006.85,53.31h1.23v9.95h-1.23V53.31z"/>
	<path d="M1010.15,58.31c0-0.7-0.01-1.28-0.06-1.83h1.08l0.06,1.09h0.04c0.38-0.64,1.01-1.25,2.13-1.25c0.92,0,1.63,0.56,1.92,1.36
		h0.03c0.21-0.38,0.48-0.67,0.76-0.88c0.41-0.31,0.85-0.48,1.5-0.48c0.9,0,2.23,0.59,2.23,2.94v3.99h-1.21v-3.84
		c0-1.3-0.48-2.09-1.47-2.09c-0.7,0-1.25,0.52-1.46,1.12c-0.06,0.17-0.1,0.39-0.1,0.62v4.19h-1.21V59.2c0-1.08-0.48-1.86-1.41-1.86
		c-0.77,0-1.33,0.62-1.53,1.23c-0.07,0.18-0.1,0.39-0.1,0.6v4.09h-1.21V58.31z"/>
	<path d="M1022.51,60.09c0.03,1.67,1.09,2.35,2.33,2.35c0.88,0,1.41-0.15,1.88-0.35l0.21,0.88c-0.43,0.2-1.18,0.42-2.25,0.42
		c-2.09,0-3.33-1.37-3.33-3.42c0-2.05,1.21-3.66,3.18-3.66c2.21,0,2.8,1.95,2.8,3.19c0,0.25-0.03,0.45-0.04,0.57H1022.51z
		 M1026.13,59.21c0.01-0.79-0.32-2-1.71-2c-1.25,0-1.79,1.15-1.89,2H1026.13z"/>
	<path d="M1028.84,58.31c0-0.7-0.01-1.28-0.06-1.83h1.09l0.07,1.12h0.03c0.34-0.64,1.12-1.27,2.24-1.27c0.94,0,2.4,0.56,2.4,2.89
		v4.05h-1.23v-3.91c0-1.09-0.41-2-1.57-2c-0.81,0-1.44,0.57-1.65,1.26c-0.06,0.15-0.08,0.36-0.08,0.57v4.08h-1.23V58.31z"/>
	<path d="M1038.04,54.53v1.95h1.76v0.94h-1.76v3.66c0,0.84,0.24,1.32,0.92,1.32c0.32,0,0.56-0.04,0.71-0.08l0.06,0.92
		c-0.24,0.1-0.62,0.17-1.09,0.17c-0.57,0-1.04-0.18-1.33-0.52c-0.35-0.36-0.48-0.97-0.48-1.77v-3.7h-1.05v-0.94h1.05v-1.63
		L1038.04,54.53z"/>
	<path d="M1041.79,60.09c0.03,1.67,1.09,2.35,2.32,2.35c0.88,0,1.42-0.15,1.88-0.35l0.21,0.88c-0.43,0.2-1.18,0.42-2.26,0.42
		c-2.09,0-3.33-1.37-3.33-3.42c0-2.05,1.21-3.66,3.18-3.66c2.21,0,2.8,1.95,2.8,3.19c0,0.25-0.03,0.45-0.04,0.57H1041.79z
		 M1045.41,59.21c0.01-0.79-0.32-2-1.71-2c-1.25,0-1.79,1.15-1.89,2H1045.41z"/>
	<path d="M1052.46,54.57c0.01,0.42-0.29,0.76-0.79,0.76c-0.43,0-0.74-0.34-0.74-0.76c0-0.43,0.32-0.77,0.77-0.77
		C1052.17,53.8,1052.46,54.14,1052.46,54.57z M1051.09,63.26v-6.78h1.23v6.78H1051.09z"/>
	<path d="M1054.36,58.31c0-0.7-0.01-1.28-0.06-1.83h1.09l0.07,1.12h0.03c0.34-0.64,1.12-1.27,2.24-1.27c0.94,0,2.4,0.56,2.4,2.89
		v4.05h-1.23v-3.91c0-1.09-0.41-2-1.57-2c-0.81,0-1.44,0.57-1.65,1.26c-0.06,0.15-0.08,0.36-0.08,0.57v4.08h-1.23V58.31z"/>
	<path d="M1063.56,54.53v1.95h1.76v0.94h-1.76v3.66c0,0.84,0.24,1.32,0.92,1.32c0.32,0,0.56-0.04,0.71-0.08l0.06,0.92
		c-0.24,0.1-0.62,0.17-1.09,0.17c-0.57,0-1.04-0.18-1.33-0.52c-0.35-0.36-0.48-0.97-0.48-1.77v-3.7h-1.05v-0.94h1.05v-1.63
		L1063.56,54.53z"/>
	<path d="M1067.31,60.09c0.03,1.67,1.09,2.35,2.33,2.35c0.88,0,1.41-0.15,1.88-0.35l0.21,0.88c-0.43,0.2-1.18,0.42-2.25,0.42
		c-2.09,0-3.33-1.37-3.33-3.42c0-2.05,1.21-3.66,3.18-3.66c2.21,0,2.8,1.95,2.8,3.19c0,0.25-0.03,0.45-0.04,0.57H1067.31z
		 M1070.93,59.21c0.01-0.79-0.32-2-1.71-2c-1.25,0-1.79,1.15-1.89,2H1070.93z"/>
	<path d="M1079.48,56.48c-0.03,0.49-0.06,1.04-0.06,1.86v3.94c0,1.55-0.31,2.51-0.97,3.1c-0.66,0.62-1.61,0.81-2.46,0.81
		c-0.81,0-1.71-0.2-2.26-0.56l0.31-0.94c0.45,0.28,1.15,0.53,1.99,0.53c1.26,0,2.18-0.66,2.18-2.37v-0.76h-0.03
		c-0.38,0.63-1.11,1.13-2.16,1.13c-1.68,0-2.89-1.43-2.89-3.31c0-2.3,1.5-3.6,3.05-3.6c1.18,0,1.82,0.62,2.12,1.18h0.03l0.06-1.02
		H1079.48z M1078.21,59.15c0-0.21-0.01-0.39-0.07-0.56c-0.22-0.71-0.83-1.3-1.72-1.3c-1.18,0-2.02,0.99-2.02,2.56
		c0,1.33,0.67,2.44,2,2.44c0.76,0,1.44-0.48,1.71-1.26c0.07-0.21,0.1-0.45,0.1-0.66V59.15z"/>
	<path d="M1081.38,58.59c0-0.8-0.01-1.49-0.06-2.12h1.08l0.04,1.33h0.06c0.31-0.91,1.05-1.48,1.88-1.48c0.14,0,0.24,0.01,0.35,0.04
		v1.16c-0.13-0.03-0.25-0.04-0.42-0.04c-0.87,0-1.49,0.66-1.65,1.58c-0.03,0.17-0.06,0.36-0.06,0.57v3.61h-1.22V58.59z"/>
	<path d="M1089.64,63.26l-0.1-0.85h-0.04c-0.38,0.53-1.11,1.01-2.07,1.01c-1.37,0-2.07-0.97-2.07-1.95c0-1.64,1.46-2.54,4.08-2.52
		V58.8c0-0.56-0.15-1.57-1.54-1.57c-0.63,0-1.29,0.2-1.77,0.5l-0.28-0.81c0.56-0.36,1.37-0.6,2.23-0.6c2.07,0,2.58,1.42,2.58,2.77
		v2.54c0,0.59,0.03,1.16,0.11,1.63H1089.64z M1089.46,59.8c-1.35-0.03-2.87,0.21-2.87,1.53c0,0.8,0.53,1.18,1.16,1.18
		c0.88,0,1.44-0.56,1.64-1.13c0.04-0.13,0.07-0.27,0.07-0.39V59.8z"/>
	<path d="M1098.49,53.31v8.19c0,0.6,0.01,1.29,0.06,1.75h-1.11l-0.06-1.18h-0.03c-0.38,0.76-1.21,1.33-2.31,1.33
		c-1.64,0-2.9-1.39-2.9-3.45c-0.01-2.25,1.39-3.64,3.04-3.64c1.04,0,1.74,0.49,2.05,1.04h0.03v-4.05H1098.49z M1097.26,59.24
		c0-0.15-0.01-0.36-0.06-0.52c-0.18-0.79-0.85-1.43-1.78-1.43c-1.27,0-2.03,1.12-2.03,2.62c0,1.37,0.67,2.51,2,2.51
		c0.83,0,1.58-0.55,1.81-1.47c0.04-0.17,0.06-0.34,0.06-0.53V59.24z"/>
	<path d="M1106.67,59.81c0,2.51-1.74,3.6-3.38,3.6c-1.84,0-3.25-1.34-3.25-3.49c0-2.27,1.48-3.6,3.36-3.6
		C1105.35,56.32,1106.67,57.74,1106.67,59.81z M1101.29,59.88c0,1.49,0.85,2.61,2.06,2.61c1.18,0,2.06-1.11,2.06-2.63
		c0-1.15-0.57-2.6-2.03-2.6C1101.92,57.25,1101.29,58.59,1101.29,59.88z"/>
	<path d="M1108.05,62c0.36,0.24,1.01,0.49,1.63,0.49c0.9,0,1.32-0.45,1.32-1.01c0-0.59-0.35-0.91-1.26-1.25
		c-1.22-0.43-1.79-1.11-1.79-1.92c0-1.09,0.88-1.99,2.34-1.99c0.69,0,1.29,0.2,1.67,0.42l-0.31,0.9c-0.27-0.17-0.76-0.39-1.39-0.39
		c-0.73,0-1.13,0.42-1.13,0.92c0,0.56,0.41,0.81,1.29,1.15c1.18,0.45,1.78,1.04,1.78,2.05c0,1.19-0.93,2.03-2.54,2.03
		c-0.74,0-1.43-0.18-1.91-0.46L1108.05,62z"/>
	<path d="M1113.02,64.95c1-1.39,1.76-3.21,1.76-5.73c0-2.51-0.76-4.3-1.76-5.69h0.95c0.9,1.15,1.84,2.94,1.84,5.7
		c0,2.75-0.94,4.52-1.84,5.72H1113.02z"/>
</g>
</svg>
