<?xml version="1.0" encoding="utf-8"?>
<!-- Generator: Adobe Illustrator 24.0.1, SVG Export Plug-In . SVG Version: 6.00 Build 0)  -->
<svg version="1.1" id="Layer_1" xmlns="http://www.w3.org/2000/svg" xmlns:xlink="http://www.w3.org/1999/xlink" x="0px" y="0px"
	 viewBox="0 0 251 85" style="enable-background:new 0 0 251 85;" xml:space="preserve">
<style type="text/css">
	.st0{fill:none;stroke:url(#SVGID_1_);stroke-width:7;stroke-miterlimit:10;}
	.st1{fill:none;stroke:url(#SVGID_2_);stroke-width:7;stroke-miterlimit:10;}
	.st2{fill:none;stroke:url(#SVGID_3_);stroke-width:7;stroke-miterlimit:10;}
	.st3{fill:none;stroke:url(#SVGID_4_);stroke-width:7;stroke-miterlimit:10;}
	.st4{fill:none;stroke:url(#SVGID_5_);stroke-width:7;stroke-miterlimit:10;}
</style>
<linearGradient id="SVGID_1_" gradientUnits="userSpaceOnUse" x1="-543.6743" y1="42" x2="-306.3258" y2="42">
	<stop  offset="0" style="stop-color:#8FCCD5"/>
	<stop  offset="0.5" style="stop-color:#5BBAC7"/>
	<stop  offset="1" style="stop-color:#00AAB9"/>
</linearGradient>
<polygon class="st0" points="-339.11,8.5 -535.53,8.5 -503.74,42 -535.53,75.5 -339.11,75.5 -310.9,42 "/>
<g>
	<path d="M-480.62,41.51c-0.07-1.32-0.15-2.9-0.14-4.08h-0.04c-0.32,1.11-0.71,2.28-1.19,3.59l-1.67,4.58h-0.92l-1.53-4.5
		c-0.45-1.33-0.83-2.55-1.09-3.67h-0.03c-0.03,1.18-0.1,2.76-0.18,4.17l-0.25,4.05h-1.16l0.66-9.44h1.55l1.61,4.57
		c0.39,1.16,0.71,2.2,0.95,3.18h0.04c0.24-0.95,0.57-1.99,0.99-3.18l1.68-4.57h1.55l0.59,9.44h-1.19L-480.62,41.51z"/>
	<path d="M-471.14,42.21c0,2.51-1.74,3.6-3.38,3.6c-1.83,0-3.25-1.34-3.25-3.49c0-2.27,1.48-3.6,3.36-3.6
		C-472.46,38.72-471.14,40.14-471.14,42.21z M-476.52,42.28c0,1.49,0.85,2.61,2.06,2.61c1.18,0,2.06-1.11,2.06-2.63
		c0-1.15-0.57-2.6-2.03-2.6C-475.89,39.65-476.52,40.99-476.52,42.28z"/>
	<path d="M-463.74,35.71v8.19c0,0.6,0.01,1.29,0.06,1.75h-1.11l-0.06-1.18h-0.03c-0.38,0.76-1.2,1.33-2.31,1.33
		c-1.64,0-2.9-1.39-2.9-3.45c-0.01-2.25,1.39-3.64,3.04-3.64c1.04,0,1.74,0.49,2.05,1.04h0.03v-4.05H-463.74z M-464.97,41.64
		c0-0.15-0.01-0.36-0.06-0.52c-0.18-0.79-0.85-1.43-1.78-1.43c-1.27,0-2.03,1.12-2.03,2.62c0,1.37,0.67,2.51,2,2.51
		c0.83,0,1.58-0.55,1.81-1.47c0.04-0.17,0.06-0.34,0.06-0.53V41.64z"/>
	<path d="M-461.01,42.49c0.03,1.67,1.09,2.35,2.33,2.35c0.88,0,1.41-0.15,1.88-0.35l0.21,0.88c-0.43,0.2-1.18,0.42-2.25,0.42
		c-2.09,0-3.33-1.37-3.33-3.42c0-2.05,1.2-3.66,3.18-3.66c2.21,0,2.8,1.95,2.8,3.19c0,0.25-0.03,0.45-0.04,0.57H-461.01z
		 M-457.39,41.61c0.01-0.79-0.32-2-1.71-2c-1.25,0-1.79,1.15-1.89,2H-457.39z"/>
	<path d="M-454.68,35.71h1.23v9.95h-1.23V35.71z"/>
	<path d="M-445.24,42.21c0,2.51-1.74,3.6-3.38,3.6c-1.83,0-3.25-1.34-3.25-3.49c0-2.27,1.48-3.6,3.36-3.6
		C-446.56,38.72-445.24,40.14-445.24,42.21z M-450.62,42.28c0,1.49,0.85,2.61,2.06,2.61c1.18,0,2.06-1.11,2.06-2.63
		c0-1.15-0.57-2.6-2.03-2.6C-449.99,39.65-450.62,40.99-450.62,42.28z"/>
	<path d="M-443.86,44.4c0.36,0.24,1.01,0.49,1.63,0.49c0.9,0,1.32-0.45,1.32-1.01c0-0.59-0.35-0.91-1.26-1.25
		c-1.22-0.43-1.79-1.11-1.79-1.92c0-1.09,0.88-1.99,2.34-1.99c0.69,0,1.29,0.2,1.67,0.42l-0.31,0.9c-0.27-0.17-0.76-0.39-1.39-0.39
		c-0.73,0-1.13,0.42-1.13,0.92c0,0.56,0.41,0.81,1.29,1.15c1.18,0.45,1.78,1.04,1.78,2.05c0,1.19-0.92,2.03-2.54,2.03
		c-0.74,0-1.43-0.18-1.9-0.46L-443.86,44.4z"/>
	<path d="M-429.32,35.71v8.19c0,0.6,0.01,1.29,0.06,1.75h-1.11l-0.06-1.18h-0.03c-0.38,0.76-1.2,1.33-2.31,1.33
		c-1.64,0-2.9-1.39-2.9-3.45c-0.01-2.25,1.39-3.64,3.04-3.64c1.04,0,1.74,0.49,2.05,1.04h0.03v-4.05H-429.32z M-430.56,41.64
		c0-0.15-0.01-0.36-0.06-0.52c-0.18-0.79-0.85-1.43-1.78-1.43c-1.27,0-2.03,1.12-2.03,2.62c0,1.37,0.67,2.51,2,2.51
		c0.83,0,1.58-0.55,1.81-1.47c0.04-0.17,0.06-0.34,0.06-0.53V41.64z"/>
	<path d="M-426.6,42.49c0.03,1.67,1.09,2.35,2.33,2.35c0.88,0,1.41-0.15,1.88-0.35l0.21,0.88c-0.43,0.2-1.18,0.42-2.25,0.42
		c-2.09,0-3.33-1.37-3.33-3.42c0-2.05,1.2-3.66,3.18-3.66c2.21,0,2.8,1.95,2.8,3.19c0,0.25-0.03,0.45-0.04,0.57H-426.6z
		 M-422.98,41.61c0.01-0.79-0.32-2-1.71-2c-1.25,0-1.79,1.15-1.89,2H-422.98z"/>
	<path d="M-417.3,41.09c0-0.87-0.03-1.57-0.06-2.21h1.11l0.06,1.16h0.03c0.5-0.83,1.3-1.32,2.41-1.32c1.64,0,2.87,1.39,2.87,3.45
		c0,2.44-1.48,3.64-3.08,3.64c-0.9,0-1.68-0.39-2.09-1.06h-0.03v3.68h-1.22V41.09z M-416.08,42.9c0,0.18,0.03,0.35,0.06,0.5
		c0.22,0.85,0.97,1.44,1.85,1.44c1.3,0,2.06-1.06,2.06-2.62c0-1.36-0.71-2.52-2.02-2.52c-0.84,0-1.63,0.6-1.86,1.53
		c-0.04,0.15-0.08,0.34-0.08,0.5V42.9z"/>
	<path d="M-409.34,40.99c0-0.8-0.01-1.49-0.06-2.12h1.08l0.04,1.33h0.06c0.31-0.91,1.05-1.48,1.88-1.48c0.14,0,0.24,0.01,0.35,0.04
		v1.16c-0.13-0.03-0.25-0.04-0.42-0.04c-0.87,0-1.48,0.66-1.65,1.58c-0.03,0.17-0.06,0.36-0.06,0.57v3.61h-1.22V40.99z"/>
	<path d="M-398.76,42.21c0,2.51-1.74,3.6-3.38,3.6c-1.83,0-3.25-1.34-3.25-3.49c0-2.27,1.48-3.6,3.36-3.6
		C-400.08,38.72-398.76,40.14-398.76,42.21z M-404.14,42.28c0,1.49,0.85,2.61,2.06,2.61c1.18,0,2.06-1.11,2.06-2.63
		c0-1.15-0.57-2.6-2.03-2.6C-403.51,39.65-404.14,40.99-404.14,42.28z"/>
	<path d="M-391.36,35.71v8.19c0,0.6,0.01,1.29,0.06,1.75h-1.11l-0.06-1.18h-0.03c-0.38,0.76-1.2,1.33-2.31,1.33
		c-1.64,0-2.9-1.39-2.9-3.45c-0.01-2.25,1.39-3.64,3.04-3.64c1.04,0,1.74,0.49,2.05,1.04h0.03v-4.05H-391.36z M-392.59,41.64
		c0-0.15-0.01-0.36-0.06-0.52c-0.18-0.79-0.85-1.43-1.78-1.43c-1.27,0-2.03,1.12-2.03,2.62c0,1.37,0.67,2.51,2,2.51
		c0.83,0,1.58-0.55,1.81-1.47c0.04-0.17,0.06-0.34,0.06-0.53V41.64z"/>
	<path d="M-383.64,43.81c0,0.7,0.01,1.32,0.06,1.85h-1.09l-0.07-1.11h-0.03c-0.32,0.55-1.04,1.26-2.24,1.26
		c-1.06,0-2.34-0.59-2.34-2.97v-3.96h1.23v3.75c0,1.29,0.39,2.16,1.51,2.16c0.83,0,1.4-0.57,1.63-1.12
		c0.07-0.18,0.11-0.41,0.11-0.63v-4.16h1.23V43.81z"/>
	<path d="M-376.77,45.41c-0.32,0.17-1.04,0.39-1.95,0.39c-2.05,0-3.38-1.39-3.38-3.46c0-2.09,1.43-3.6,3.64-3.6
		c0.73,0,1.37,0.18,1.71,0.35l-0.28,0.95c-0.29-0.17-0.76-0.32-1.43-0.32c-1.55,0-2.4,1.15-2.4,2.56c0,1.57,1.01,2.54,2.35,2.54
		c0.7,0,1.16-0.18,1.51-0.34L-376.77,45.41z"/>
	<path d="M-370.58,45.41c-0.32,0.17-1.04,0.39-1.95,0.39c-2.05,0-3.38-1.39-3.38-3.46c0-2.09,1.43-3.6,3.64-3.6
		c0.73,0,1.37,0.18,1.71,0.35l-0.28,0.95c-0.29-0.17-0.76-0.32-1.43-0.32c-1.55,0-2.4,1.15-2.4,2.56c0,1.57,1.01,2.54,2.35,2.54
		c0.7,0,1.16-0.18,1.51-0.34L-370.58,45.41z"/>
	<path d="M-367.77,36.97c0.01,0.42-0.29,0.76-0.78,0.76c-0.43,0-0.74-0.34-0.74-0.76c0-0.43,0.32-0.77,0.77-0.77
		C-368.06,36.2-367.77,36.54-367.77,36.97z M-369.14,45.66v-6.78h1.23v6.78H-369.14z"/>
	<path d="M-359.73,42.21c0,2.51-1.74,3.6-3.38,3.6c-1.83,0-3.25-1.34-3.25-3.49c0-2.27,1.48-3.6,3.36-3.6
		C-361.05,38.72-359.73,40.14-359.73,42.21z M-365.11,42.28c0,1.49,0.85,2.61,2.06,2.61c1.18,0,2.06-1.11,2.06-2.63
		c0-1.15-0.57-2.6-2.03-2.6C-364.48,39.65-365.11,40.99-365.11,42.28z M-361.2,35.95l-1.71,2h-0.88l1.23-2H-361.2z"/>
	<path d="M-358.18,40.71c0-0.7-0.01-1.28-0.06-1.83h1.09l0.07,1.12h0.03c0.34-0.64,1.12-1.27,2.24-1.27c0.94,0,2.4,0.56,2.4,2.89
		v4.05h-1.23v-3.91c0-1.09-0.41-2-1.57-2c-0.81,0-1.44,0.57-1.65,1.26c-0.06,0.15-0.08,0.36-0.08,0.57v4.08h-1.23V40.71z"/>
</g>
<linearGradient id="SVGID_2_" gradientUnits="userSpaceOnUse" x1="-283.6742" y1="42" x2="-46.3258" y2="42">
	<stop  offset="0" style="stop-color:#8FCCD5"/>
	<stop  offset="0.5" style="stop-color:#5BBAC7"/>
	<stop  offset="1" style="stop-color:#00AAB9"/>
</linearGradient>
<polygon class="st1" points="-79.11,8.5 -275.53,8.5 -243.74,42 -275.53,75.5 -79.11,75.5 -50.9,42 "/>
<g>
	<path d="M-215.98,34.51c-0.07-1.32-0.15-2.9-0.14-4.08h-0.04c-0.32,1.11-0.71,2.28-1.19,3.59l-1.67,4.58h-0.92l-1.53-4.5
		c-0.45-1.33-0.83-2.55-1.09-3.67h-0.03c-0.03,1.18-0.1,2.76-0.18,4.17l-0.25,4.05h-1.16l0.66-9.44h1.56l1.61,4.57
		c0.39,1.16,0.71,2.2,0.95,3.18h0.04c0.24-0.95,0.57-1.99,0.99-3.18l1.68-4.57h1.55l0.59,9.44h-1.19L-215.98,34.51z"/>
	<path d="M-206.5,35.21c0,2.51-1.74,3.6-3.38,3.6c-1.83,0-3.25-1.34-3.25-3.49c0-2.27,1.48-3.6,3.36-3.6
		C-207.82,31.72-206.5,33.14-206.5,35.21z M-211.88,35.28c0,1.49,0.85,2.61,2.06,2.61c1.18,0,2.06-1.11,2.06-2.63
		c0-1.15-0.57-2.6-2.03-2.6C-211.25,32.65-211.88,33.99-211.88,35.28z"/>
	<path d="M-199.09,28.71v8.19c0,0.6,0.01,1.29,0.06,1.75h-1.11l-0.06-1.18h-0.03c-0.38,0.76-1.2,1.33-2.31,1.33
		c-1.64,0-2.9-1.39-2.9-3.45c-0.01-2.25,1.39-3.64,3.04-3.64c1.04,0,1.74,0.49,2.05,1.04h0.03v-4.05H-199.09z M-200.33,34.64
		c0-0.15-0.01-0.36-0.06-0.52c-0.18-0.79-0.85-1.43-1.78-1.43c-1.27,0-2.03,1.12-2.03,2.62c0,1.37,0.67,2.51,2,2.51
		c0.83,0,1.58-0.55,1.81-1.47c0.04-0.17,0.06-0.34,0.06-0.53V34.64z"/>
	<path d="M-196.37,35.49c0.03,1.67,1.09,2.35,2.33,2.35c0.88,0,1.41-0.15,1.88-0.35l0.21,0.88c-0.43,0.2-1.18,0.42-2.25,0.42
		c-2.09,0-3.33-1.37-3.33-3.42c0-2.05,1.2-3.66,3.18-3.66c2.21,0,2.8,1.95,2.8,3.19c0,0.25-0.03,0.45-0.04,0.57H-196.37z
		 M-192.75,34.61c0.01-0.79-0.32-2-1.71-2c-1.25,0-1.79,1.15-1.89,2H-192.75z"/>
	<path d="M-190.04,28.71h1.23v9.95h-1.23V28.71z"/>
	<path d="M-180.6,35.21c0,2.51-1.74,3.6-3.38,3.6c-1.83,0-3.25-1.34-3.25-3.49c0-2.27,1.48-3.6,3.36-3.6
		C-181.92,31.72-180.6,33.14-180.6,35.21z M-185.98,35.28c0,1.49,0.85,2.61,2.06,2.61c1.18,0,2.06-1.11,2.06-2.63
		c0-1.15-0.57-2.6-2.03-2.6C-185.35,32.65-185.98,33.99-185.98,35.28z"/>
	<path d="M-179.22,37.4c0.36,0.24,1.01,0.49,1.63,0.49c0.9,0,1.32-0.45,1.32-1.01c0-0.59-0.35-0.91-1.26-1.25
		c-1.22-0.43-1.79-1.11-1.79-1.92c0-1.09,0.88-1.99,2.34-1.99c0.69,0,1.29,0.2,1.67,0.42l-0.31,0.9c-0.27-0.17-0.76-0.39-1.39-0.39
		c-0.73,0-1.13,0.42-1.13,0.92c0,0.56,0.41,0.81,1.29,1.15c1.18,0.45,1.78,1.04,1.78,2.05c0,1.19-0.92,2.03-2.54,2.03
		c-0.74,0-1.43-0.18-1.9-0.46L-179.22,37.4z"/>
	<path d="M-164.68,28.71v8.19c0,0.6,0.01,1.29,0.06,1.75h-1.11l-0.06-1.18h-0.03c-0.38,0.76-1.2,1.33-2.31,1.33
		c-1.64,0-2.9-1.39-2.9-3.45c-0.01-2.25,1.39-3.64,3.04-3.64c1.04,0,1.74,0.49,2.05,1.04h0.03v-4.05H-164.68z M-165.92,34.64
		c0-0.15-0.01-0.36-0.06-0.52c-0.18-0.79-0.85-1.43-1.78-1.43c-1.27,0-2.03,1.12-2.03,2.62c0,1.37,0.67,2.51,2,2.51
		c0.83,0,1.58-0.55,1.81-1.47c0.04-0.17,0.06-0.34,0.06-0.53V34.64z"/>
	<path d="M-161.96,35.49c0.03,1.67,1.09,2.35,2.33,2.35c0.88,0,1.41-0.15,1.88-0.35l0.21,0.88c-0.43,0.2-1.18,0.42-2.25,0.42
		c-2.09,0-3.33-1.37-3.33-3.42c0-2.05,1.2-3.66,3.18-3.66c2.21,0,2.8,1.95,2.8,3.19c0,0.25-0.03,0.45-0.04,0.57H-161.96z
		 M-158.34,34.61c0.01-0.79-0.32-2-1.71-2c-1.25,0-1.79,1.15-1.89,2H-158.34z"/>
	<path d="M-146.81,28.71v8.19c0,0.6,0.01,1.29,0.06,1.75h-1.11l-0.06-1.18h-0.03c-0.38,0.76-1.2,1.33-2.31,1.33
		c-1.64,0-2.9-1.39-2.9-3.45c-0.01-2.25,1.39-3.64,3.04-3.64c1.04,0,1.74,0.49,2.05,1.04h0.03v-4.05H-146.81z M-148.04,34.64
		c0-0.15-0.01-0.36-0.06-0.52c-0.18-0.79-0.85-1.43-1.78-1.43c-1.27,0-2.03,1.12-2.03,2.62c0,1.37,0.67,2.51,2,2.51
		c0.83,0,1.58-0.55,1.81-1.47c0.04-0.17,0.06-0.34,0.06-0.53V34.64z"/>
	<path d="M-143.39,29.97c0.01,0.42-0.29,0.76-0.78,0.76c-0.43,0-0.74-0.34-0.74-0.76c0-0.43,0.32-0.77,0.77-0.77
		C-143.69,29.2-143.39,29.54-143.39,29.97z M-144.77,38.66v-6.78h1.23v6.78H-144.77z"/>
	<path d="M-141.36,38.66v-5.84h-0.95v-0.94h0.95v-0.32c0-0.95,0.21-1.82,0.78-2.37c0.46-0.45,1.08-0.63,1.65-0.63
		c0.43,0,0.81,0.1,1.05,0.2l-0.17,0.95c-0.18-0.08-0.43-0.15-0.78-0.15c-1.05,0-1.32,0.92-1.32,1.96v0.36h1.64v0.94h-1.64v5.84
		H-141.36z"/>
	<path d="M-136.9,35.49c0.03,1.67,1.09,2.35,2.33,2.35c0.88,0,1.41-0.15,1.88-0.35l0.21,0.88c-0.43,0.2-1.18,0.42-2.25,0.42
		c-2.09,0-3.33-1.37-3.33-3.42c0-2.05,1.2-3.66,3.18-3.66c2.21,0,2.8,1.95,2.8,3.19c0,0.25-0.03,0.45-0.04,0.57H-136.9z
		 M-133.28,34.61c0.01-0.79-0.32-2-1.71-2c-1.25,0-1.79,1.15-1.89,2H-133.28z"/>
	<path d="M-130.57,33.99c0-0.8-0.01-1.49-0.06-2.12h1.08l0.04,1.33h0.06c0.31-0.91,1.05-1.48,1.88-1.48c0.14,0,0.24,0.01,0.35,0.04
		v1.16c-0.13-0.03-0.25-0.04-0.42-0.04c-0.87,0-1.48,0.66-1.65,1.58c-0.03,0.17-0.06,0.36-0.06,0.57v3.61h-1.22V33.99z"/>
	<path d="M-125.44,35.49c0.03,1.67,1.09,2.35,2.33,2.35c0.88,0,1.41-0.15,1.88-0.35l0.21,0.88c-0.43,0.2-1.18,0.42-2.25,0.42
		c-2.09,0-3.33-1.37-3.33-3.42c0-2.05,1.2-3.66,3.18-3.66c2.21,0,2.8,1.95,2.8,3.19c0,0.25-0.03,0.45-0.04,0.57H-125.44z
		 M-121.83,34.61c0.01-0.79-0.32-2-1.71-2c-1.25,0-1.79,1.15-1.89,2H-121.83z"/>
	<path d="M-119.12,33.71c0-0.7-0.01-1.28-0.06-1.83h1.09l0.07,1.12h0.03c0.34-0.64,1.12-1.27,2.24-1.27c0.94,0,2.4,0.56,2.4,2.89
		v4.05h-1.23v-3.91c0-1.09-0.41-2-1.57-2c-0.81,0-1.44,0.57-1.65,1.26c-0.06,0.15-0.08,0.36-0.08,0.57v4.08h-1.23V33.71z"/>
	<path d="M-106.52,38.41c-0.32,0.17-1.04,0.39-1.95,0.39c-2.05,0-3.38-1.39-3.38-3.46c0-2.09,1.43-3.6,3.64-3.6
		c0.73,0,1.37,0.18,1.71,0.35l-0.28,0.95c-0.29-0.17-0.76-0.32-1.43-0.32c-1.55,0-2.4,1.15-2.4,2.56c0,1.57,1.01,2.54,2.35,2.54
		c0.7,0,1.16-0.18,1.51-0.34L-106.52,38.41z"/>
	<path d="M-103.7,29.97c0.01,0.42-0.29,0.76-0.78,0.76c-0.43,0-0.74-0.34-0.74-0.76c0-0.43,0.32-0.77,0.77-0.77
		C-104,29.2-103.7,29.54-103.7,29.97z M-105.08,38.66v-6.78h1.23v6.78H-105.08z"/>
	<path d="M-98.05,38.66l-0.1-0.85h-0.04c-0.38,0.53-1.11,1.01-2.07,1.01c-1.37,0-2.07-0.97-2.07-1.95c0-1.64,1.46-2.54,4.08-2.52
		V34.2c0-0.56-0.15-1.57-1.54-1.57c-0.63,0-1.29,0.2-1.77,0.5l-0.28-0.81c0.56-0.36,1.37-0.6,2.23-0.6c2.07,0,2.58,1.42,2.58,2.77
		v2.54c0,0.59,0.03,1.16,0.11,1.63H-98.05z M-98.23,35.2c-1.34-0.03-2.87,0.21-2.87,1.53c0,0.8,0.53,1.18,1.16,1.18
		c0.88,0,1.44-0.56,1.64-1.13c0.04-0.13,0.07-0.27,0.07-0.39V35.2z"/>
	<path d="M-182.88,45.51v8.19c0,0.6,0.01,1.29,0.06,1.75h-1.11l-0.06-1.18h-0.03c-0.38,0.76-1.2,1.33-2.31,1.33
		c-1.64,0-2.9-1.39-2.9-3.45c-0.01-2.25,1.39-3.64,3.04-3.64c1.04,0,1.74,0.49,2.05,1.04h0.03v-4.05H-182.88z M-184.12,51.44
		c0-0.15-0.01-0.36-0.06-0.52c-0.18-0.79-0.85-1.43-1.78-1.43c-1.27,0-2.03,1.12-2.03,2.62c0,1.37,0.67,2.51,2,2.51
		c0.83,0,1.58-0.55,1.81-1.47c0.04-0.17,0.06-0.34,0.06-0.53V51.44z"/>
	<path d="M-180.16,52.29c0.03,1.67,1.09,2.35,2.33,2.35c0.88,0,1.41-0.15,1.88-0.35l0.21,0.88c-0.43,0.2-1.18,0.42-2.25,0.42
		c-2.09,0-3.33-1.37-3.33-3.42c0-2.05,1.2-3.66,3.18-3.66c2.21,0,2.8,1.95,2.8,3.19c0,0.25-0.03,0.45-0.04,0.57H-180.16z
		 M-176.54,51.41c0.01-0.79-0.32-2-1.71-2c-1.25,0-1.79,1.15-1.89,2H-176.54z"/>
	<path d="M-170.86,50.79c0-0.8-0.01-1.49-0.06-2.12h1.08l0.04,1.33h0.06c0.31-0.91,1.05-1.48,1.88-1.48c0.14,0,0.24,0.01,0.35,0.04
		v1.16c-0.13-0.03-0.25-0.04-0.42-0.04c-0.87,0-1.48,0.66-1.65,1.58c-0.03,0.17-0.06,0.36-0.06,0.57v3.61h-1.22V50.79z"/>
	<path d="M-165.74,52.29c0.03,1.67,1.09,2.35,2.33,2.35c0.88,0,1.41-0.15,1.88-0.35l0.21,0.88c-0.43,0.2-1.18,0.42-2.25,0.42
		c-2.09,0-3.33-1.37-3.33-3.42c0-2.05,1.2-3.66,3.18-3.66c2.21,0,2.8,1.95,2.8,3.19c0,0.25-0.03,0.45-0.04,0.57H-165.74z
		 M-162.12,51.41c0.01-0.79-0.32-2-1.71-2c-1.25,0-1.79,1.15-1.89,2H-162.12z"/>
	<path d="M-157.92,46.73v1.95h1.77v0.94h-1.77v3.66c0,0.84,0.24,1.32,0.92,1.32c0.32,0,0.56-0.04,0.71-0.08l0.06,0.92
		c-0.24,0.1-0.62,0.17-1.09,0.17c-0.57,0-1.04-0.18-1.33-0.52c-0.35-0.36-0.48-0.97-0.48-1.77v-3.7h-1.05v-0.94h1.05v-1.63
		L-157.92,46.73z"/>
	<path d="M-154.78,50.79c0-0.8-0.01-1.49-0.06-2.12h1.08l0.04,1.33h0.06c0.31-0.91,1.05-1.48,1.88-1.48c0.14,0,0.24,0.01,0.35,0.04
		v1.16c-0.13-0.03-0.25-0.04-0.42-0.04c-0.87,0-1.48,0.66-1.65,1.58c-0.03,0.17-0.06,0.36-0.06,0.57v3.61h-1.22V50.79z"/>
	<path d="M-146.51,55.46l-0.1-0.85h-0.04c-0.38,0.53-1.11,1.01-2.07,1.01c-1.37,0-2.07-0.97-2.07-1.95c0-1.64,1.46-2.54,4.08-2.52
		V51c0-0.56-0.15-1.57-1.54-1.57c-0.63,0-1.29,0.2-1.76,0.5l-0.28-0.81c0.56-0.36,1.37-0.6,2.23-0.6c2.07,0,2.58,1.42,2.58,2.77
		v2.54c0,0.59,0.03,1.16,0.11,1.63H-146.51z M-146.69,52c-1.34-0.03-2.87,0.21-2.87,1.53c0,0.8,0.53,1.18,1.16,1.18
		c0.88,0,1.44-0.56,1.64-1.13c0.04-0.13,0.07-0.27,0.07-0.39V52z"/>
	<path d="M-143.69,54.2c0.36,0.24,1.01,0.49,1.63,0.49c0.9,0,1.32-0.45,1.32-1.01c0-0.59-0.35-0.91-1.26-1.25
		c-1.22-0.43-1.79-1.11-1.79-1.92c0-1.09,0.88-1.99,2.34-1.99c0.69,0,1.29,0.2,1.67,0.42l-0.31,0.9c-0.27-0.17-0.76-0.39-1.39-0.39
		c-0.73,0-1.13,0.42-1.13,0.92c0,0.56,0.41,0.81,1.29,1.15c1.18,0.45,1.78,1.04,1.78,2.05c0,1.19-0.92,2.03-2.54,2.03
		c-0.74,0-1.43-0.18-1.9-0.46L-143.69,54.2z"/>
	<path d="M-131.84,52.01c0,2.51-1.74,3.6-3.38,3.6c-1.83,0-3.25-1.34-3.25-3.49c0-2.27,1.48-3.6,3.36-3.6
		C-133.16,48.52-131.84,49.94-131.84,52.01z M-137.22,52.08c0,1.49,0.85,2.61,2.06,2.61c1.18,0,2.06-1.11,2.06-2.63
		c0-1.15-0.57-2.6-2.03-2.6C-136.59,49.45-137.22,50.79-137.22,52.08z"/>
</g>
<linearGradient id="SVGID_3_" gradientUnits="userSpaceOnUse" x1="6.3258" y1="42" x2="243.6742" y2="42">
	<stop  offset="0" style="stop-color:#8FCCD5"/>
	<stop  offset="0.5" style="stop-color:#5BBAC7"/>
	<stop  offset="1" style="stop-color:#00AAB9"/>
</linearGradient>
<polygon class="st2" points="210.89,8.5 14.47,8.5 46.26,42 14.47,75.5 210.89,75.5 239.1,42 "/>
<g>
	<path d="M78.82,34.51c-0.07-1.32-0.15-2.9-0.14-4.08h-0.04c-0.32,1.11-0.71,2.28-1.19,3.59l-1.67,4.58h-0.92l-1.53-4.5
		c-0.45-1.33-0.83-2.55-1.09-3.67h-0.03c-0.03,1.18-0.1,2.76-0.18,4.17l-0.25,4.05h-1.16l0.66-9.44h1.56l1.61,4.57
		c0.39,1.16,0.71,2.2,0.95,3.18h0.04c0.24-0.95,0.57-1.99,0.99-3.18l1.68-4.57h1.55l0.59,9.44h-1.19L78.82,34.51z"/>
	<path d="M88.3,35.21c0,2.51-1.74,3.6-3.38,3.6c-1.83,0-3.25-1.34-3.25-3.49c0-2.27,1.48-3.6,3.36-3.6
		C86.98,31.72,88.3,33.14,88.3,35.21z M82.92,35.28c0,1.49,0.85,2.61,2.06,2.61c1.18,0,2.06-1.11,2.06-2.63
		c0-1.15-0.57-2.6-2.03-2.6C83.55,32.65,82.92,33.99,82.92,35.28z"/>
	<path d="M95.71,28.71v8.19c0,0.6,0.01,1.29,0.06,1.75h-1.11l-0.06-1.18h-0.03c-0.38,0.76-1.2,1.33-2.31,1.33
		c-1.64,0-2.9-1.39-2.9-3.45c-0.01-2.25,1.39-3.64,3.04-3.64c1.04,0,1.74,0.49,2.05,1.04h0.03v-4.05H95.71z M94.47,34.64
		c0-0.15-0.01-0.36-0.06-0.52c-0.18-0.79-0.85-1.43-1.78-1.43c-1.27,0-2.03,1.12-2.03,2.62c0,1.37,0.67,2.51,2,2.51
		c0.83,0,1.58-0.55,1.81-1.47c0.04-0.17,0.06-0.34,0.06-0.53V34.64z"/>
	<path d="M98.43,35.49c0.03,1.67,1.09,2.35,2.33,2.35c0.88,0,1.41-0.15,1.88-0.35l0.21,0.88c-0.43,0.2-1.18,0.42-2.25,0.42
		c-2.09,0-3.33-1.37-3.33-3.42c0-2.05,1.2-3.66,3.18-3.66c2.21,0,2.8,1.95,2.8,3.19c0,0.25-0.03,0.45-0.04,0.57H98.43z
		 M102.05,34.61c0.01-0.79-0.32-2-1.71-2c-1.25,0-1.79,1.15-1.89,2H102.05z"/>
	<path d="M104.76,28.71h1.23v9.95h-1.23V28.71z"/>
	<path d="M114.2,35.21c0,2.51-1.74,3.6-3.38,3.6c-1.83,0-3.25-1.34-3.25-3.49c0-2.27,1.48-3.6,3.36-3.6
		C112.88,31.72,114.2,33.14,114.2,35.21z M108.82,35.28c0,1.49,0.85,2.61,2.06,2.61c1.18,0,2.06-1.11,2.06-2.63
		c0-1.15-0.57-2.6-2.03-2.6C109.45,32.65,108.82,33.99,108.82,35.28z"/>
	<path d="M115.58,37.4c0.36,0.24,1.01,0.49,1.63,0.49c0.9,0,1.32-0.45,1.32-1.01c0-0.59-0.35-0.91-1.26-1.25
		c-1.22-0.43-1.79-1.11-1.79-1.92c0-1.09,0.88-1.99,2.34-1.99c0.69,0,1.29,0.2,1.67,0.42l-0.31,0.9c-0.27-0.17-0.76-0.39-1.39-0.39
		c-0.73,0-1.13,0.42-1.13,0.92c0,0.56,0.41,0.81,1.29,1.15c1.18,0.45,1.78,1.04,1.78,2.05c0,1.19-0.92,2.03-2.54,2.03
		c-0.74,0-1.43-0.18-1.9-0.46L115.58,37.4z"/>
	<path d="M124.21,38.66c0.03-0.46,0.06-1.15,0.06-1.75v-8.19h1.22v4.26h0.03c0.43-0.76,1.22-1.25,2.31-1.25
		c1.68,0,2.87,1.4,2.86,3.46c0,2.42-1.53,3.63-3.04,3.63c-0.98,0-1.77-0.38-2.27-1.27h-0.04l-0.06,1.12H124.21z M125.48,35.94
		c0,0.15,0.03,0.31,0.06,0.45c0.24,0.85,0.95,1.44,1.85,1.44c1.29,0,2.06-1.05,2.06-2.61c0-1.36-0.7-2.52-2.02-2.52
		c-0.84,0-1.63,0.57-1.88,1.51c-0.03,0.14-0.07,0.31-0.07,0.5V35.94z"/>
	<path d="M135.98,38.66l-0.1-0.85h-0.04c-0.38,0.53-1.11,1.01-2.07,1.01c-1.37,0-2.07-0.97-2.07-1.95c0-1.64,1.46-2.54,4.08-2.52
		V34.2c0-0.56-0.15-1.57-1.54-1.57c-0.63,0-1.29,0.2-1.76,0.5l-0.28-0.81c0.56-0.36,1.37-0.6,2.23-0.6c2.07,0,2.58,1.42,2.58,2.77
		v2.54c0,0.59,0.03,1.16,0.11,1.63H135.98z M135.8,35.2c-1.34-0.03-2.87,0.21-2.87,1.53c0,0.8,0.53,1.18,1.16,1.18
		c0.88,0,1.44-0.56,1.64-1.13c0.04-0.13,0.07-0.27,0.07-0.39V35.2z"/>
	<path d="M138.81,37.4c0.36,0.24,1.01,0.49,1.63,0.49c0.9,0,1.32-0.45,1.32-1.01c0-0.59-0.35-0.91-1.26-1.25
		c-1.22-0.43-1.79-1.11-1.79-1.92c0-1.09,0.88-1.99,2.34-1.99c0.69,0,1.29,0.2,1.67,0.42l-0.31,0.9c-0.27-0.17-0.76-0.39-1.39-0.39
		c-0.73,0-1.13,0.42-1.13,0.92c0,0.56,0.41,0.81,1.29,1.15c1.18,0.45,1.78,1.04,1.78,2.05c0,1.19-0.92,2.03-2.54,2.03
		c-0.74,0-1.43-0.18-1.9-0.46L138.81,37.4z"/>
	<path d="M148.27,38.66l-0.1-0.85h-0.04c-0.38,0.53-1.11,1.01-2.07,1.01c-1.37,0-2.07-0.97-2.07-1.95c0-1.64,1.46-2.54,4.08-2.52
		V34.2c0-0.56-0.15-1.57-1.54-1.57c-0.63,0-1.29,0.2-1.76,0.5l-0.28-0.81c0.56-0.36,1.37-0.6,2.23-0.6c2.07,0,2.58,1.42,2.58,2.77
		v2.54c0,0.59,0.03,1.16,0.11,1.63H148.27z M148.09,35.2c-1.34-0.03-2.87,0.21-2.87,1.53c0,0.8,0.53,1.18,1.16,1.18
		c0.88,0,1.44-0.56,1.64-1.13c0.04-0.13,0.07-0.27,0.07-0.39V35.2z"/>
	<path d="M157.12,28.71v8.19c0,0.6,0.01,1.29,0.06,1.75h-1.11l-0.06-1.18h-0.03c-0.38,0.76-1.2,1.33-2.31,1.33
		c-1.64,0-2.9-1.39-2.9-3.45c-0.01-2.25,1.39-3.64,3.04-3.64c1.04,0,1.74,0.49,2.05,1.04h0.03v-4.05H157.12z M155.89,34.64
		c0-0.15-0.01-0.36-0.06-0.52c-0.18-0.79-0.85-1.43-1.78-1.43c-1.27,0-2.03,1.12-2.03,2.62c0,1.37,0.67,2.51,2,2.51
		c0.83,0,1.58-0.55,1.81-1.47c0.04-0.17,0.06-0.34,0.06-0.53V34.64z"/>
	<path d="M165.3,35.21c0,2.51-1.74,3.6-3.38,3.6c-1.83,0-3.25-1.34-3.25-3.49c0-2.27,1.48-3.6,3.36-3.6
		C163.98,31.72,165.3,33.14,165.3,35.21z M159.92,35.28c0,1.49,0.85,2.61,2.06,2.61c1.18,0,2.06-1.11,2.06-2.63
		c0-1.15-0.57-2.6-2.03-2.6C160.55,32.65,159.92,33.99,159.92,35.28z"/>
	<path d="M166.68,37.4c0.36,0.24,1.01,0.49,1.63,0.49c0.9,0,1.32-0.45,1.32-1.01c0-0.59-0.35-0.91-1.26-1.25
		c-1.22-0.43-1.79-1.11-1.79-1.92c0-1.09,0.88-1.99,2.34-1.99c0.69,0,1.29,0.2,1.67,0.42l-0.31,0.9c-0.27-0.17-0.76-0.39-1.39-0.39
		c-0.73,0-1.13,0.42-1.13,0.92c0,0.56,0.41,0.81,1.29,1.15c1.18,0.45,1.78,1.04,1.78,2.05c0,1.19-0.92,2.03-2.54,2.03
		c-0.74,0-1.43-0.18-1.9-0.46L166.68,37.4z"/>
	<path d="M176.05,35.49c0.03,1.67,1.09,2.35,2.33,2.35c0.88,0,1.41-0.15,1.88-0.35l0.21,0.88c-0.43,0.2-1.18,0.42-2.25,0.42
		c-2.09,0-3.33-1.37-3.33-3.42c0-2.05,1.2-3.66,3.18-3.66c2.21,0,2.8,1.95,2.8,3.19c0,0.25-0.03,0.45-0.04,0.57H176.05z
		 M179.66,34.61c0.01-0.79-0.32-2-1.71-2c-1.25,0-1.79,1.15-1.89,2H179.66z"/>
	<path d="M182.38,33.71c0-0.7-0.01-1.28-0.06-1.83h1.09l0.07,1.12h0.03c0.34-0.64,1.12-1.27,2.24-1.27c0.94,0,2.4,0.56,2.4,2.89
		v4.05h-1.23v-3.91c0-1.09-0.41-2-1.57-2c-0.81,0-1.44,0.57-1.65,1.26c-0.06,0.15-0.08,0.36-0.08,0.57v4.08h-1.23V33.71z"/>
	<path d="M101.9,52.29c0.03,1.67,1.09,2.35,2.33,2.35c0.88,0,1.41-0.15,1.88-0.35l0.21,0.88c-0.43,0.2-1.18,0.42-2.25,0.42
		c-2.09,0-3.33-1.37-3.33-3.42c0-2.05,1.2-3.66,3.18-3.66c2.21,0,2.8,1.95,2.8,3.19c0,0.25-0.03,0.45-0.04,0.57H101.9z
		 M105.51,51.41c0.01-0.79-0.32-2-1.71-2c-1.25,0-1.79,1.15-1.89,2H105.51z"/>
	<path d="M108.23,45.51h1.23v9.95h-1.23V45.51z"/>
	<path d="M115.98,46.73v1.95h1.77v0.94h-1.77v3.66c0,0.84,0.24,1.32,0.92,1.32c0.32,0,0.56-0.04,0.71-0.08l0.06,0.92
		c-0.24,0.1-0.62,0.17-1.09,0.17c-0.57,0-1.04-0.18-1.33-0.52c-0.35-0.36-0.48-0.97-0.48-1.77v-3.7h-1.05v-0.94h1.05v-1.63
		L115.98,46.73z"/>
	<path d="M122.89,55.46l-0.1-0.85h-0.04c-0.38,0.53-1.11,1.01-2.07,1.01c-1.37,0-2.07-0.97-2.07-1.95c0-1.64,1.46-2.54,4.08-2.52V51
		c0-0.56-0.15-1.57-1.54-1.57c-0.63,0-1.29,0.2-1.77,0.5l-0.28-0.81c0.56-0.36,1.37-0.6,2.23-0.6c2.07,0,2.58,1.42,2.58,2.77v2.54
		c0,0.59,0.03,1.16,0.11,1.63H122.89z M122.7,52c-1.34-0.03-2.87,0.21-2.87,1.53c0,0.8,0.53,1.18,1.16,1.18
		c0.88,0,1.44-0.56,1.64-1.13c0.04-0.13,0.07-0.27,0.07-0.39V52z"/>
	<path d="M125.88,50.51c0-0.7-0.01-1.28-0.06-1.83h1.08l0.06,1.09H127c0.38-0.64,1.01-1.25,2.13-1.25c0.92,0,1.62,0.56,1.92,1.36
		h0.03c0.21-0.38,0.48-0.67,0.76-0.88c0.41-0.31,0.85-0.48,1.5-0.48c0.9,0,2.23,0.59,2.23,2.94v3.99h-1.2v-3.84
		c0-1.3-0.48-2.09-1.47-2.09c-0.7,0-1.25,0.52-1.46,1.12c-0.06,0.17-0.1,0.39-0.1,0.62v4.19h-1.2V51.4c0-1.08-0.48-1.86-1.42-1.86
		c-0.77,0-1.33,0.62-1.53,1.23c-0.07,0.18-0.1,0.39-0.1,0.6v4.09h-1.2V50.51z"/>
	<path d="M141.31,55.46l-0.1-0.85h-0.04c-0.38,0.53-1.11,1.01-2.07,1.01c-1.37,0-2.07-0.97-2.07-1.95c0-1.64,1.46-2.54,4.08-2.52V51
		c0-0.56-0.15-1.57-1.54-1.57c-0.63,0-1.29,0.2-1.77,0.5l-0.28-0.81c0.56-0.36,1.37-0.6,2.23-0.6c2.07,0,2.58,1.42,2.58,2.77v2.54
		c0,0.59,0.03,1.16,0.11,1.63H141.31z M141.13,52c-1.34-0.03-2.87,0.21-2.87,1.53c0,0.8,0.53,1.18,1.16,1.18
		c0.88,0,1.44-0.56,1.64-1.13c0.04-0.13,0.07-0.27,0.07-0.39V52z"/>
	<path d="M144.3,50.51c0-0.7-0.01-1.28-0.06-1.83h1.09l0.07,1.12h0.03c0.34-0.64,1.12-1.27,2.24-1.27c0.94,0,2.4,0.56,2.4,2.89v4.05
		h-1.23v-3.91c0-1.09-0.41-2-1.57-2c-0.81,0-1.44,0.57-1.65,1.26c-0.06,0.15-0.08,0.36-0.08,0.57v4.08h-1.23V50.51z M145.45,47.52
		c-0.03-0.91,0.35-1.46,0.95-1.46c0.31,0,0.55,0.13,0.87,0.31c0.22,0.13,0.42,0.24,0.59,0.24c0.22,0,0.36-0.13,0.39-0.6h0.66
		c0.01,0.94-0.31,1.42-0.97,1.42c-0.29,0-0.56-0.13-0.85-0.28c-0.28-0.17-0.43-0.25-0.6-0.25c-0.22,0-0.34,0.24-0.36,0.63H145.45z"
		/>
	<path d="M158.21,52.01c0,2.51-1.74,3.6-3.38,3.6c-1.83,0-3.25-1.34-3.25-3.49c0-2.27,1.48-3.6,3.36-3.6
		C156.89,48.52,158.21,49.94,158.21,52.01z M152.83,52.08c0,1.49,0.85,2.61,2.06,2.61c1.18,0,2.06-1.11,2.06-2.63
		c0-1.15-0.57-2.6-2.03-2.6C153.46,49.45,152.83,50.79,152.83,52.08z"/>
</g>
<linearGradient id="SVGID_4_" gradientUnits="userSpaceOnUse" x1="256.3258" y1="42" x2="493.6742" y2="42">
	<stop  offset="0" style="stop-color:#8FCCD5"/>
	<stop  offset="0.5" style="stop-color:#5BBAC7"/>
	<stop  offset="1" style="stop-color:#00AAB9"/>
</linearGradient>
<polygon class="st3" points="460.89,8.5 264.47,8.5 296.26,42 264.47,75.5 460.89,75.5 489.1,42 "/>
<g>
	<path d="M322.31,34.51c-0.07-1.32-0.15-2.9-0.14-4.08h-0.04c-0.32,1.11-0.71,2.28-1.19,3.59l-1.67,4.58h-0.92l-1.53-4.5
		c-0.45-1.33-0.83-2.55-1.09-3.67h-0.03c-0.03,1.18-0.1,2.76-0.18,4.17l-0.25,4.05h-1.16l0.66-9.44h1.56l1.61,4.57
		c0.39,1.16,0.71,2.2,0.95,3.18h0.04c0.24-0.95,0.58-1.99,1-3.18l1.68-4.57h1.55l0.59,9.44h-1.19L322.31,34.51z"/>
	<path d="M331.79,35.21c0,2.51-1.74,3.6-3.38,3.6c-1.83,0-3.25-1.34-3.25-3.49c0-2.27,1.48-3.6,3.36-3.6
		C330.47,31.72,331.79,33.14,331.79,35.21z M326.41,35.28c0,1.49,0.86,2.61,2.06,2.61c1.18,0,2.06-1.11,2.06-2.63
		c0-1.15-0.57-2.6-2.03-2.6S326.41,33.99,326.41,35.28z"/>
	<path d="M339.2,28.71v8.19c0,0.6,0.01,1.29,0.06,1.75h-1.11l-0.06-1.18h-0.03c-0.38,0.76-1.2,1.33-2.31,1.33
		c-1.64,0-2.9-1.39-2.9-3.45c-0.01-2.25,1.39-3.64,3.04-3.64c1.04,0,1.74,0.49,2.05,1.04h0.03v-4.05H339.2z M337.96,34.64
		c0-0.15-0.01-0.36-0.06-0.52c-0.18-0.79-0.85-1.43-1.78-1.43c-1.27,0-2.03,1.12-2.03,2.62c0,1.37,0.67,2.51,2,2.51
		c0.83,0,1.58-0.55,1.81-1.47c0.04-0.17,0.06-0.34,0.06-0.53V34.64z"/>
	<path d="M341.92,35.49c0.03,1.67,1.09,2.35,2.33,2.35c0.88,0,1.41-0.15,1.88-0.35l0.21,0.88c-0.43,0.2-1.18,0.42-2.25,0.42
		c-2.09,0-3.33-1.37-3.33-3.42c0-2.05,1.21-3.66,3.18-3.66c2.21,0,2.8,1.95,2.8,3.19c0,0.25-0.03,0.45-0.04,0.57H341.92z
		 M345.54,34.61c0.01-0.79-0.32-2-1.71-2c-1.25,0-1.79,1.15-1.89,2H345.54z"/>
	<path d="M348.25,28.71h1.23v9.95h-1.23V28.71z"/>
	<path d="M357.69,35.21c0,2.51-1.74,3.6-3.38,3.6c-1.83,0-3.25-1.34-3.25-3.49c0-2.27,1.49-3.6,3.36-3.6
		C356.38,31.72,357.69,33.14,357.69,35.21z M352.31,35.28c0,1.49,0.85,2.61,2.06,2.61c1.18,0,2.06-1.11,2.06-2.63
		c0-1.15-0.57-2.6-2.03-2.6C352.94,32.65,352.31,33.99,352.31,35.28z"/>
	<path d="M359.07,37.4c0.36,0.24,1.01,0.49,1.63,0.49c0.9,0,1.32-0.45,1.32-1.01c0-0.59-0.35-0.91-1.26-1.25
		c-1.22-0.43-1.79-1.11-1.79-1.92c0-1.09,0.88-1.99,2.34-1.99c0.69,0,1.29,0.2,1.67,0.42l-0.31,0.9c-0.27-0.17-0.76-0.39-1.39-0.39
		c-0.73,0-1.13,0.42-1.13,0.92c0,0.56,0.41,0.81,1.29,1.15c1.18,0.45,1.78,1.04,1.78,2.05c0,1.19-0.92,2.03-2.54,2.03
		c-0.74,0-1.43-0.18-1.9-0.46L359.07,37.4z"/>
	<path d="M367.7,38.66c0.03-0.46,0.06-1.15,0.06-1.75v-8.19h1.22v4.26H369c0.43-0.76,1.22-1.25,2.31-1.25c1.68,0,2.87,1.4,2.86,3.46
		c0,2.42-1.53,3.63-3.04,3.63c-0.98,0-1.76-0.38-2.27-1.27h-0.04l-0.06,1.12H367.7z M368.97,35.94c0,0.15,0.03,0.31,0.06,0.45
		c0.24,0.85,0.95,1.44,1.85,1.44c1.29,0,2.06-1.05,2.06-2.61c0-1.36-0.7-2.52-2.02-2.52c-0.84,0-1.63,0.57-1.88,1.51
		c-0.03,0.14-0.07,0.31-0.07,0.5V35.94z"/>
	<path d="M379.47,38.66l-0.1-0.85h-0.04c-0.38,0.53-1.11,1.01-2.07,1.01c-1.37,0-2.07-0.97-2.07-1.95c0-1.64,1.46-2.54,4.08-2.52
		V34.2c0-0.56-0.15-1.57-1.54-1.57c-0.63,0-1.29,0.2-1.77,0.5l-0.28-0.81c0.56-0.36,1.37-0.6,2.23-0.6c2.07,0,2.58,1.42,2.58,2.77
		v2.54c0,0.59,0.03,1.16,0.11,1.63H379.47z M379.29,35.2c-1.34-0.03-2.87,0.21-2.87,1.53c0,0.8,0.53,1.18,1.16,1.18
		c0.88,0,1.44-0.56,1.64-1.13c0.04-0.13,0.07-0.27,0.07-0.39V35.2z"/>
	<path d="M382.3,37.4c0.37,0.24,1.01,0.49,1.63,0.49c0.9,0,1.32-0.45,1.32-1.01c0-0.59-0.35-0.91-1.26-1.25
		c-1.22-0.43-1.79-1.11-1.79-1.92c0-1.09,0.88-1.99,2.34-1.99c0.69,0,1.29,0.2,1.67,0.42l-0.31,0.9c-0.27-0.17-0.76-0.39-1.39-0.39
		c-0.73,0-1.13,0.42-1.13,0.92c0,0.56,0.41,0.81,1.29,1.15c1.18,0.45,1.78,1.04,1.78,2.05c0,1.19-0.92,2.03-2.54,2.03
		c-0.74,0-1.43-0.18-1.91-0.46L382.3,37.4z"/>
	<path d="M391.77,38.66l-0.1-0.85h-0.04c-0.38,0.53-1.11,1.01-2.07,1.01c-1.37,0-2.07-0.97-2.07-1.95c0-1.64,1.46-2.54,4.08-2.52
		V34.2c0-0.56-0.15-1.57-1.54-1.57c-0.63,0-1.29,0.2-1.76,0.5l-0.28-0.81c0.56-0.36,1.37-0.6,2.23-0.6c2.07,0,2.58,1.42,2.58,2.77
		v2.54c0,0.59,0.03,1.16,0.11,1.63H391.77z M391.58,35.2c-1.35-0.03-2.87,0.21-2.87,1.53c0,0.8,0.53,1.18,1.16,1.18
		c0.88,0,1.44-0.56,1.64-1.13c0.04-0.13,0.07-0.27,0.07-0.39V35.2z"/>
	<path d="M400.62,28.71v8.19c0,0.6,0.01,1.29,0.05,1.75h-1.11l-0.06-1.18h-0.03c-0.38,0.76-1.21,1.33-2.31,1.33
		c-1.64,0-2.9-1.39-2.9-3.45c-0.01-2.25,1.39-3.64,3.04-3.64c1.04,0,1.74,0.49,2.04,1.04h0.03v-4.05H400.62z M399.38,34.64
		c0-0.15-0.01-0.36-0.06-0.52c-0.18-0.79-0.86-1.43-1.78-1.43c-1.28,0-2.03,1.12-2.03,2.62c0,1.37,0.67,2.51,2,2.51
		c0.83,0,1.58-0.55,1.81-1.47c0.04-0.17,0.06-0.34,0.06-0.53V34.64z"/>
	<path d="M408.79,35.21c0,2.51-1.74,3.6-3.38,3.6c-1.83,0-3.25-1.34-3.25-3.49c0-2.27,1.49-3.6,3.36-3.6
		C407.47,31.72,408.79,33.14,408.79,35.21z M403.41,35.28c0,1.49,0.85,2.61,2.06,2.61c1.18,0,2.06-1.11,2.06-2.63
		c0-1.15-0.57-2.6-2.03-2.6C404.04,32.65,403.41,33.99,403.41,35.28z"/>
	<path d="M410.17,37.4c0.36,0.24,1.01,0.49,1.63,0.49c0.9,0,1.32-0.45,1.32-1.01c0-0.59-0.35-0.91-1.26-1.25
		c-1.22-0.43-1.79-1.11-1.79-1.92c0-1.09,0.88-1.99,2.34-1.99c0.69,0,1.29,0.2,1.67,0.42l-0.31,0.9c-0.27-0.17-0.76-0.39-1.39-0.39
		c-0.73,0-1.13,0.42-1.13,0.92c0,0.56,0.41,0.81,1.29,1.15c1.18,0.45,1.78,1.04,1.78,2.05c0,1.19-0.92,2.03-2.54,2.03
		c-0.74,0-1.43-0.18-1.9-0.46L410.17,37.4z"/>
	<path d="M419.54,35.49c0.03,1.67,1.09,2.35,2.33,2.35c0.88,0,1.41-0.15,1.88-0.35l0.21,0.88c-0.43,0.2-1.18,0.42-2.25,0.42
		c-2.09,0-3.33-1.37-3.33-3.42c0-2.05,1.2-3.66,3.18-3.66c2.21,0,2.8,1.95,2.8,3.19c0,0.25-0.03,0.45-0.04,0.57H419.54z
		 M423.15,34.61c0.01-0.79-0.32-2-1.71-2c-1.25,0-1.79,1.15-1.89,2H423.15z"/>
	<path d="M425.87,33.71c0-0.7-0.01-1.28-0.06-1.83h1.09l0.07,1.12H427c0.34-0.64,1.12-1.27,2.24-1.27c0.94,0,2.4,0.56,2.4,2.89v4.05
		h-1.23v-3.91c0-1.09-0.41-2-1.57-2c-0.81,0-1.44,0.57-1.65,1.26c-0.06,0.15-0.08,0.36-0.08,0.57v4.08h-1.23V33.71z"/>
	<path d="M436.6,28.71h1.23v9.95h-1.23V28.71z"/>
	<path d="M443.66,38.66l-0.1-0.85h-0.04c-0.38,0.53-1.11,1.01-2.07,1.01c-1.37,0-2.07-0.97-2.07-1.95c0-1.64,1.46-2.54,4.08-2.52
		V34.2c0-0.56-0.15-1.57-1.54-1.57c-0.63,0-1.29,0.2-1.77,0.5l-0.28-0.81c0.56-0.36,1.37-0.6,2.23-0.6c2.07,0,2.58,1.42,2.58,2.77
		v2.54c0,0.59,0.03,1.16,0.11,1.63H443.66z M443.48,35.2c-1.35-0.03-2.87,0.21-2.87,1.53c0,0.8,0.53,1.18,1.16,1.18
		c0.88,0,1.44-0.56,1.64-1.13c0.04-0.13,0.07-0.27,0.07-0.39V35.2z"/>
	<path d="M324.27,52.29c0.03,1.67,1.09,2.35,2.33,2.35c0.88,0,1.41-0.15,1.88-0.35l0.21,0.88c-0.43,0.2-1.18,0.42-2.25,0.42
		c-2.09,0-3.33-1.37-3.33-3.42c0-2.05,1.21-3.66,3.18-3.66c2.21,0,2.8,1.95,2.8,3.19c0,0.25-0.03,0.45-0.04,0.57H324.27z
		 M327.88,51.41c0.01-0.79-0.32-2-1.71-2c-1.25,0-1.79,1.15-1.89,2H327.88z"/>
	<path d="M336.45,45.51v8.19c0,0.6,0.01,1.29,0.06,1.75h-1.11l-0.06-1.18h-0.03c-0.38,0.76-1.21,1.33-2.31,1.33
		c-1.64,0-2.9-1.39-2.9-3.45c-0.01-2.25,1.39-3.64,3.04-3.64c1.04,0,1.74,0.49,2.05,1.04h0.03v-4.05H336.45z M335.22,51.44
		c0-0.15-0.01-0.36-0.06-0.52c-0.18-0.79-0.85-1.43-1.78-1.43c-1.27,0-2.03,1.12-2.03,2.62c0,1.37,0.67,2.51,2,2.51
		c0.83,0,1.58-0.55,1.81-1.47c0.04-0.17,0.06-0.34,0.06-0.53V51.44z"/>
	<path d="M342.25,55.46l-0.1-0.85h-0.04c-0.38,0.53-1.11,1.01-2.07,1.01c-1.37,0-2.07-0.97-2.07-1.95c0-1.64,1.46-2.54,4.08-2.52V51
		c0-0.56-0.15-1.57-1.54-1.57c-0.63,0-1.29,0.2-1.76,0.5l-0.28-0.81c0.56-0.36,1.37-0.6,2.23-0.6c2.07,0,2.58,1.42,2.58,2.77v2.54
		c0,0.59,0.03,1.16,0.11,1.63H342.25z M342.07,52c-1.35-0.03-2.87,0.21-2.87,1.53c0,0.8,0.53,1.18,1.16,1.18
		c0.88,0,1.44-0.56,1.64-1.13c0.04-0.13,0.07-0.27,0.07-0.39V52z"/>
	<path d="M351.1,45.51v8.19c0,0.6,0.01,1.29,0.05,1.75h-1.11l-0.06-1.18h-0.03c-0.38,0.76-1.21,1.33-2.31,1.33
		c-1.64,0-2.9-1.39-2.9-3.45c-0.01-2.25,1.39-3.64,3.04-3.64c1.04,0,1.74,0.49,2.04,1.04h0.03v-4.05H351.1z M349.86,51.44
		c0-0.15-0.01-0.36-0.06-0.52c-0.18-0.79-0.86-1.43-1.78-1.43c-1.28,0-2.03,1.12-2.03,2.62c0,1.37,0.67,2.51,2,2.51
		c0.83,0,1.58-0.55,1.81-1.47c0.04-0.17,0.06-0.34,0.06-0.53V51.44z"/>
	<path d="M358.78,45.74c-1.02,1.37-1.77,3.19-1.77,5.73c0,2.49,0.77,4.29,1.77,5.69h-0.97c-0.88-1.16-1.83-2.96-1.83-5.69
		c0.01-2.76,0.95-4.55,1.83-5.73H358.78z"/>
	<path d="M366.22,52.01c0,2.51-1.74,3.6-3.38,3.6c-1.84,0-3.25-1.34-3.25-3.49c0-2.27,1.48-3.6,3.36-3.6
		C364.9,48.52,366.22,49.94,366.22,52.01z M360.84,52.08c0,1.49,0.85,2.61,2.06,2.61c1.18,0,2.06-1.11,2.06-2.63
		c0-1.15-0.57-2.6-2.03-2.6C361.47,49.45,360.84,50.79,360.84,52.08z"/>
	<path d="M372.11,46.77c0.01,0.42-0.29,0.76-0.78,0.76c-0.43,0-0.74-0.34-0.74-0.76c0-0.43,0.32-0.77,0.77-0.77
		C371.81,46,372.11,46.34,372.11,46.77z M370.74,55.46v-6.78h1.23v6.78H370.74z"/>
	<path d="M374.01,50.51c0-0.7-0.01-1.28-0.06-1.83h1.09l0.07,1.12h0.03c0.34-0.64,1.12-1.27,2.24-1.27c0.94,0,2.4,0.56,2.4,2.89
		v4.05h-1.23v-3.91c0-1.09-0.41-2-1.57-2c-0.81,0-1.44,0.57-1.65,1.26c-0.06,0.15-0.08,0.36-0.08,0.57v4.08h-1.23V50.51z"/>
	<path d="M383.21,46.73v1.95h1.76v0.94h-1.76v3.66c0,0.84,0.24,1.32,0.92,1.32c0.32,0,0.56-0.04,0.71-0.08l0.05,0.92
		c-0.24,0.1-0.62,0.17-1.09,0.17c-0.57,0-1.04-0.18-1.33-0.52c-0.35-0.36-0.48-0.97-0.48-1.77v-3.7h-1.05v-0.94h1.05v-1.63
		L383.21,46.73z"/>
	<path d="M386.96,52.29c0.03,1.67,1.09,2.35,2.33,2.35c0.88,0,1.41-0.15,1.88-0.35l0.21,0.88c-0.43,0.2-1.18,0.42-2.25,0.42
		c-2.09,0-3.33-1.37-3.33-3.42c0-2.05,1.2-3.66,3.18-3.66c2.21,0,2.8,1.95,2.8,3.19c0,0.25-0.03,0.45-0.04,0.57H386.96z
		 M390.58,51.41c0.01-0.79-0.32-2-1.71-2c-1.25,0-1.79,1.15-1.89,2H390.58z"/>
	<path d="M399.13,48.68c-0.03,0.49-0.06,1.04-0.06,1.86v3.94c0,1.55-0.31,2.51-0.97,3.1c-0.66,0.62-1.61,0.81-2.46,0.81
		c-0.81,0-1.71-0.2-2.26-0.56l0.31-0.94c0.45,0.28,1.15,0.53,1.99,0.53c1.26,0,2.19-0.66,2.19-2.37v-0.76h-0.03
		c-0.38,0.63-1.11,1.13-2.16,1.13c-1.68,0-2.88-1.43-2.88-3.31c0-2.3,1.5-3.6,3.05-3.6c1.18,0,1.82,0.62,2.12,1.18H398l0.06-1.02
		H399.13z M397.86,51.35c0-0.21-0.01-0.39-0.07-0.56c-0.22-0.71-0.83-1.3-1.72-1.3c-1.18,0-2.02,0.99-2.02,2.56
		c0,1.33,0.67,2.44,2,2.44c0.76,0,1.44-0.48,1.71-1.26c0.07-0.21,0.1-0.45,0.1-0.66V51.35z"/>
	<path d="M401.03,50.79c0-0.8-0.01-1.49-0.06-2.12h1.08l0.04,1.33h0.06c0.31-0.91,1.05-1.48,1.88-1.48c0.14,0,0.24,0.01,0.35,0.04
		v1.16c-0.13-0.03-0.25-0.04-0.42-0.04c-0.87,0-1.49,0.66-1.65,1.58c-0.03,0.17-0.06,0.36-0.06,0.57v3.61h-1.22V50.79z"/>
	<path d="M409.29,55.46l-0.1-0.85h-0.04c-0.38,0.53-1.11,1.01-2.07,1.01c-1.37,0-2.07-0.97-2.07-1.95c0-1.64,1.46-2.54,4.08-2.52V51
		c0-0.56-0.15-1.57-1.54-1.57c-0.63,0-1.29,0.2-1.76,0.5l-0.28-0.81c0.56-0.36,1.37-0.6,2.23-0.6c2.07,0,2.58,1.42,2.58,2.77v2.54
		c0,0.59,0.03,1.16,0.11,1.63H409.29z M409.11,52c-1.35-0.03-2.87,0.21-2.87,1.53c0,0.8,0.53,1.18,1.16,1.18
		c0.88,0,1.44-0.56,1.64-1.13c0.04-0.13,0.07-0.27,0.07-0.39V52z"/>
	<path d="M418.14,45.51v8.19c0,0.6,0.01,1.29,0.05,1.75h-1.11l-0.06-1.18h-0.03c-0.38,0.76-1.21,1.33-2.31,1.33
		c-1.64,0-2.9-1.39-2.9-3.45c-0.01-2.25,1.39-3.64,3.04-3.64c1.04,0,1.74,0.49,2.04,1.04h0.03v-4.05H418.14z M416.91,51.44
		c0-0.15-0.01-0.36-0.06-0.52c-0.18-0.79-0.86-1.43-1.78-1.43c-1.28,0-2.03,1.12-2.03,2.62c0,1.37,0.67,2.51,2,2.51
		c0.83,0,1.58-0.55,1.81-1.47c0.04-0.17,0.06-0.34,0.06-0.53V51.44z"/>
	<path d="M426.32,52.01c0,2.51-1.74,3.6-3.38,3.6c-1.83,0-3.25-1.34-3.25-3.49c0-2.27,1.49-3.6,3.36-3.6
		C425,48.52,426.32,49.94,426.32,52.01z M420.94,52.08c0,1.49,0.85,2.61,2.06,2.61c1.18,0,2.06-1.11,2.06-2.63
		c0-1.15-0.57-2.6-2.03-2.6C421.57,49.45,420.94,50.79,420.94,52.08z"/>
	<path d="M427.7,54.2c0.36,0.24,1.01,0.49,1.63,0.49c0.9,0,1.32-0.45,1.32-1.01c0-0.59-0.35-0.91-1.26-1.25
		c-1.22-0.43-1.79-1.11-1.79-1.92c0-1.09,0.88-1.99,2.34-1.99c0.69,0,1.29,0.2,1.67,0.42l-0.31,0.9c-0.27-0.17-0.76-0.39-1.39-0.39
		c-0.73,0-1.13,0.42-1.13,0.92c0,0.56,0.41,0.81,1.29,1.15c1.18,0.45,1.78,1.04,1.78,2.05c0,1.19-0.92,2.03-2.54,2.03
		c-0.74,0-1.43-0.18-1.9-0.46L427.7,54.2z"/>
	<path d="M432.67,57.15c1-1.39,1.77-3.21,1.77-5.73c0-2.51-0.76-4.3-1.77-5.69h0.95c0.9,1.15,1.83,2.94,1.83,5.7
		c0,2.75-0.94,4.52-1.83,5.72H432.67z"/>
</g>
<linearGradient id="SVGID_5_" gradientUnits="userSpaceOnUse" x1="476.3258" y1="42" x2="713.6743" y2="42">
	<stop  offset="0" style="stop-color:#8FCCD5"/>
	<stop  offset="0.5" style="stop-color:#5BBAC7"/>
	<stop  offset="1" style="stop-color:#00AAB9"/>
</linearGradient>
<polygon class="st4" points="680.89,8.5 484.47,8.5 516.26,42 484.47,75.5 680.89,75.5 709.1,42 "/>
<g>
	<path d="M548.82,25.51c-0.07-1.32-0.15-2.9-0.14-4.08h-0.04c-0.32,1.11-0.71,2.28-1.19,3.59l-1.67,4.58h-0.92l-1.53-4.5
		c-0.45-1.33-0.83-2.55-1.09-3.67h-0.03c-0.03,1.18-0.1,2.76-0.18,4.17l-0.25,4.05h-1.16l0.66-9.44h1.56l1.61,4.57
		c0.39,1.16,0.71,2.2,0.95,3.18h0.04c0.24-0.95,0.58-1.99,1-3.18l1.68-4.57h1.55l0.59,9.44h-1.19L548.82,25.51z"/>
	<path d="M558.3,26.21c0,2.51-1.74,3.6-3.38,3.6c-1.83,0-3.25-1.34-3.25-3.49c0-2.27,1.48-3.6,3.36-3.6
		C556.98,22.72,558.3,24.14,558.3,26.21z M552.92,26.28c0,1.49,0.86,2.61,2.06,2.61c1.18,0,2.06-1.11,2.06-2.63
		c0-1.15-0.57-2.6-2.03-2.6S552.92,24.99,552.92,26.28z"/>
	<path d="M565.71,19.71v8.19c0,0.6,0.01,1.29,0.06,1.75h-1.11l-0.06-1.18h-0.03c-0.38,0.76-1.2,1.33-2.31,1.33
		c-1.64,0-2.9-1.39-2.9-3.45c-0.01-2.25,1.39-3.64,3.04-3.64c1.04,0,1.74,0.49,2.05,1.04h0.03v-4.05H565.71z M564.47,25.64
		c0-0.15-0.01-0.36-0.06-0.52c-0.18-0.79-0.85-1.43-1.78-1.43c-1.27,0-2.03,1.12-2.03,2.62c0,1.37,0.67,2.51,2,2.51
		c0.83,0,1.58-0.55,1.81-1.47c0.04-0.17,0.06-0.34,0.06-0.53V25.64z"/>
	<path d="M568.43,26.49c0.03,1.67,1.09,2.35,2.33,2.35c0.88,0,1.41-0.15,1.88-0.35l0.21,0.88c-0.43,0.2-1.18,0.42-2.25,0.42
		c-2.09,0-3.33-1.37-3.33-3.42c0-2.05,1.21-3.66,3.18-3.66c2.21,0,2.8,1.95,2.8,3.19c0,0.25-0.03,0.45-0.04,0.57H568.43z
		 M572.05,25.61c0.01-0.79-0.32-2-1.71-2c-1.25,0-1.79,1.15-1.89,2H572.05z"/>
	<path d="M574.76,19.71h1.23v9.95h-1.23V19.71z"/>
	<path d="M584.2,26.21c0,2.51-1.74,3.6-3.38,3.6c-1.83,0-3.25-1.34-3.25-3.49c0-2.27,1.49-3.6,3.36-3.6
		C582.88,22.72,584.2,24.14,584.2,26.21z M578.82,26.28c0,1.49,0.85,2.61,2.06,2.61c1.18,0,2.06-1.11,2.06-2.63
		c0-1.15-0.57-2.6-2.03-2.6C579.45,23.65,578.82,24.99,578.82,26.28z"/>
	<path d="M585.58,28.4c0.36,0.24,1.01,0.49,1.63,0.49c0.9,0,1.32-0.45,1.32-1.01c0-0.59-0.35-0.91-1.26-1.25
		c-1.22-0.43-1.79-1.11-1.79-1.92c0-1.09,0.88-1.99,2.34-1.99c0.69,0,1.29,0.2,1.67,0.42l-0.31,0.9c-0.27-0.17-0.76-0.39-1.39-0.39
		c-0.73,0-1.13,0.42-1.13,0.92c0,0.56,0.41,0.81,1.29,1.15c1.18,0.45,1.78,1.04,1.78,2.05c0,1.19-0.92,2.03-2.54,2.03
		c-0.74,0-1.43-0.18-1.9-0.46L585.58,28.4z"/>
	<path d="M594.21,29.66c0.03-0.46,0.06-1.15,0.06-1.75v-8.19h1.22v4.26h0.03c0.43-0.76,1.22-1.25,2.31-1.25
		c1.68,0,2.87,1.4,2.86,3.46c0,2.42-1.53,3.63-3.04,3.63c-0.98,0-1.76-0.38-2.27-1.27h-0.04l-0.06,1.12H594.21z M595.48,26.94
		c0,0.15,0.03,0.31,0.06,0.45c0.24,0.85,0.95,1.44,1.85,1.44c1.29,0,2.06-1.05,2.06-2.61c0-1.36-0.7-2.52-2.02-2.52
		c-0.84,0-1.63,0.57-1.88,1.51c-0.03,0.14-0.07,0.31-0.07,0.5V26.94z"/>
	<path d="M605.98,29.66l-0.1-0.85h-0.04c-0.38,0.53-1.11,1.01-2.07,1.01c-1.37,0-2.07-0.97-2.07-1.95c0-1.64,1.46-2.54,4.08-2.52
		V25.2c0-0.56-0.15-1.57-1.54-1.57c-0.63,0-1.29,0.2-1.77,0.5l-0.28-0.81c0.56-0.36,1.37-0.6,2.23-0.6c2.07,0,2.58,1.42,2.58,2.77
		v2.54c0,0.59,0.03,1.16,0.11,1.63H605.98z M605.8,26.2c-1.34-0.03-2.87,0.21-2.87,1.53c0,0.8,0.53,1.18,1.16,1.18
		c0.88,0,1.44-0.56,1.64-1.13c0.04-0.13,0.07-0.27,0.07-0.39V26.2z"/>
	<path d="M608.81,28.4c0.37,0.24,1.01,0.49,1.63,0.49c0.9,0,1.32-0.45,1.32-1.01c0-0.59-0.35-0.91-1.26-1.25
		c-1.22-0.43-1.79-1.11-1.79-1.92c0-1.09,0.88-1.99,2.34-1.99c0.69,0,1.29,0.2,1.67,0.42l-0.31,0.9c-0.27-0.17-0.76-0.39-1.39-0.39
		c-0.73,0-1.13,0.42-1.13,0.92c0,0.56,0.41,0.81,1.29,1.15c1.18,0.45,1.78,1.04,1.78,2.05c0,1.19-0.92,2.03-2.54,2.03
		c-0.74,0-1.43-0.18-1.91-0.46L608.81,28.4z"/>
	<path d="M618.28,29.66l-0.1-0.85h-0.04c-0.38,0.53-1.11,1.01-2.07,1.01c-1.37,0-2.07-0.97-2.07-1.95c0-1.64,1.46-2.54,4.08-2.52
		V25.2c0-0.56-0.15-1.57-1.54-1.57c-0.63,0-1.29,0.2-1.76,0.5l-0.28-0.81c0.56-0.36,1.37-0.6,2.23-0.6c2.07,0,2.58,1.42,2.58,2.77
		v2.54c0,0.59,0.03,1.16,0.11,1.63H618.28z M618.09,26.2c-1.35-0.03-2.87,0.21-2.87,1.53c0,0.8,0.53,1.18,1.16,1.18
		c0.88,0,1.44-0.56,1.64-1.13c0.04-0.13,0.07-0.27,0.07-0.39V26.2z"/>
	<path d="M627.13,19.71v8.19c0,0.6,0.01,1.29,0.05,1.75h-1.11l-0.06-1.18h-0.03c-0.38,0.76-1.21,1.33-2.31,1.33
		c-1.64,0-2.9-1.39-2.9-3.45c-0.01-2.25,1.39-3.64,3.04-3.64c1.04,0,1.74,0.49,2.04,1.04h0.03v-4.05H627.13z M625.89,25.64
		c0-0.15-0.01-0.36-0.06-0.52c-0.18-0.79-0.86-1.43-1.78-1.43c-1.28,0-2.03,1.12-2.03,2.62c0,1.37,0.67,2.51,2,2.51
		c0.83,0,1.58-0.55,1.81-1.47c0.04-0.17,0.06-0.34,0.06-0.53V25.64z"/>
	<path d="M635.3,26.21c0,2.51-1.74,3.6-3.38,3.6c-1.83,0-3.25-1.34-3.25-3.49c0-2.27,1.49-3.6,3.36-3.6
		C633.98,22.72,635.3,24.14,635.3,26.21z M629.92,26.28c0,1.49,0.85,2.61,2.06,2.61c1.18,0,2.06-1.11,2.06-2.63
		c0-1.15-0.57-2.6-2.03-2.6C630.55,23.65,629.92,24.99,629.92,26.28z"/>
	<path d="M636.68,28.4c0.36,0.24,1.01,0.49,1.63,0.49c0.9,0,1.32-0.45,1.32-1.01c0-0.59-0.35-0.91-1.26-1.25
		c-1.22-0.43-1.79-1.11-1.79-1.92c0-1.09,0.88-1.99,2.34-1.99c0.69,0,1.29,0.2,1.67,0.42l-0.31,0.9c-0.27-0.17-0.76-0.39-1.39-0.39
		c-0.73,0-1.13,0.42-1.13,0.92c0,0.56,0.41,0.81,1.29,1.15c1.18,0.45,1.78,1.04,1.78,2.05c0,1.19-0.92,2.03-2.54,2.03
		c-0.74,0-1.43-0.18-1.9-0.46L636.68,28.4z"/>
	<path d="M646.05,26.49c0.03,1.67,1.09,2.35,2.33,2.35c0.88,0,1.41-0.15,1.88-0.35l0.21,0.88c-0.43,0.2-1.18,0.42-2.25,0.42
		c-2.09,0-3.33-1.37-3.33-3.42c0-2.05,1.2-3.66,3.18-3.66c2.21,0,2.8,1.95,2.8,3.19c0,0.25-0.03,0.45-0.04,0.57H646.05z
		 M649.66,25.61c0.01-0.79-0.32-2-1.71-2c-1.25,0-1.79,1.15-1.89,2H649.66z"/>
	<path d="M652.38,24.71c0-0.7-0.01-1.28-0.06-1.83h1.09l0.07,1.12h0.03c0.34-0.64,1.12-1.27,2.24-1.27c0.94,0,2.4,0.56,2.4,2.89
		v4.05h-1.23v-3.91c0-1.09-0.41-2-1.57-2c-0.81,0-1.44,0.57-1.65,1.26c-0.06,0.15-0.08,0.36-0.08,0.57v4.08h-1.23V24.71z"/>
	<path d="M547.12,36.51h1.23v9.95h-1.23V36.51z"/>
	<path d="M556.56,43.01c0,2.51-1.74,3.6-3.38,3.6c-1.83,0-3.25-1.34-3.25-3.49c0-2.27,1.49-3.6,3.36-3.6
		C555.24,39.52,556.56,40.94,556.56,43.01z M551.18,43.08c0,1.49,0.85,2.61,2.06,2.61c1.18,0,2.06-1.11,2.06-2.63
		c0-1.15-0.57-2.6-2.03-2.6C551.81,40.45,551.18,41.79,551.18,43.08z"/>
	<path d="M558.11,41.51c0-0.7-0.01-1.28-0.06-1.83h1.09l0.07,1.12h0.03c0.34-0.64,1.12-1.27,2.24-1.27c0.94,0,2.4,0.56,2.4,2.89
		v4.05h-1.23v-3.91c0-1.09-0.41-2-1.57-2c-0.81,0-1.44,0.57-1.65,1.26c-0.06,0.15-0.08,0.36-0.08,0.57v4.08h-1.23V41.51z"/>
	<path d="M571.72,39.68c-0.03,0.49-0.06,1.04-0.06,1.86v3.94c0,1.55-0.31,2.51-0.97,3.1c-0.66,0.62-1.61,0.81-2.46,0.81
		c-0.81,0-1.71-0.2-2.26-0.56l0.31-0.94c0.45,0.28,1.15,0.53,1.99,0.53c1.26,0,2.18-0.66,2.18-2.37v-0.76h-0.03
		c-0.38,0.63-1.11,1.13-2.16,1.13c-1.68,0-2.89-1.43-2.89-3.31c0-2.3,1.5-3.6,3.05-3.6c1.18,0,1.82,0.62,2.12,1.18h0.03l0.06-1.02
		H571.72z M570.45,42.35c0-0.21-0.01-0.39-0.07-0.56c-0.22-0.71-0.83-1.3-1.72-1.3c-1.18,0-2.02,0.99-2.02,2.56
		c0,1.33,0.67,2.44,2,2.44c0.76,0,1.44-0.48,1.71-1.26c0.07-0.21,0.1-0.45,0.1-0.66V42.35z"/>
	<path d="M574.99,37.77c0.01,0.42-0.29,0.76-0.79,0.76c-0.43,0-0.74-0.34-0.74-0.76c0-0.43,0.32-0.77,0.77-0.77
		C574.7,37,574.99,37.34,574.99,37.77z M573.62,46.46v-6.78h1.23v6.78H573.62z"/>
	<path d="M578.38,37.73v1.95h1.77v0.94h-1.77v3.66c0,0.84,0.24,1.32,0.92,1.32c0.32,0,0.56-0.04,0.71-0.08l0.06,0.92
		c-0.24,0.1-0.62,0.17-1.09,0.17c-0.58,0-1.04-0.18-1.33-0.52c-0.35-0.36-0.48-0.97-0.48-1.77v-3.7h-1.05v-0.94h1.05v-1.63
		L578.38,37.73z"/>
	<path d="M587.2,44.61c0,0.7,0.01,1.32,0.06,1.85h-1.09l-0.07-1.11h-0.03c-0.32,0.55-1.04,1.26-2.24,1.26
		c-1.06,0-2.34-0.59-2.34-2.97v-3.96h1.23v3.75c0,1.29,0.39,2.16,1.51,2.16c0.83,0,1.4-0.57,1.63-1.12
		c0.07-0.18,0.11-0.41,0.11-0.63v-4.16h1.23V44.61z"/>
	<path d="M595.1,36.51v8.19c0,0.6,0.01,1.29,0.06,1.75h-1.11l-0.06-1.18h-0.03c-0.38,0.76-1.21,1.33-2.31,1.33
		c-1.64,0-2.9-1.39-2.9-3.45c-0.01-2.25,1.39-3.64,3.04-3.64c1.04,0,1.74,0.49,2.05,1.04h0.03v-4.05H595.1z M593.87,42.44
		c0-0.15-0.01-0.36-0.06-0.52c-0.18-0.79-0.85-1.43-1.78-1.43c-1.27,0-2.03,1.12-2.03,2.62c0,1.37,0.67,2.51,2,2.51
		c0.83,0,1.58-0.55,1.81-1.47c0.04-0.17,0.06-0.34,0.06-0.53V42.44z"/>
	<path d="M600.56,39.68l1.48,4.01c0.15,0.45,0.32,0.98,0.43,1.39h0.03c0.13-0.41,0.27-0.92,0.43-1.42l1.34-3.98h1.3l-1.85,4.83
		c-0.88,2.33-1.49,3.52-2.33,4.24c-0.6,0.53-1.2,0.74-1.51,0.8l-0.31-1.04c0.31-0.1,0.71-0.29,1.08-0.6
		c0.34-0.27,0.76-0.74,1.04-1.37c0.06-0.13,0.1-0.22,0.1-0.29s-0.03-0.17-0.08-0.32l-2.51-6.25H600.56z"/>
	<path d="M610.36,43.29c0.03,1.67,1.09,2.35,2.33,2.35c0.88,0,1.41-0.15,1.88-0.35l0.21,0.88c-0.43,0.2-1.18,0.42-2.25,0.42
		c-2.09,0-3.33-1.37-3.33-3.42c0-2.05,1.2-3.66,3.18-3.66c2.21,0,2.8,1.95,2.8,3.19c0,0.25-0.03,0.45-0.04,0.57H610.36z
		 M613.97,42.41c0.01-0.79-0.32-2-1.71-2c-1.25,0-1.79,1.15-1.89,2H613.97z"/>
	<path d="M622.54,36.51v8.19c0,0.6,0.01,1.29,0.05,1.75h-1.11l-0.06-1.18h-0.03c-0.38,0.76-1.21,1.33-2.31,1.33
		c-1.64,0-2.9-1.39-2.9-3.45c-0.01-2.25,1.39-3.64,3.04-3.64c1.04,0,1.74,0.49,2.04,1.04h0.03v-4.05H622.54z M621.31,42.44
		c0-0.15-0.01-0.36-0.06-0.52c-0.18-0.79-0.86-1.43-1.78-1.43c-1.28,0-2.03,1.12-2.03,2.62c0,1.37,0.67,2.51,2,2.51
		c0.83,0,1.58-0.55,1.81-1.47c0.04-0.17,0.06-0.34,0.06-0.53V42.44z"/>
	<path d="M628.33,46.46l-0.1-0.85h-0.04c-0.38,0.53-1.11,1.01-2.07,1.01c-1.37,0-2.07-0.97-2.07-1.95c0-1.64,1.46-2.54,4.08-2.52V42
		c0-0.56-0.15-1.57-1.54-1.57c-0.63,0-1.29,0.2-1.76,0.5l-0.28-0.81c0.56-0.36,1.37-0.6,2.23-0.6c2.07,0,2.58,1.42,2.58,2.77v2.54
		c0,0.59,0.03,1.16,0.11,1.63H628.33z M628.15,43c-1.34-0.03-2.87,0.21-2.87,1.53c0,0.8,0.53,1.18,1.16,1.18
		c0.88,0,1.44-0.56,1.64-1.13c0.04-0.13,0.07-0.27,0.07-0.39V43z"/>
	<path d="M637.18,36.51v8.19c0,0.6,0.01,1.29,0.06,1.75h-1.11l-0.06-1.18h-0.03c-0.38,0.76-1.2,1.33-2.31,1.33
		c-1.64,0-2.9-1.39-2.9-3.45c-0.01-2.25,1.39-3.64,3.04-3.64c1.04,0,1.74,0.49,2.04,1.04h0.03v-4.05H637.18z M635.95,42.44
		c0-0.15-0.01-0.36-0.06-0.52c-0.18-0.79-0.85-1.43-1.78-1.43c-1.28,0-2.03,1.12-2.03,2.62c0,1.37,0.67,2.51,2,2.51
		c0.83,0,1.58-0.55,1.81-1.47c0.04-0.17,0.06-0.34,0.06-0.53V42.44z"/>
	<path d="M644.87,36.74c-1.02,1.37-1.77,3.19-1.77,5.73c0,2.49,0.77,4.29,1.77,5.69h-0.97c-0.88-1.16-1.84-2.96-1.84-5.69
		c0.01-2.76,0.95-4.55,1.84-5.73H644.87z"/>
	<path d="M652.3,43.01c0,2.51-1.74,3.6-3.38,3.6c-1.83,0-3.25-1.34-3.25-3.49c0-2.27,1.49-3.6,3.36-3.6
		C650.99,39.52,652.3,40.94,652.3,43.01z M646.92,43.08c0,1.49,0.85,2.61,2.06,2.61c1.18,0,2.06-1.11,2.06-2.63
		c0-1.15-0.57-2.6-2.03-2.6C647.55,40.45,646.92,41.79,646.92,43.08z"/>
	<path d="M534.72,54.53v1.95h1.76v0.94h-1.76v3.66c0,0.84,0.24,1.32,0.92,1.32c0.32,0,0.56-0.04,0.71-0.08l0.05,0.92
		c-0.24,0.1-0.62,0.17-1.09,0.17c-0.57,0-1.04-0.18-1.33-0.52c-0.35-0.36-0.48-0.97-0.48-1.77v-3.7h-1.05v-0.94h1.05v-1.63
		L534.72,54.53z"/>
	<path d="M543.92,59.81c0,2.51-1.74,3.6-3.38,3.6c-1.84,0-3.25-1.34-3.25-3.49c0-2.27,1.48-3.6,3.36-3.6
		C542.6,56.32,543.92,57.74,543.92,59.81z M538.54,59.88c0,1.49,0.85,2.61,2.06,2.61c1.18,0,2.06-1.11,2.06-2.63
		c0-1.15-0.57-2.6-2.03-2.6C539.17,57.25,538.54,58.59,538.54,59.88z"/>
	<path d="M546.95,54.53v1.95h1.77v0.94h-1.77v3.66c0,0.84,0.24,1.32,0.92,1.32c0.32,0,0.56-0.04,0.71-0.08l0.06,0.92
		c-0.24,0.1-0.62,0.17-1.09,0.17c-0.58,0-1.04-0.18-1.33-0.52c-0.35-0.36-0.48-0.97-0.48-1.77v-3.7h-1.05v-0.94h1.05v-1.63
		L546.95,54.53z"/>
	<path d="M553.85,63.26l-0.1-0.85h-0.04c-0.38,0.53-1.11,1.01-2.07,1.01c-1.37,0-2.07-0.97-2.07-1.95c0-1.64,1.46-2.54,4.08-2.52
		V58.8c0-0.56-0.15-1.57-1.54-1.57c-0.63,0-1.29,0.2-1.76,0.5l-0.28-0.81c0.56-0.36,1.37-0.6,2.23-0.6c2.07,0,2.58,1.42,2.58,2.77
		v2.54c0,0.59,0.03,1.16,0.11,1.63H553.85z M553.67,59.8c-1.34-0.03-2.87,0.21-2.87,1.53c0,0.8,0.53,1.18,1.16,1.18
		c0.88,0,1.44-0.56,1.64-1.13c0.04-0.13,0.07-0.27,0.07-0.39V59.8z"/>
	<path d="M556.85,53.31h1.23v9.95h-1.23V53.31z"/>
	<path d="M560.15,58.31c0-0.7-0.01-1.28-0.06-1.83h1.08l0.06,1.09h0.04c0.38-0.64,1.01-1.25,2.13-1.25c0.92,0,1.63,0.56,1.92,1.36
		h0.03c0.21-0.38,0.48-0.67,0.76-0.88c0.41-0.31,0.85-0.48,1.5-0.48c0.9,0,2.23,0.59,2.23,2.94v3.99h-1.21v-3.84
		c0-1.3-0.48-2.09-1.47-2.09c-0.7,0-1.25,0.52-1.46,1.12c-0.06,0.17-0.1,0.39-0.1,0.62v4.19h-1.21V59.2c0-1.08-0.48-1.86-1.41-1.86
		c-0.77,0-1.33,0.62-1.53,1.23c-0.07,0.18-0.1,0.39-0.1,0.6v4.09h-1.21V58.31z"/>
	<path d="M572.51,60.09c0.03,1.67,1.09,2.35,2.33,2.35c0.88,0,1.41-0.15,1.88-0.35l0.21,0.88c-0.43,0.2-1.18,0.42-2.25,0.42
		c-2.09,0-3.33-1.37-3.33-3.42c0-2.05,1.21-3.66,3.18-3.66c2.21,0,2.8,1.95,2.8,3.19c0,0.25-0.03,0.45-0.04,0.57H572.51z
		 M576.13,59.21c0.01-0.79-0.32-2-1.71-2c-1.25,0-1.79,1.15-1.89,2H576.13z"/>
	<path d="M578.84,58.31c0-0.7-0.01-1.28-0.06-1.83h1.09l0.07,1.12h0.03c0.34-0.64,1.12-1.27,2.24-1.27c0.94,0,2.4,0.56,2.4,2.89
		v4.05h-1.23v-3.91c0-1.09-0.41-2-1.57-2c-0.81,0-1.44,0.57-1.65,1.26c-0.06,0.15-0.08,0.36-0.08,0.57v4.08h-1.23V58.31z"/>
	<path d="M588.04,54.53v1.95h1.76v0.94h-1.76v3.66c0,0.84,0.24,1.32,0.92,1.32c0.32,0,0.56-0.04,0.71-0.08l0.06,0.92
		c-0.24,0.1-0.62,0.17-1.09,0.17c-0.57,0-1.04-0.18-1.33-0.52c-0.35-0.36-0.48-0.97-0.48-1.77v-3.7h-1.05v-0.94h1.05v-1.63
		L588.04,54.53z"/>
	<path d="M591.79,60.09c0.03,1.67,1.09,2.35,2.32,2.35c0.88,0,1.42-0.15,1.88-0.35l0.21,0.88c-0.43,0.2-1.18,0.42-2.26,0.42
		c-2.09,0-3.33-1.37-3.33-3.42c0-2.05,1.21-3.66,3.18-3.66c2.21,0,2.8,1.95,2.8,3.19c0,0.25-0.03,0.45-0.04,0.57H591.79z
		 M595.41,59.21c0.01-0.79-0.32-2-1.71-2c-1.25,0-1.79,1.15-1.89,2H595.41z"/>
	<path d="M602.46,54.57c0.01,0.42-0.29,0.76-0.79,0.76c-0.43,0-0.74-0.34-0.74-0.76c0-0.43,0.32-0.77,0.77-0.77
		C602.17,53.8,602.46,54.14,602.46,54.57z M601.09,63.26v-6.78h1.23v6.78H601.09z"/>
	<path d="M604.36,58.31c0-0.7-0.01-1.28-0.06-1.83h1.09l0.07,1.12h0.03c0.34-0.64,1.12-1.27,2.24-1.27c0.94,0,2.4,0.56,2.4,2.89
		v4.05h-1.23v-3.91c0-1.09-0.41-2-1.57-2c-0.81,0-1.44,0.57-1.65,1.26c-0.06,0.15-0.08,0.36-0.08,0.57v4.08h-1.23V58.31z"/>
	<path d="M613.56,54.53v1.95h1.76v0.94h-1.76v3.66c0,0.84,0.24,1.32,0.92,1.32c0.32,0,0.56-0.04,0.71-0.08l0.06,0.92
		c-0.24,0.1-0.62,0.17-1.09,0.17c-0.57,0-1.04-0.18-1.33-0.52c-0.35-0.36-0.48-0.97-0.48-1.77v-3.7h-1.05v-0.94h1.05v-1.63
		L613.56,54.53z"/>
	<path d="M617.31,60.09c0.03,1.67,1.09,2.35,2.33,2.35c0.88,0,1.41-0.15,1.88-0.35l0.21,0.88c-0.43,0.2-1.18,0.42-2.25,0.42
		c-2.09,0-3.33-1.37-3.33-3.42c0-2.05,1.21-3.66,3.18-3.66c2.21,0,2.8,1.95,2.8,3.19c0,0.25-0.03,0.45-0.04,0.57H617.31z
		 M620.93,59.21c0.01-0.79-0.32-2-1.71-2c-1.25,0-1.79,1.15-1.89,2H620.93z"/>
	<path d="M629.48,56.48c-0.03,0.49-0.06,1.04-0.06,1.86v3.94c0,1.55-0.31,2.51-0.97,3.1c-0.66,0.62-1.61,0.81-2.46,0.81
		c-0.81,0-1.71-0.2-2.26-0.56l0.31-0.94c0.45,0.28,1.15,0.53,1.99,0.53c1.26,0,2.18-0.66,2.18-2.37v-0.76h-0.03
		c-0.38,0.63-1.11,1.13-2.16,1.13c-1.68,0-2.89-1.43-2.89-3.31c0-2.3,1.5-3.6,3.05-3.6c1.18,0,1.82,0.62,2.12,1.18h0.03l0.06-1.02
		H629.48z M628.21,59.15c0-0.21-0.01-0.39-0.07-0.56c-0.22-0.71-0.83-1.3-1.72-1.3c-1.18,0-2.02,0.99-2.02,2.56
		c0,1.33,0.67,2.44,2,2.44c0.76,0,1.44-0.48,1.71-1.26c0.07-0.21,0.1-0.45,0.1-0.66V59.15z"/>
	<path d="M631.38,58.59c0-0.8-0.01-1.49-0.06-2.12h1.08l0.04,1.33h0.06c0.31-0.91,1.05-1.48,1.88-1.48c0.14,0,0.24,0.01,0.35,0.04
		v1.16c-0.13-0.03-0.25-0.04-0.42-0.04c-0.87,0-1.49,0.66-1.65,1.58c-0.03,0.17-0.06,0.36-0.06,0.57v3.61h-1.22V58.59z"/>
	<path d="M639.64,63.26l-0.1-0.85h-0.04c-0.38,0.53-1.11,1.01-2.07,1.01c-1.37,0-2.07-0.97-2.07-1.95c0-1.64,1.46-2.54,4.08-2.52
		V58.8c0-0.56-0.15-1.57-1.54-1.57c-0.63,0-1.29,0.2-1.77,0.5l-0.28-0.81c0.56-0.36,1.37-0.6,2.23-0.6c2.07,0,2.58,1.42,2.58,2.77
		v2.54c0,0.59,0.03,1.16,0.11,1.63H639.64z M639.46,59.8c-1.35-0.03-2.87,0.21-2.87,1.53c0,0.8,0.53,1.18,1.16,1.18
		c0.88,0,1.44-0.56,1.64-1.13c0.04-0.13,0.07-0.27,0.07-0.39V59.8z"/>
	<path d="M648.49,53.31v8.19c0,0.6,0.01,1.29,0.06,1.75h-1.11l-0.06-1.18h-0.03c-0.38,0.76-1.21,1.33-2.31,1.33
		c-1.64,0-2.9-1.39-2.9-3.45c-0.01-2.25,1.39-3.64,3.04-3.64c1.04,0,1.74,0.49,2.05,1.04h0.03v-4.05H648.49z M647.26,59.24
		c0-0.15-0.01-0.36-0.06-0.52c-0.18-0.79-0.85-1.43-1.78-1.43c-1.27,0-2.03,1.12-2.03,2.62c0,1.37,0.67,2.51,2,2.51
		c0.83,0,1.58-0.55,1.81-1.47c0.04-0.17,0.06-0.34,0.06-0.53V59.24z"/>
	<path d="M656.67,59.81c0,2.51-1.74,3.6-3.38,3.6c-1.84,0-3.25-1.34-3.25-3.49c0-2.27,1.48-3.6,3.36-3.6
		C655.35,56.32,656.67,57.74,656.67,59.81z M651.29,59.88c0,1.49,0.85,2.61,2.06,2.61c1.18,0,2.06-1.11,2.06-2.63
		c0-1.15-0.57-2.6-2.03-2.6C651.92,57.25,651.29,58.59,651.29,59.88z"/>
	<path d="M658.05,62c0.36,0.24,1.01,0.49,1.63,0.49c0.9,0,1.32-0.45,1.32-1.01c0-0.59-0.35-0.91-1.26-1.25
		c-1.22-0.43-1.79-1.11-1.79-1.92c0-1.09,0.88-1.99,2.34-1.99c0.69,0,1.29,0.2,1.67,0.42l-0.31,0.9c-0.27-0.17-0.76-0.39-1.39-0.39
		c-0.73,0-1.13,0.42-1.13,0.92c0,0.56,0.41,0.81,1.29,1.15c1.18,0.45,1.78,1.04,1.78,2.05c0,1.19-0.93,2.03-2.54,2.03
		c-0.74,0-1.43-0.18-1.91-0.46L658.05,62z"/>
	<path d="M663.02,64.95c1-1.39,1.76-3.21,1.76-5.73c0-2.51-0.76-4.3-1.76-5.69h0.95c0.9,1.15,1.84,2.94,1.84,5.7
		c0,2.75-0.94,4.52-1.84,5.72H663.02z"/>
</g>
</svg>
