<?xml version="1.0" encoding="utf-8"?>
<!-- Generator: Adobe Illustrator 23.0.3, SVG Export Plug-In . SVG Version: 6.00 Build 0)  -->
<svg version="1.1" id="Capa_1" xmlns="http://www.w3.org/2000/svg" xmlns:xlink="http://www.w3.org/1999/xlink" x="0px" y="0px"
	 viewBox="0 0 39.03 126.14" style="enable-background:new 0 0 39.03 126.14;" xml:space="preserve">
<style type="text/css">
	.st0{fill:#AB4543;}
</style>
<polygon class="st0" points="19.51,126.14 39.03,106.62 29.23,107.65 31.29,0 8.41,0 10.5,107.8 0,106.62 "/>
</svg>
