<?xml version="1.0" encoding="utf-8"?>
<!-- Generator: Adobe Illustrator 24.1.2, SVG Export Plug-In . SVG Version: 6.00 Build 0)  -->
<svg version="1.1" id="Layer_1" xmlns="http://www.w3.org/2000/svg" xmlns:xlink="http://www.w3.org/1999/xlink" x="0px" y="0px"
	 viewBox="0 0 105 105" style="enable-background:new 0 0 105 105;" xml:space="preserve">
<style type="text/css">
	.st0{fill:#8CC63F;}
</style>
<path class="st0" d="M52.5,2.5c-27.6,0-50,22.4-50,50s22.4,50,50,50s50-22.4,50-50S80.1,2.5,52.5,2.5z M52.5,83.3l-33.3-33l15,0
	l-2.1-18.5h42.2L72.2,50l13.6,0.2L52.5,83.3z"/>
</svg>
