<?xml version="1.0" encoding="utf-8"?>
<!-- Generator: Adobe Illustrator 23.0.6, SVG Export Plug-In . SVG Version: 6.00 Build 0)  -->
<svg version="1.1" id="Capa_1" xmlns="http://www.w3.org/2000/svg" xmlns:xlink="http://www.w3.org/1999/xlink" x="0px" y="0px"
	 viewBox="0 0 132.5 487.1" style="enable-background:new 0 0 132.5 487.1;" xml:space="preserve">
<style type="text/css">
	.st0{fill:#0B6982;}
</style>
<path class="st0" d="M0.1,1.1c3.5,0.7,7,1.3,10.4,2.1C15.7,4.4,20.8,6,25.7,8.1c5.3,2.3,10.2,5.3,14.5,9.3c5,4.6,8.7,10.1,11.4,16.3
	c2.1,5,3.5,10.1,4.4,15.4c0.9,4.9,1.4,9.7,1.7,14.6c0.3,4.5,0.4,8.9,0.4,13.4c0,31,0,62.1,0,93.1c0,5.8,0.1,11.5,0.5,17.3
	c0.4,6.2,1.2,12.4,2.7,18.4c1.3,4.9,3.1,9.5,5.7,13.8c3.4,5.4,7.8,9.8,13.1,13.3c4.9,3.2,10.3,5.6,15.8,7.4c3.5,1.2,7.2,2.2,10.8,3
	c0.2,0.1,0.4,0.1,0.6,0.2c0,0.2,0,0.3,0,0.5s0,0.4,0,0.7c-1,0.3-2,0.5-3,0.8c-5.6,1.5-11,3.3-16.3,5.8c-5.2,2.5-10,5.5-14.1,9.5
	c-5,4.8-8.5,10.5-10.9,17c-1.6,4.4-2.6,8.8-3.3,13.4c-0.8,4.9-1.2,9.9-1.4,14.9c-0.2,4.7-0.3,9.5-0.3,14.2c0,30.6,0,61.1,0,91.7
	c0,4.6-0.2,9.1-0.5,13.7c-0.5,6.6-1.5,13-3.3,19.4c-1.6,5.6-3.7,10.9-6.8,15.8c-4.4,7-10.2,12.3-17.4,16.3c-5.4,3-11.1,5-17,6.4
	c-3.8,0.9-7.6,1.6-11.5,2.1c-0.4,0-0.9,0.1-1.3,0.2c0.3,0.8,0.9,1.2,1.7,1.2c5.1-0.1,10.1-0.3,15.2-0.7c6.6-0.5,13.3-1.3,19.8-2.7
	c6.3-1.4,12.3-3.2,18.1-6c6.5-3.4,12.1-7.7,16.6-13.5c3.5-4.4,6-9.4,7.9-14.6c1.7-4.7,2.9-9.5,3.8-14.4c0.8-4.6,1.4-9.3,1.7-13.9
	c0.5-6.7,0.7-13.5,0.7-20.3c0-29.7,0-59.4,0-89.2c0-4.6,0.1-9.2,0.3-13.9c0.2-5.3,0.8-10.6,1.9-15.8c1-4.6,2.4-9,4.7-13.1
	c2.8-5.1,6.7-9.3,11.4-12.7c4.2-3,8.9-5.3,13.7-7.2c4.6-1.8,9.3-3.2,14.1-4.4c0.2-0.1,0.5-0.1,0.7-0.2c0-0.1,0-0.2,0-0.4
	c0-0.3,0-0.5,0-0.8c-0.4-0.1-0.7-0.2-1.1-0.3c-6.1-1.6-12.1-3.4-17.8-6.1c-3.8-1.7-7.4-3.8-10.8-6.3c-6.3-4.8-10.7-11.1-13.3-18.6
	c-1.3-4-2.2-8-2.8-12.1c-1-7.2-1.2-14.4-1.3-21.7c0-31.3,0-62.6,0-93.8c0-4.9,0-9.7-0.3-14.5c-0.4-7.9-1.3-15.7-3.2-23.3
	c-1.4-5.8-3.4-11.3-6.2-16.5c-4.6-8.4-11.2-14.7-19.6-19.3c-5-2.7-10.3-4.6-15.7-6.1c-4.3-1.1-8.6-2-12.9-2.7S18.9,1,14.6,0.6
	C11.3,0.3,7.9,0.2,4.5,0C3.6,0,2.7,0,1.8-0.1C1.1-0.2,0.5,0,0.1,0.6C0.4,0.9,0.2,1,0.1,1.1z"/>
</svg>
