<?xml version="1.0" encoding="utf-8"?>
<!-- Generator: Adobe Illustrator 24.0.1, SVG Export Plug-In . SVG Version: 6.00 Build 0)  -->
<svg version="1.1" id="Layer_1" xmlns="http://www.w3.org/2000/svg" xmlns:xlink="http://www.w3.org/1999/xlink" x="0px" y="0px"
	 viewBox="0 0 615 396" style="enable-background:new 0 0 615 396;" xml:space="preserve">
<style type="text/css">
	.st0{fill:#FFFFFF;stroke:url(#SVGID_1_);stroke-width:3;stroke-miterlimit:10;}
	.st1{fill:#0B6982;}
	.st2{fill:none;stroke:#FF6600;stroke-width:15;stroke-linejoin:round;}
	.st3{fill:#FF6600;}
	.st4{fill:#FFFFFF;stroke:url(#SVGID_2_);stroke-width:7;stroke-miterlimit:10;}
	.st5{fill:#FFFFFF;stroke:url(#SVGID_3_);stroke-width:7;stroke-miterlimit:10;}
	.st6{fill:#FFFFFF;stroke:url(#SVGID_4_);stroke-width:7;stroke-miterlimit:10;}
	.st7{fill:#FFFFFF;stroke:url(#SVGID_5_);stroke-width:7;stroke-miterlimit:10;}
	.st8{fill:none;stroke:#FF6600;stroke-width:7;stroke-linejoin:round;}
	.st9{fill:none;stroke:#FF6600;stroke-width:8;stroke-linejoin:round;}
	.st10{fill:none;stroke:#FF6600;stroke-width:3;stroke-linejoin:round;}
</style>
<linearGradient id="SVGID_1_" gradientUnits="userSpaceOnUse" x1="8.4328" y1="200.9304" x2="607.4328" y2="200.9304">
	<stop  offset="0" style="stop-color:#8FCCD5"/>
	<stop  offset="0.5" style="stop-color:#5BBAC7"/>
	<stop  offset="1" style="stop-color:#00AAB9"/>
</linearGradient>
<ellipse class="st0" cx="307.93" cy="200.93" rx="298" ry="149.75"/>
<g>
	<path class="st1" d="M194.93,16.75h-3.72v2.4h4.15v1.88h-6.45V10.92h6.24v1.88h-3.94v2.1h3.72V16.75z"/>
	<path class="st1" d="M196.85,16.03c0-0.92-0.03-1.69-0.06-2.34h1.98l0.1,1h0.04c0.3-0.46,1.05-1.17,2.27-1.17
		c1.5,0,2.62,0.99,2.62,3.15v4.35h-2.28v-4.06c0-0.95-0.33-1.59-1.15-1.59c-0.63,0-1,0.43-1.16,0.85c-0.06,0.13-0.09,0.36-0.09,0.57
		v4.23h-2.28V16.03z"/>
	<path class="st1" d="M208.1,11.59v2.1h1.63v1.68h-1.63v2.65c0,0.88,0.21,1.29,0.9,1.29c0.29,0,0.51-0.03,0.68-0.06l0.01,1.72
		c-0.3,0.12-0.84,0.2-1.48,0.2c-0.73,0-1.35-0.26-1.71-0.63c-0.42-0.43-0.63-1.14-0.63-2.17v-3h-0.98v-1.68h0.98V12.1L208.1,11.59z"
		/>
	<path class="st1" d="M218.23,17.27c0,2.68-1.9,3.92-3.87,3.92c-2.15,0-3.79-1.41-3.79-3.78c0-2.37,1.56-3.88,3.91-3.88
		C216.73,13.52,218.23,15.07,218.23,17.27z M212.92,17.35c0,1.26,0.52,2.21,1.5,2.21c0.89,0,1.46-0.88,1.46-2.21
		c0-1.09-0.42-2.21-1.46-2.21C213.32,15.14,212.92,16.27,212.92,17.35z"/>
	<path class="st1" d="M219.64,16.1c0-1.08-0.03-1.79-0.06-2.42h1.96l0.08,1.35h0.06c0.38-1.07,1.27-1.52,1.98-1.52
		c0.21,0,0.32,0,0.48,0.03v2.14c-0.16-0.03-0.36-0.06-0.61-0.06c-0.84,0-1.41,0.45-1.56,1.16c-0.03,0.15-0.04,0.33-0.04,0.51v3.72
		h-2.28V16.1z"/>
	<path class="st1" d="M225.34,16.03c0-0.92-0.03-1.69-0.06-2.34h1.98l0.1,1h0.04c0.3-0.46,1.05-1.17,2.27-1.17
		c1.5,0,2.62,0.99,2.62,3.15v4.35h-2.28v-4.06c0-0.95-0.33-1.59-1.15-1.59c-0.63,0-1,0.43-1.16,0.85c-0.06,0.13-0.09,0.36-0.09,0.57
		v4.23h-2.28V16.03z"/>
	<path class="st1" d="M241.37,17.27c0,2.68-1.9,3.92-3.87,3.92c-2.15,0-3.79-1.41-3.79-3.78c0-2.37,1.56-3.88,3.91-3.88
		C239.87,13.52,241.37,15.07,241.37,17.27z M236.06,17.35c0,1.26,0.52,2.21,1.5,2.21c0.89,0,1.46-0.88,1.46-2.21
		c0-1.09-0.42-2.21-1.46-2.21C236.47,15.14,236.06,16.27,236.06,17.35z"/>
	<path class="st1" d="M245.8,19.03c0.42,0.25,1.29,0.56,1.96,0.56c0.69,0,0.98-0.24,0.98-0.62s-0.23-0.56-1.08-0.84
		c-1.51-0.51-2.1-1.33-2.08-2.21c0-1.37,1.17-2.4,2.98-2.4c0.85,0,1.62,0.2,2.07,0.42l-0.41,1.58c-0.33-0.18-0.96-0.42-1.59-0.42
		c-0.56,0-0.87,0.22-0.87,0.6c0,0.35,0.29,0.53,1.19,0.84c1.4,0.48,1.98,1.18,2,2.26c0,1.37-1.08,2.37-3.18,2.37
		c-0.96,0-1.81-0.21-2.37-0.51L245.8,19.03z"/>
	<path class="st1" d="M259.57,17.27c0,2.68-1.9,3.92-3.87,3.92c-2.15,0-3.79-1.41-3.79-3.78c0-2.37,1.56-3.88,3.91-3.88
		C258.07,13.52,259.57,15.07,259.57,17.27z M254.26,17.35c0,1.26,0.52,2.21,1.5,2.21c0.89,0,1.46-0.88,1.46-2.21
		c0-1.09-0.42-2.21-1.46-2.21C254.66,15.14,254.26,16.27,254.26,17.35z"/>
	<path class="st1" d="M266.53,20.84c-0.41,0.18-1.17,0.33-2.04,0.33c-2.37,0-3.88-1.44-3.88-3.75c0-2.15,1.47-3.9,4.2-3.9
		c0.6,0,1.26,0.11,1.74,0.29l-0.36,1.7c-0.27-0.12-0.67-0.23-1.27-0.23c-1.2,0-1.98,0.86-1.96,2.06c0,1.35,0.9,2.05,2.01,2.05
		c0.54,0,0.96-0.09,1.31-0.23L266.53,20.84z"/>
	<path class="st1" d="M270.14,11.65c0,0.63-0.48,1.14-1.23,1.14c-0.72,0-1.2-0.51-1.19-1.14c-0.02-0.66,0.46-1.15,1.2-1.15
		C269.66,10.5,270.13,10.99,270.14,11.65z M267.79,21.02v-7.33h2.28v7.33H267.79z"/>
	<path class="st1" d="M276.07,21.02l-0.14-0.74h-0.04c-0.48,0.58-1.23,0.9-2.1,0.9c-1.48,0-2.37-1.08-2.37-2.25
		c0-1.91,1.71-2.82,4.3-2.8v-0.11c0-0.39-0.21-0.94-1.33-0.94c-0.75,0-1.54,0.25-2.02,0.55l-0.42-1.47
		c0.51-0.29,1.52-0.65,2.85-0.65c2.44,0,3.22,1.44,3.22,3.17v2.55c0,0.71,0.03,1.38,0.1,1.79H276.07z M275.8,17.56
		c-1.2-0.01-2.13,0.27-2.13,1.16c0,0.58,0.39,0.87,0.9,0.87c0.57,0,1.03-0.38,1.19-0.84c0.03-0.12,0.04-0.25,0.04-0.39V17.56z"/>
	<path class="st1" d="M279.82,10.38h2.28v10.65h-2.28V10.38z"/>
	<path class="st1" d="M282.92,22.81c0.47-1.33,0.87-2.9,1.08-4.26l2.33-0.15c-0.5,1.53-1.17,3.11-1.89,4.28L282.92,22.81z"/>
	<path class="st1" d="M292.49,18.08c0.08,0.94,1,1.39,2.07,1.39c0.78,0,1.41-0.11,2.02-0.3l0.3,1.54c-0.75,0.3-1.67,0.45-2.66,0.45
		c-2.49,0-3.91-1.44-3.91-3.74c0-1.86,1.15-3.92,3.7-3.92c2.37,0,3.27,1.85,3.27,3.66c0,0.39-0.04,0.74-0.08,0.9H292.49z
		 M295.18,16.52c0-0.55-0.24-1.48-1.29-1.48c-0.96,0-1.35,0.87-1.41,1.48H295.18z"/>
	<path class="st1" d="M304.16,20.84c-0.41,0.18-1.17,0.33-2.04,0.33c-2.37,0-3.88-1.44-3.88-3.75c0-2.15,1.47-3.9,4.2-3.9
		c0.6,0,1.26,0.11,1.74,0.29l-0.36,1.7c-0.27-0.12-0.67-0.23-1.27-0.23c-1.2,0-1.98,0.86-1.96,2.06c0,1.35,0.9,2.05,2.01,2.05
		c0.54,0,0.96-0.09,1.31-0.23L304.16,20.84z"/>
	<path class="st1" d="M312.5,17.27c0,2.68-1.91,3.92-3.87,3.92c-2.15,0-3.79-1.41-3.79-3.78c0-2.37,1.56-3.88,3.91-3.88
		C311,13.52,312.5,15.07,312.5,17.27z M307.19,17.35c0,1.26,0.52,2.21,1.5,2.21c0.89,0,1.45-0.88,1.45-2.21
		c0-1.09-0.42-2.21-1.45-2.21C307.6,15.14,307.19,16.27,307.19,17.35z"/>
	<path class="st1" d="M313.91,16.03c0-0.92-0.03-1.69-0.06-2.34h1.98l0.1,1h0.04c0.3-0.46,1.05-1.17,2.27-1.17
		c1.5,0,2.62,0.99,2.62,3.15v4.35h-2.28v-4.06c0-0.95-0.33-1.59-1.16-1.59c-0.63,0-1,0.43-1.16,0.85c-0.06,0.13-0.09,0.36-0.09,0.57
		v4.23h-2.28V16.03z"/>
	<path class="st1" d="M329.95,17.27c0,2.68-1.9,3.92-3.87,3.92c-2.15,0-3.79-1.41-3.79-3.78c0-2.37,1.56-3.88,3.91-3.88
		C328.45,13.52,329.95,15.07,329.95,17.27z M324.64,17.35c0,1.26,0.53,2.21,1.5,2.21c0.88,0,1.46-0.88,1.46-2.21
		c0-1.09-0.42-2.21-1.46-2.21C325.04,15.14,324.64,16.27,324.64,17.35z M328.51,10.5l-1.83,2.28h-1.58l1.29-2.28H328.51z"/>
	<path class="st1" d="M331.36,16.03c0-0.92-0.03-1.69-0.06-2.34h1.92l0.1,0.99h0.04c0.32-0.46,0.96-1.16,2.22-1.16
		c0.94,0,1.69,0.48,2.01,1.25h0.03c0.27-0.38,0.6-0.67,0.95-0.88c0.41-0.24,0.86-0.36,1.39-0.36c1.41,0,2.48,0.99,2.48,3.18v4.32
		h-2.22v-3.99c0-1.06-0.35-1.68-1.08-1.68c-0.53,0-0.9,0.36-1.05,0.79c-0.06,0.17-0.09,0.41-0.09,0.58v4.29h-2.22v-4.11
		c0-0.93-0.33-1.56-1.05-1.56c-0.58,0-0.93,0.45-1.06,0.83c-0.08,0.18-0.09,0.39-0.09,0.57v4.27h-2.22V16.03z"/>
	<path class="st1" d="M346.61,11.65c0,0.63-0.48,1.14-1.23,1.14c-0.72,0-1.2-0.51-1.19-1.14c-0.01-0.66,0.46-1.15,1.2-1.15
		S346.6,10.99,346.61,11.65z M344.26,21.02v-7.33h2.28v7.33H344.26z"/>
	<path class="st1" d="M353.87,20.84c-0.41,0.18-1.17,0.33-2.04,0.33c-2.37,0-3.88-1.44-3.88-3.75c0-2.15,1.47-3.9,4.2-3.9
		c0.6,0,1.26,0.11,1.74,0.29l-0.36,1.7c-0.27-0.12-0.67-0.23-1.28-0.23c-1.2,0-1.98,0.86-1.96,2.06c0,1.35,0.9,2.05,2.01,2.05
		c0.54,0,0.96-0.09,1.31-0.23L353.87,20.84z"/>
	<path class="st1" d="M362.21,17.27c0,2.68-1.91,3.92-3.87,3.92c-2.14,0-3.79-1.41-3.79-3.78c0-2.37,1.56-3.88,3.92-3.88
		C360.71,13.52,362.21,15.07,362.21,17.27z M356.9,17.35c0,1.26,0.52,2.21,1.5,2.21c0.89,0,1.46-0.88,1.46-2.21
		c0-1.09-0.42-2.21-1.46-2.21C357.3,15.14,356.9,16.27,356.9,17.35z"/>
	<path class="st1" d="M368.36,13.69l1.09,3.6c0.12,0.43,0.27,0.97,0.36,1.36h0.04c0.11-0.39,0.22-0.94,0.33-1.36l0.9-3.6h2.44
		l-1.71,4.83c-1.05,2.91-1.75,4.08-2.58,4.81c-0.79,0.69-1.63,0.93-2.2,1l-0.48-1.93c0.29-0.04,0.64-0.18,0.99-0.39
		c0.34-0.18,0.72-0.54,0.94-0.92c0.08-0.11,0.12-0.23,0.12-0.33c0-0.08-0.01-0.2-0.1-0.38l-2.69-6.71H368.36z"/>
	<path class="st1" d="M377.52,16.15c0-0.96-0.03-1.79-0.06-2.46h1.98l0.1,1.02h0.03c0.54-0.78,1.38-1.19,2.44-1.19
		c1.61,0,3.04,1.4,3.04,3.74c0,2.67-1.69,3.93-3.33,3.93c-0.89,0-1.58-0.36-1.91-0.84h-0.03v3.64h-2.28V16.15z M379.8,17.88
		c0,0.18,0.02,0.34,0.04,0.48c0.15,0.62,0.68,1.08,1.33,1.08c0.99,0,1.58-0.83,1.58-2.07c0-1.17-0.52-2.05-1.54-2.05
		c-0.64,0-1.21,0.48-1.37,1.16c-0.03,0.12-0.04,0.27-0.04,0.4V17.88z"/>
	<path class="st1" d="M393.78,17.27c0,2.68-1.9,3.92-3.87,3.92c-2.15,0-3.79-1.41-3.79-3.78c0-2.37,1.56-3.88,3.91-3.88
		C392.28,13.52,393.78,15.07,393.78,17.27z M388.47,17.35c0,1.26,0.53,2.21,1.5,2.21c0.88,0,1.46-0.88,1.46-2.21
		c0-1.09-0.42-2.21-1.46-2.21C388.88,15.14,388.47,16.27,388.47,17.35z"/>
	<path class="st1" d="M395.19,10.38h2.28v10.65h-2.28V10.38z"/>
	<path class="st1" d="M399.32,21.02v-7.33h2.28v7.33H399.32z M402.89,10.5l-1.83,2.28h-1.58l1.29-2.28H402.89z"/>
	<path class="st1" d="M405.98,11.59v2.1h1.63v1.68h-1.63v2.65c0,0.88,0.21,1.29,0.9,1.29c0.29,0,0.51-0.03,0.68-0.06l0.01,1.72
		c-0.3,0.12-0.84,0.2-1.49,0.2c-0.73,0-1.35-0.26-1.71-0.63c-0.42-0.43-0.63-1.14-0.63-2.17v-3h-0.97v-1.68h0.97V12.1L405.98,11.59z
		"/>
	<path class="st1" d="M411.29,11.65c0,0.63-0.48,1.14-1.23,1.14c-0.72,0-1.2-0.51-1.19-1.14c-0.01-0.66,0.46-1.15,1.2-1.15
		S411.27,10.99,411.29,11.65z M408.93,21.02v-7.33h2.28v7.33H408.93z"/>
	<path class="st1" d="M418.55,20.84c-0.41,0.18-1.17,0.33-2.04,0.33c-2.37,0-3.88-1.44-3.88-3.75c0-2.15,1.47-3.9,4.2-3.9
		c0.6,0,1.26,0.11,1.74,0.29l-0.36,1.7c-0.27-0.12-0.67-0.23-1.28-0.23c-1.2,0-1.98,0.86-1.96,2.06c0,1.35,0.9,2.05,2.01,2.05
		c0.54,0,0.96-0.09,1.31-0.23L418.55,20.84z"/>
	<path class="st1" d="M426.89,17.27c0,2.68-1.9,3.92-3.87,3.92c-2.15,0-3.79-1.41-3.79-3.78c0-2.37,1.56-3.88,3.91-3.88
		C425.39,13.52,426.89,15.07,426.89,17.27z M421.58,17.35c0,1.26,0.53,2.21,1.5,2.21c0.88,0,1.46-0.88,1.46-2.21
		c0-1.09-0.42-2.21-1.46-2.21C421.98,15.14,421.58,16.27,421.58,17.35z"/>
</g>
<g>
	<g>
		<line class="st2" x1="308.43" y1="39.12" x2="308.43" y2="83.24"/>
		<g>
			<polygon class="st3" points="324.85,41.55 308.43,31.18 292.02,41.55 292.02,41.65 324.85,41.65 			"/>
		</g>
		<g>
			<polygon class="st3" points="324.85,80.81 308.43,91.18 292.02,80.81 292.02,80.71 324.85,80.71 			"/>
		</g>
	</g>
</g>
<linearGradient id="SVGID_2_" gradientUnits="userSpaceOnUse" x1="334.9328" y1="110.1804" x2="471.9328" y2="110.1804">
	<stop  offset="0" style="stop-color:#8FCCD5"/>
	<stop  offset="0.5" style="stop-color:#5BBAC7"/>
	<stop  offset="1" style="stop-color:#00AAB9"/>
</linearGradient>
<path class="st4" d="M456.43,135.68h-106c-6.6,0-12-5.4-12-12v-27c0-6.6,5.4-12,12-12h106c6.6,0,12,5.4,12,12v27
	C468.43,130.28,463.03,135.68,456.43,135.68z"/>
<g>
	<path d="M371.54,104.67c0.55,0.34,1.34,0.62,2.18,0.62c1.25,0,1.98-0.66,1.98-1.61c0-0.88-0.5-1.39-1.78-1.88
		c-1.54-0.55-2.49-1.34-2.49-2.68c0-1.47,1.22-2.56,3.05-2.56c0.97,0,1.67,0.22,2.09,0.46l-0.34,0.99
		c-0.31-0.17-0.94-0.45-1.79-0.45c-1.29,0-1.78,0.77-1.78,1.42c0,0.88,0.57,1.32,1.88,1.82c1.6,0.62,2.41,1.39,2.41,2.77
		c0,1.46-1.08,2.72-3.31,2.72c-0.91,0-1.9-0.27-2.41-0.6L371.54,104.67z"/>
	<path d="M379.94,97.47c0.01,0.42-0.29,0.76-0.78,0.76c-0.43,0-0.74-0.34-0.74-0.76c0-0.43,0.32-0.77,0.77-0.77
		C379.64,96.7,379.94,97.04,379.94,97.47z M378.56,106.16v-6.78h1.23v6.78H378.56z"/>
	<path d="M381.67,104.9c0.36,0.24,1.01,0.49,1.63,0.49c0.9,0,1.32-0.45,1.32-1.01c0-0.59-0.35-0.91-1.26-1.25
		c-1.22-0.43-1.79-1.11-1.79-1.92c0-1.09,0.88-1.99,2.34-1.99c0.69,0,1.29,0.2,1.67,0.42l-0.31,0.9c-0.27-0.17-0.76-0.39-1.39-0.39
		c-0.73,0-1.13,0.42-1.13,0.92c0,0.56,0.41,0.81,1.29,1.15c1.18,0.45,1.78,1.04,1.78,2.05c0,1.19-0.92,2.03-2.54,2.03
		c-0.74,0-1.43-0.18-1.91-0.46L381.67,104.9z"/>
	<path d="M388.87,97.43v1.95h1.77v0.94h-1.77v3.66c0,0.84,0.24,1.32,0.92,1.32c0.32,0,0.56-0.04,0.71-0.08l0.06,0.92
		c-0.24,0.1-0.62,0.17-1.09,0.17c-0.57,0-1.04-0.18-1.33-0.52c-0.35-0.36-0.48-0.97-0.48-1.77v-3.7h-1.05v-0.94h1.05v-1.63
		L388.87,97.43z"/>
	<path d="M392.62,102.99c0.03,1.67,1.09,2.35,2.33,2.35c0.88,0,1.41-0.15,1.88-0.35l0.21,0.88c-0.43,0.2-1.18,0.42-2.25,0.42
		c-2.09,0-3.33-1.37-3.33-3.42c0-2.05,1.2-3.66,3.18-3.66c2.21,0,2.8,1.95,2.8,3.19c0,0.25-0.03,0.45-0.04,0.57H392.62z
		 M396.23,102.11c0.01-0.79-0.32-2-1.71-2c-1.25,0-1.79,1.15-1.89,2H396.23z"/>
	<path d="M398.95,101.21c0-0.7-0.01-1.28-0.06-1.83h1.08l0.06,1.09h0.04c0.38-0.64,1.01-1.25,2.13-1.25c0.92,0,1.62,0.56,1.92,1.36
		h0.03c0.21-0.38,0.48-0.67,0.76-0.88c0.41-0.31,0.85-0.48,1.5-0.48c0.9,0,2.23,0.59,2.23,2.94v3.99h-1.2v-3.84
		c0-1.3-0.48-2.09-1.47-2.09c-0.7,0-1.25,0.52-1.46,1.12c-0.06,0.17-0.1,0.39-0.1,0.62v4.19h-1.21v-4.06c0-1.08-0.48-1.86-1.42-1.86
		c-0.77,0-1.33,0.62-1.53,1.23c-0.07,0.18-0.1,0.39-0.1,0.6v4.09h-1.2V101.21z"/>
	<path d="M414.38,106.16l-0.1-0.85h-0.04c-0.38,0.53-1.11,1.01-2.07,1.01c-1.37,0-2.07-0.97-2.07-1.95c0-1.64,1.46-2.54,4.08-2.52
		v-0.14c0-0.56-0.15-1.57-1.54-1.57c-0.63,0-1.29,0.2-1.76,0.5l-0.28-0.81c0.56-0.36,1.37-0.6,2.23-0.6c2.07,0,2.58,1.42,2.58,2.77
		v2.54c0,0.59,0.03,1.16,0.11,1.63H414.38z M414.19,102.7c-1.34-0.03-2.87,0.21-2.87,1.53c0,0.8,0.53,1.18,1.16,1.18
		c0.88,0,1.44-0.56,1.64-1.13c0.04-0.13,0.07-0.27,0.07-0.39V102.7z"/>
	<path d="M426.19,96.21v8.19c0,0.6,0.01,1.29,0.06,1.75h-1.11l-0.06-1.18h-0.03c-0.38,0.76-1.21,1.33-2.31,1.33
		c-1.64,0-2.9-1.39-2.9-3.45c-0.01-2.25,1.39-3.64,3.04-3.64c1.04,0,1.74,0.49,2.05,1.04h0.03v-4.05H426.19z M424.96,102.14
		c0-0.15-0.01-0.36-0.06-0.52c-0.18-0.79-0.85-1.43-1.78-1.43c-1.27,0-2.03,1.12-2.03,2.62c0,1.37,0.67,2.51,2,2.51
		c0.83,0,1.58-0.55,1.81-1.47c0.04-0.17,0.06-0.34,0.06-0.53V102.14z"/>
	<path d="M428.92,102.99c0.03,1.67,1.09,2.35,2.33,2.35c0.88,0,1.42-0.15,1.88-0.35l0.21,0.88c-0.43,0.2-1.18,0.42-2.25,0.42
		c-2.09,0-3.33-1.37-3.33-3.42c0-2.05,1.21-3.66,3.18-3.66c2.21,0,2.8,1.95,2.8,3.19c0,0.25-0.03,0.45-0.04,0.57H428.92z
		 M432.54,102.11c0.01-0.79-0.32-2-1.71-2c-1.25,0-1.79,1.15-1.89,2H432.54z"/>
	<path d="M374.22,116.18c-0.03,0.49-0.06,1.04-0.06,1.86v3.94c0,1.55-0.31,2.51-0.97,3.1c-0.66,0.62-1.61,0.81-2.46,0.81
		c-0.81,0-1.71-0.2-2.26-0.56l0.31-0.94c0.45,0.28,1.15,0.53,1.99,0.53c1.26,0,2.18-0.66,2.18-2.37v-0.76h-0.03
		c-0.38,0.63-1.11,1.13-2.16,1.13c-1.68,0-2.89-1.43-2.89-3.31c0-2.3,1.5-3.6,3.05-3.6c1.18,0,1.82,0.62,2.12,1.18h0.03l0.06-1.02
		H374.22z M372.95,118.86c0-0.21-0.01-0.39-0.07-0.56c-0.22-0.71-0.83-1.3-1.72-1.3c-1.18,0-2.02,0.99-2.02,2.56
		c0,1.33,0.67,2.44,2,2.44c0.76,0,1.44-0.48,1.71-1.26c0.07-0.21,0.1-0.45,0.1-0.66V118.86z"/>
	<path d="M382.34,119.51c0,2.51-1.74,3.6-3.38,3.6c-1.83,0-3.25-1.34-3.25-3.49c0-2.27,1.49-3.6,3.36-3.6
		C381.02,116.03,382.34,117.44,382.34,119.51z M376.96,119.58c0,1.49,0.85,2.61,2.06,2.61c1.18,0,2.06-1.11,2.06-2.63
		c0-1.15-0.57-2.6-2.03-2.6S376.96,118.3,376.96,119.58z"/>
	<path d="M383.83,122.96c0.03-0.46,0.06-1.15,0.06-1.75v-8.19h1.22v4.26h0.03c0.43-0.76,1.22-1.25,2.31-1.25
		c1.68,0,2.87,1.4,2.86,3.46c0,2.42-1.53,3.63-3.04,3.63c-0.98,0-1.77-0.38-2.27-1.27h-0.04l-0.06,1.12H383.83z M385.11,120.24
		c0,0.15,0.03,0.31,0.06,0.45c0.24,0.85,0.95,1.44,1.85,1.44c1.29,0,2.06-1.05,2.06-2.61c0-1.36-0.7-2.52-2.02-2.52
		c-0.84,0-1.63,0.57-1.88,1.51c-0.03,0.14-0.07,0.31-0.07,0.5V120.24z"/>
	<path d="M392.54,119.79c0.03,1.67,1.09,2.35,2.33,2.35c0.88,0,1.41-0.15,1.88-0.35l0.21,0.88c-0.43,0.2-1.18,0.42-2.25,0.42
		c-2.09,0-3.33-1.37-3.33-3.42c0-2.05,1.2-3.66,3.18-3.66c2.21,0,2.8,1.95,2.8,3.19c0,0.25-0.03,0.45-0.04,0.57H392.54z
		 M396.16,118.91c0.01-0.79-0.32-2-1.71-2c-1.25,0-1.79,1.15-1.89,2H396.16z"/>
	<path d="M398.87,118.3c0-0.8-0.01-1.49-0.06-2.12h1.08l0.04,1.33h0.06c0.31-0.91,1.05-1.48,1.88-1.48c0.14,0,0.24,0.01,0.35,0.04
		v1.16c-0.13-0.03-0.25-0.04-0.42-0.04c-0.87,0-1.49,0.66-1.65,1.58c-0.03,0.17-0.06,0.36-0.06,0.57v3.61h-1.22V118.3z"/>
	<path d="M403.5,118.02c0-0.7-0.01-1.28-0.06-1.83h1.09l0.07,1.12h0.03c0.34-0.64,1.12-1.27,2.24-1.27c0.94,0,2.4,0.56,2.4,2.89
		v4.05h-1.23v-3.91c0-1.09-0.41-2-1.57-2c-0.81,0-1.44,0.57-1.65,1.26c-0.06,0.15-0.08,0.36-0.08,0.57v4.08h-1.23V118.02z"/>
	<path d="M415.03,122.96l-0.1-0.85h-0.04c-0.38,0.53-1.11,1.01-2.07,1.01c-1.37,0-2.07-0.97-2.07-1.95c0-1.64,1.46-2.54,4.08-2.52
		v-0.14c0-0.56-0.15-1.57-1.54-1.57c-0.63,0-1.29,0.2-1.76,0.5l-0.28-0.81c0.56-0.36,1.37-0.6,2.23-0.6c2.07,0,2.58,1.42,2.58,2.77
		v2.54c0,0.59,0.03,1.16,0.11,1.63H415.03z M414.85,119.5c-1.34-0.03-2.87,0.21-2.87,1.53c0,0.8,0.53,1.18,1.16,1.18
		c0.88,0,1.44-0.56,1.64-1.13c0.04-0.13,0.07-0.27,0.07-0.39V119.5z"/>
	<path d="M418.02,118.02c0-0.7-0.01-1.28-0.06-1.83h1.09l0.07,1.12h0.03c0.34-0.64,1.12-1.27,2.24-1.27c0.94,0,2.39,0.56,2.39,2.89
		v4.05h-1.23v-3.91c0-1.09-0.41-2-1.57-2c-0.81,0-1.44,0.57-1.65,1.26c-0.06,0.15-0.08,0.36-0.08,0.57v4.08h-1.23V118.02z"/>
	<path d="M425.02,122.25l3.07-3.99c0.29-0.36,0.57-0.69,0.88-1.05v-0.03h-3.67v-0.99h5.17l-0.01,0.77l-3.03,3.94
		c-0.28,0.38-0.56,0.71-0.87,1.06v0.03h3.96v0.98h-5.51V122.25z"/>
	<path d="M435.54,122.96l-0.1-0.85h-0.04c-0.38,0.53-1.11,1.01-2.07,1.01c-1.37,0-2.07-0.97-2.07-1.95c0-1.64,1.46-2.54,4.08-2.52
		v-0.14c0-0.56-0.15-1.57-1.54-1.57c-0.63,0-1.29,0.2-1.76,0.5l-0.28-0.81c0.56-0.36,1.37-0.6,2.23-0.6c2.07,0,2.58,1.42,2.58,2.77
		v2.54c0,0.59,0.03,1.16,0.11,1.63H435.54z M435.36,119.5c-1.34-0.03-2.87,0.21-2.87,1.53c0,0.8,0.53,1.18,1.16,1.18
		c0.88,0,1.44-0.56,1.64-1.13c0.04-0.13,0.07-0.27,0.07-0.39V119.5z"/>
</g>
<g>
	<path class="st1" d="M229.7,380.75h-3.72v2.4h4.16v1.88h-6.45v-10.11h6.24v1.88h-3.94v2.1h3.72V380.75z"/>
	<path class="st1" d="M237.06,384.84c-0.41,0.18-1.17,0.33-2.04,0.33c-2.37,0-3.88-1.44-3.88-3.75c0-2.15,1.47-3.9,4.2-3.9
		c0.6,0,1.26,0.11,1.74,0.29l-0.36,1.7c-0.27-0.12-0.67-0.23-1.27-0.23c-1.2,0-1.98,0.86-1.96,2.06c0,1.35,0.9,2.05,2.01,2.05
		c0.54,0,0.96-0.09,1.31-0.23L237.06,384.84z"/>
	<path class="st1" d="M245.4,381.27c0,2.68-1.9,3.92-3.87,3.92c-2.15,0-3.79-1.41-3.79-3.78c0-2.37,1.56-3.88,3.91-3.88
		C243.9,377.52,245.4,379.07,245.4,381.27z M240.09,381.35c0,1.26,0.52,2.21,1.5,2.21c0.89,0,1.46-0.88,1.46-2.21
		c0-1.09-0.42-2.21-1.46-2.21C240.5,379.14,240.09,380.27,240.09,381.35z"/>
	<path class="st1" d="M246.8,383.03c0.42,0.25,1.29,0.56,1.96,0.56c0.69,0,0.98-0.24,0.98-0.62s-0.23-0.56-1.08-0.84
		c-1.51-0.51-2.1-1.33-2.08-2.21c0-1.37,1.17-2.4,2.98-2.4c0.85,0,1.62,0.2,2.07,0.42l-0.41,1.58c-0.33-0.18-0.96-0.42-1.59-0.42
		c-0.56,0-0.87,0.22-0.87,0.6c0,0.35,0.29,0.53,1.19,0.84c1.4,0.48,1.98,1.18,2,2.26c0,1.37-1.08,2.37-3.18,2.37
		c-0.96,0-1.81-0.21-2.37-0.51L246.8,383.03z"/>
	<path class="st1" d="M255.68,375.65c0,0.63-0.48,1.14-1.23,1.14c-0.72,0-1.2-0.51-1.19-1.14c-0.02-0.66,0.46-1.15,1.2-1.15
		C255.2,374.5,255.66,374.99,255.68,375.65z M253.32,385.02v-7.33h2.28v7.33H253.32z"/>
	<path class="st1" d="M257.42,383.03c0.42,0.25,1.29,0.56,1.96,0.56c0.69,0,0.98-0.24,0.98-0.62s-0.23-0.56-1.08-0.84
		c-1.51-0.51-2.1-1.33-2.08-2.21c0-1.37,1.17-2.4,2.98-2.4c0.85,0,1.62,0.2,2.07,0.42l-0.41,1.58c-0.33-0.18-0.96-0.42-1.59-0.42
		c-0.56,0-0.87,0.22-0.87,0.6c0,0.35,0.29,0.53,1.19,0.84c1.4,0.48,1.98,1.18,2,2.26c0,1.37-1.08,2.37-3.18,2.37
		c-0.96,0-1.81-0.21-2.37-0.51L257.42,383.03z"/>
	<path class="st1" d="M266.49,375.59v2.1h1.63v1.68h-1.63v2.65c0,0.88,0.21,1.29,0.9,1.29c0.29,0,0.51-0.03,0.67-0.06l0.02,1.72
		c-0.3,0.12-0.84,0.2-1.48,0.2c-0.73,0-1.35-0.26-1.71-0.63c-0.42-0.43-0.63-1.14-0.63-2.17v-3h-0.98v-1.68h0.98v-1.59
		L266.49,375.59z"/>
	<path class="st1" d="M271.12,382.08c0.08,0.94,1,1.39,2.07,1.39c0.78,0,1.41-0.11,2.02-0.3l0.3,1.54c-0.75,0.3-1.67,0.45-2.66,0.45
		c-2.49,0-3.91-1.44-3.91-3.74c0-1.86,1.15-3.92,3.7-3.92c2.37,0,3.27,1.85,3.27,3.66c0,0.39-0.04,0.74-0.08,0.9H271.12z
		 M273.81,380.52c0-0.55-0.24-1.48-1.29-1.48c-0.96,0-1.35,0.87-1.41,1.48H273.81z"/>
	<path class="st1" d="M277.29,380.03c0-0.92-0.03-1.69-0.06-2.34h1.92l0.1,0.99h0.04c0.31-0.46,0.96-1.16,2.22-1.16
		c0.94,0,1.69,0.48,2.01,1.25h0.03c0.27-0.38,0.6-0.67,0.95-0.88c0.4-0.24,0.85-0.36,1.39-0.36c1.41,0,2.48,0.99,2.48,3.18v4.32
		h-2.22v-3.99c0-1.06-0.35-1.68-1.08-1.68c-0.52,0-0.9,0.36-1.05,0.79c-0.06,0.17-0.09,0.41-0.09,0.58v4.29h-2.22v-4.11
		c0-0.93-0.33-1.56-1.05-1.56c-0.58,0-0.93,0.45-1.06,0.83c-0.08,0.18-0.09,0.39-0.09,0.57v4.27h-2.22V380.03z"/>
	<path class="st1" d="M294.36,385.02l-0.14-0.74h-0.04c-0.48,0.58-1.23,0.9-2.1,0.9c-1.48,0-2.37-1.08-2.37-2.25
		c0-1.91,1.71-2.82,4.3-2.8v-0.11c0-0.39-0.21-0.94-1.33-0.94c-0.75,0-1.54,0.25-2.02,0.55l-0.42-1.47
		c0.51-0.29,1.52-0.65,2.85-0.65c2.44,0,3.22,1.44,3.22,3.17v2.55c0,0.71,0.03,1.38,0.1,1.79H294.36z M294.09,381.56
		c-1.2-0.01-2.13,0.27-2.13,1.16c0,0.58,0.39,0.87,0.9,0.87c0.57,0,1.03-0.38,1.19-0.84c0.03-0.12,0.04-0.25,0.04-0.39V381.56z"/>
	<path class="st1" d="M298.09,383.03c0.42,0.25,1.29,0.56,1.96,0.56c0.69,0,0.98-0.24,0.98-0.62s-0.23-0.56-1.08-0.84
		c-1.51-0.51-2.1-1.33-2.08-2.21c0-1.37,1.17-2.4,2.98-2.4c0.85,0,1.62,0.2,2.07,0.42l-0.41,1.58c-0.33-0.18-0.96-0.42-1.59-0.42
		c-0.56,0-0.87,0.22-0.87,0.6c0,0.35,0.29,0.53,1.19,0.84c1.4,0.48,1.98,1.18,2,2.26c0,1.37-1.08,2.37-3.18,2.37
		c-0.96,0-1.81-0.21-2.37-0.51L298.09,383.03z"/>
	<path class="st1" d="M307.65,380.1c0-1.08-0.03-1.79-0.06-2.42h1.96l0.08,1.35h0.06c0.38-1.07,1.28-1.52,1.98-1.52
		c0.21,0,0.32,0,0.48,0.03v2.14c-0.17-0.03-0.36-0.06-0.62-0.06c-0.84,0-1.41,0.45-1.56,1.16c-0.03,0.15-0.04,0.33-0.04,0.51v3.72
		h-2.28V380.1z"/>
	<path class="st1" d="M314.98,382.08c0.08,0.94,1,1.39,2.07,1.39c0.78,0,1.41-0.11,2.02-0.3l0.3,1.54c-0.75,0.3-1.67,0.45-2.66,0.45
		c-2.49,0-3.92-1.44-3.92-3.74c0-1.86,1.16-3.92,3.71-3.92c2.37,0,3.27,1.85,3.27,3.66c0,0.39-0.04,0.74-0.08,0.9H314.98z
		 M317.67,380.52c0-0.55-0.24-1.48-1.29-1.48c-0.96,0-1.35,0.87-1.41,1.48H317.67z"/>
	<path class="st1" d="M321.15,374.38h2.28v10.65h-2.28V374.38z"/>
	<path class="st1" d="M329.44,385.02l-0.13-0.74h-0.04c-0.48,0.58-1.23,0.9-2.1,0.9c-1.48,0-2.37-1.08-2.37-2.25
		c0-1.91,1.71-2.82,4.3-2.8v-0.11c0-0.39-0.21-0.94-1.33-0.94c-0.75,0-1.54,0.25-2.03,0.55l-0.42-1.47
		c0.51-0.29,1.52-0.65,2.85-0.65c2.44,0,3.22,1.44,3.22,3.17v2.55c0,0.71,0.03,1.38,0.1,1.79H329.44z M329.17,381.56
		c-1.2-0.01-2.13,0.27-2.13,1.16c0,0.58,0.39,0.87,0.9,0.87c0.57,0,1.04-0.38,1.19-0.84c0.03-0.12,0.04-0.25,0.04-0.39V381.56z"/>
	<path class="st1" d="M338.7,384.84c-0.41,0.18-1.17,0.33-2.04,0.33c-2.37,0-3.88-1.44-3.88-3.75c0-2.15,1.47-3.9,4.2-3.9
		c0.6,0,1.26,0.11,1.74,0.29l-0.36,1.7c-0.27-0.12-0.67-0.23-1.28-0.23c-1.2,0-1.98,0.86-1.96,2.06c0,1.35,0.9,2.05,2.01,2.05
		c0.54,0,0.96-0.09,1.31-0.23L338.7,384.84z"/>
	<path class="st1" d="M342.31,375.65c0,0.63-0.48,1.14-1.23,1.14c-0.72,0-1.2-0.51-1.18-1.14c-0.02-0.66,0.46-1.15,1.2-1.15
		C341.83,374.5,342.3,374.99,342.31,375.65z M339.96,385.02v-7.33h2.28v7.33H339.96z"/>
	<path class="st1" d="M351.31,381.27c0,2.68-1.9,3.92-3.87,3.92c-2.15,0-3.79-1.41-3.79-3.78c0-2.37,1.56-3.88,3.91-3.88
		C349.81,377.52,351.31,379.07,351.31,381.27z M346,381.35c0,1.26,0.53,2.21,1.5,2.21c0.88,0,1.46-0.88,1.46-2.21
		c0-1.09-0.42-2.21-1.46-2.21C346.41,379.14,346,380.27,346,381.35z"/>
	<path class="st1" d="M352.72,380.03c0-0.92-0.03-1.69-0.06-2.34h1.98l0.11,1h0.04c0.3-0.46,1.05-1.17,2.26-1.17
		c1.5,0,2.63,0.99,2.63,3.15v4.35h-2.28v-4.06c0-0.95-0.33-1.59-1.15-1.59c-0.63,0-1,0.43-1.16,0.85c-0.06,0.13-0.09,0.36-0.09,0.57
		v4.23h-2.28V380.03z"/>
	<path class="st1" d="M365.68,385.02l-0.13-0.74h-0.04c-0.48,0.58-1.23,0.9-2.1,0.9c-1.48,0-2.37-1.08-2.37-2.25
		c0-1.91,1.71-2.82,4.3-2.8v-0.11c0-0.39-0.21-0.94-1.33-0.94c-0.75,0-1.54,0.25-2.03,0.55l-0.42-1.47
		c0.51-0.29,1.52-0.65,2.85-0.65c2.44,0,3.22,1.44,3.22,3.17v2.55c0,0.71,0.03,1.38,0.1,1.79H365.68z M365.41,381.56
		c-1.2-0.01-2.13,0.27-2.13,1.16c0,0.58,0.39,0.87,0.9,0.87c0.57,0,1.04-0.38,1.19-0.84c0.03-0.12,0.04-0.25,0.04-0.39V381.56z"/>
	<path class="st1" d="M376.54,374.38v8.46c0,0.82,0.03,1.69,0.06,2.19h-2.03l-0.1-1.08h-0.03c-0.46,0.83-1.35,1.25-2.29,1.25
		c-1.74,0-3.13-1.49-3.13-3.76c-0.01-2.48,1.53-3.9,3.29-3.9c0.9,0,1.6,0.32,1.93,0.83h0.03v-3.97H376.54z M374.26,380.79
		c0-0.12-0.01-0.29-0.03-0.41c-0.13-0.62-0.63-1.13-1.33-1.13c-1.04,0-1.58,0.93-1.58,2.08c0,1.25,0.62,2.02,1.56,2.02
		c0.66,0,1.18-0.45,1.32-1.09c0.05-0.17,0.06-0.33,0.06-0.52V380.79z"/>
	<path class="st1" d="M385.62,381.27c0,2.68-1.9,3.92-3.87,3.92c-2.15,0-3.79-1.41-3.79-3.78c0-2.37,1.56-3.88,3.91-3.88
		C384.12,377.52,385.62,379.07,385.62,381.27z M380.31,381.35c0,1.26,0.53,2.21,1.5,2.21c0.88,0,1.46-0.88,1.46-2.21
		c0-1.09-0.42-2.21-1.46-2.21C380.71,379.14,380.31,380.27,380.31,381.35z"/>
	<path class="st1" d="M387.01,383.03c0.42,0.25,1.29,0.56,1.96,0.56c0.69,0,0.97-0.24,0.97-0.62s-0.22-0.56-1.08-0.84
		c-1.51-0.51-2.1-1.33-2.08-2.21c0-1.37,1.17-2.4,2.99-2.4c0.85,0,1.62,0.2,2.07,0.42l-0.41,1.58c-0.33-0.18-0.96-0.42-1.59-0.42
		c-0.56,0-0.87,0.22-0.87,0.6c0,0.35,0.29,0.53,1.18,0.84c1.4,0.48,1.98,1.18,2,2.26c0,1.37-1.08,2.37-3.18,2.37
		c-0.96,0-1.82-0.21-2.37-0.51L387.01,383.03z"/>
</g>
<g>
	<g>
		<line class="st2" x1="308.43" y1="329.12" x2="308.43" y2="363.24"/>
		<g>
			<polygon class="st3" points="324.85,331.55 308.43,321.18 292.02,331.55 292.02,331.65 324.85,331.65 			"/>
		</g>
		<g>
			<polygon class="st3" points="324.85,360.81 308.43,371.18 292.02,360.81 292.02,360.71 324.85,360.71 			"/>
		</g>
	</g>
</g>
<linearGradient id="SVGID_3_" gradientUnits="userSpaceOnUse" x1="144.9328" y1="110.1804" x2="281.9328" y2="110.1804">
	<stop  offset="0" style="stop-color:#8FCCD5"/>
	<stop  offset="0.5" style="stop-color:#5BBAC7"/>
	<stop  offset="1" style="stop-color:#00AAB9"/>
</linearGradient>
<path class="st5" d="M266.43,135.68h-106c-6.6,0-12-5.4-12-12v-27c0-6.6,5.4-12,12-12h106c6.6,0,12,5.4,12,12v27
	C278.43,130.28,273.03,135.68,266.43,135.68z"/>
<g>
	<path d="M179.88,104.67c0.55,0.34,1.34,0.62,2.19,0.62c1.25,0,1.98-0.66,1.98-1.61c0-0.88-0.5-1.39-1.78-1.88
		c-1.54-0.55-2.49-1.34-2.49-2.68c0-1.47,1.22-2.56,3.05-2.56c0.97,0,1.67,0.22,2.09,0.46l-0.34,0.99
		c-0.31-0.17-0.94-0.45-1.79-0.45c-1.29,0-1.78,0.77-1.78,1.42c0,0.88,0.57,1.32,1.88,1.82c1.6,0.62,2.41,1.39,2.41,2.77
		c0,1.46-1.08,2.72-3.31,2.72c-0.91,0-1.9-0.27-2.41-0.6L179.88,104.67z"/>
	<path d="M188.28,97.47c0.01,0.42-0.29,0.76-0.78,0.76c-0.43,0-0.74-0.34-0.74-0.76c0-0.43,0.32-0.77,0.77-0.77
		C187.99,96.7,188.28,97.04,188.28,97.47z M186.91,106.16v-6.78h1.23v6.78H186.91z"/>
	<path d="M190.02,104.9c0.36,0.24,1.01,0.49,1.63,0.49c0.9,0,1.32-0.45,1.32-1.01c0-0.59-0.35-0.91-1.26-1.25
		c-1.22-0.43-1.79-1.11-1.79-1.92c0-1.09,0.88-1.99,2.34-1.99c0.69,0,1.29,0.2,1.67,0.42l-0.31,0.9c-0.27-0.17-0.76-0.39-1.39-0.39
		c-0.73,0-1.13,0.42-1.13,0.92c0,0.56,0.41,0.81,1.29,1.15c1.18,0.45,1.78,1.04,1.78,2.05c0,1.19-0.92,2.03-2.54,2.03
		c-0.74,0-1.43-0.18-1.9-0.46L190.02,104.9z"/>
	<path d="M197.22,97.43v1.95h1.77v0.94h-1.77v3.66c0,0.84,0.24,1.32,0.92,1.32c0.32,0,0.56-0.04,0.71-0.08l0.06,0.92
		c-0.24,0.1-0.62,0.17-1.09,0.17c-0.57,0-1.04-0.18-1.33-0.52c-0.35-0.36-0.48-0.97-0.48-1.77v-3.7h-1.05v-0.94h1.05v-1.63
		L197.22,97.43z"/>
	<path d="M200.97,102.99c0.03,1.67,1.09,2.35,2.33,2.35c0.88,0,1.41-0.15,1.88-0.35l0.21,0.88c-0.43,0.2-1.18,0.42-2.25,0.42
		c-2.09,0-3.33-1.37-3.33-3.42c0-2.05,1.2-3.66,3.18-3.66c2.21,0,2.8,1.95,2.8,3.19c0,0.25-0.03,0.45-0.04,0.57H200.97z
		 M204.58,102.11c0.01-0.79-0.32-2-1.71-2c-1.25,0-1.79,1.15-1.89,2H204.58z"/>
	<path d="M207.29,101.21c0-0.7-0.01-1.28-0.06-1.83h1.08l0.06,1.09h0.04c0.38-0.64,1.01-1.25,2.13-1.25c0.92,0,1.62,0.56,1.92,1.36
		h0.03c0.21-0.38,0.48-0.67,0.76-0.88c0.41-0.31,0.85-0.48,1.5-0.48c0.9,0,2.23,0.59,2.23,2.94v3.99h-1.2v-3.84
		c0-1.3-0.48-2.09-1.47-2.09c-0.7,0-1.25,0.52-1.46,1.12c-0.06,0.17-0.1,0.39-0.1,0.62v4.19h-1.2v-4.06c0-1.08-0.48-1.86-1.42-1.86
		c-0.77,0-1.33,0.62-1.53,1.23c-0.07,0.18-0.1,0.39-0.1,0.6v4.09h-1.2V101.21z"/>
	<path d="M222.72,106.16l-0.1-0.85h-0.04c-0.38,0.53-1.11,1.01-2.07,1.01c-1.37,0-2.07-0.97-2.07-1.95c0-1.64,1.46-2.54,4.08-2.52
		v-0.14c0-0.56-0.15-1.57-1.54-1.57c-0.63,0-1.29,0.2-1.77,0.5l-0.28-0.81c0.56-0.36,1.37-0.6,2.23-0.6c2.07,0,2.58,1.42,2.58,2.77
		v2.54c0,0.59,0.03,1.16,0.11,1.63H222.72z M222.54,102.7c-1.34-0.03-2.87,0.21-2.87,1.53c0,0.8,0.53,1.18,1.16,1.18
		c0.88,0,1.44-0.56,1.64-1.13c0.04-0.13,0.07-0.27,0.07-0.39V102.7z"/>
	<path d="M234.54,96.21v8.19c0,0.6,0.01,1.29,0.06,1.75h-1.11l-0.06-1.18h-0.03c-0.38,0.76-1.2,1.33-2.31,1.33
		c-1.64,0-2.9-1.39-2.9-3.45c-0.01-2.25,1.39-3.64,3.04-3.64c1.04,0,1.74,0.49,2.05,1.04h0.03v-4.05H234.54z M233.31,102.14
		c0-0.15-0.01-0.36-0.06-0.52c-0.18-0.79-0.85-1.43-1.78-1.43c-1.27,0-2.03,1.12-2.03,2.62c0,1.37,0.67,2.51,2,2.51
		c0.83,0,1.58-0.55,1.81-1.47c0.04-0.17,0.06-0.34,0.06-0.53V102.14z"/>
	<path d="M237.27,102.99c0.03,1.67,1.09,2.35,2.33,2.35c0.88,0,1.41-0.15,1.88-0.35l0.21,0.88c-0.43,0.2-1.18,0.42-2.25,0.42
		c-2.09,0-3.33-1.37-3.33-3.42c0-2.05,1.2-3.66,3.18-3.66c2.21,0,2.8,1.95,2.8,3.19c0,0.25-0.03,0.45-0.04,0.57H237.27z
		 M240.88,102.11c0.01-0.79-0.32-2-1.71-2c-1.25,0-1.79,1.15-1.89,2H240.88z"/>
	<path d="M243.6,96.21h1.23v9.95h-1.23V96.21z"/>
	<path d="M191.83,118.3c0-0.8-0.01-1.49-0.06-2.12h1.08l0.04,1.33h0.06c0.31-0.91,1.05-1.48,1.88-1.48c0.14,0,0.24,0.01,0.35,0.04
		v1.16c-0.13-0.03-0.25-0.04-0.42-0.04c-0.87,0-1.48,0.66-1.65,1.58c-0.03,0.17-0.06,0.36-0.06,0.57v3.61h-1.22V118.3z"/>
	<path d="M196.96,119.79c0.03,1.67,1.09,2.35,2.33,2.35c0.88,0,1.41-0.15,1.88-0.35l0.21,0.88c-0.43,0.2-1.18,0.42-2.25,0.42
		c-2.09,0-3.33-1.37-3.33-3.42c0-2.05,1.2-3.66,3.18-3.66c2.21,0,2.8,1.95,2.8,3.19c0,0.25-0.03,0.45-0.04,0.57H196.96z
		 M200.57,118.91c0.01-0.79-0.32-2-1.71-2c-1.25,0-1.79,1.15-1.89,2H200.57z"/>
	<path d="M208.12,122.71c-0.32,0.17-1.04,0.39-1.95,0.39c-2.05,0-3.38-1.39-3.38-3.46c0-2.09,1.43-3.6,3.64-3.6
		c0.73,0,1.37,0.18,1.71,0.35l-0.28,0.95c-0.29-0.17-0.76-0.32-1.43-0.32c-1.55,0-2.4,1.15-2.4,2.56c0,1.57,1.01,2.54,2.35,2.54
		c0.7,0,1.16-0.18,1.51-0.34L208.12,122.71z"/>
	<path d="M215.23,121.11c0,0.7,0.01,1.32,0.06,1.85h-1.09l-0.07-1.11h-0.03c-0.32,0.55-1.04,1.26-2.24,1.26
		c-1.06,0-2.34-0.59-2.34-2.97v-3.96h1.23v3.75c0,1.29,0.39,2.16,1.51,2.16c0.83,0,1.4-0.57,1.63-1.12
		c0.07-0.18,0.11-0.41,0.11-0.63v-4.16h1.23V121.11z"/>
	<path d="M217.27,118.3c0-0.8-0.01-1.49-0.06-2.12h1.08l0.04,1.33h0.06c0.31-0.91,1.05-1.48,1.88-1.48c0.14,0,0.24,0.01,0.35,0.04
		v1.16c-0.13-0.03-0.25-0.04-0.42-0.04c-0.87,0-1.48,0.66-1.65,1.58c-0.03,0.17-0.06,0.36-0.06,0.57v3.61h-1.22V118.3z"/>
	<path d="M221.68,121.7c0.36,0.24,1.01,0.49,1.63,0.49c0.9,0,1.32-0.45,1.32-1.01c0-0.59-0.35-0.91-1.26-1.25
		c-1.22-0.43-1.79-1.11-1.79-1.92c0-1.09,0.88-1.99,2.34-1.99c0.69,0,1.29,0.2,1.67,0.42l-0.31,0.9c-0.27-0.17-0.76-0.39-1.39-0.39
		c-0.73,0-1.13,0.42-1.13,0.92c0,0.56,0.41,0.81,1.29,1.15c1.18,0.45,1.78,1.04,1.78,2.05c0,1.19-0.92,2.03-2.54,2.03
		c-0.74,0-1.43-0.18-1.9-0.46L221.68,121.7z"/>
	<path d="M233.53,119.51c0,2.51-1.74,3.6-3.38,3.6c-1.83,0-3.25-1.34-3.25-3.49c0-2.27,1.48-3.6,3.36-3.6
		C232.21,116.03,233.53,117.44,233.53,119.51z M228.15,119.58c0,1.49,0.85,2.61,2.06,2.61c1.18,0,2.06-1.11,2.06-2.63
		c0-1.15-0.57-2.6-2.03-2.6C228.78,116.95,228.15,118.3,228.15,119.58z"/>
</g>
<linearGradient id="SVGID_4_" gradientUnits="userSpaceOnUse" x1="404.9328" y1="216.1804" x2="541.9328" y2="216.1804">
	<stop  offset="0" style="stop-color:#8FCCD5"/>
	<stop  offset="0.5" style="stop-color:#5BBAC7"/>
	<stop  offset="1" style="stop-color:#00AAB9"/>
</linearGradient>
<path class="st6" d="M526.43,241.68h-106c-6.6,0-12-5.4-12-12v-27c0-6.6,5.4-12,12-12h106c6.6,0,12,5.4,12,12v27
	C538.43,236.28,533.03,241.68,526.43,241.68z"/>
<g>
	<path d="M449.66,210.72v5.59c0,2.12,0.94,3.01,2.2,3.01c1.4,0,2.3-0.92,2.3-3.01v-5.59h1.23v5.5c0,2.9-1.53,4.09-3.57,4.09
		c-1.93,0-3.39-1.11-3.39-4.03v-5.56H449.66z"/>
	<path d="M457.2,218.9c0.36,0.24,1.01,0.49,1.63,0.49c0.9,0,1.32-0.45,1.32-1.01c0-0.59-0.35-0.91-1.26-1.25
		c-1.22-0.43-1.79-1.11-1.79-1.92c0-1.09,0.88-1.99,2.34-1.99c0.69,0,1.29,0.2,1.67,0.42l-0.31,0.9c-0.27-0.17-0.76-0.39-1.39-0.39
		c-0.73,0-1.13,0.42-1.13,0.92c0,0.56,0.41,0.81,1.29,1.15c1.18,0.45,1.78,1.04,1.78,2.05c0,1.19-0.92,2.03-2.54,2.03
		c-0.74,0-1.43-0.18-1.9-0.46L457.2,218.9z"/>
	<path d="M468.59,218.31c0,0.7,0.01,1.32,0.06,1.85h-1.09l-0.07-1.11h-0.03c-0.32,0.55-1.04,1.26-2.24,1.26
		c-1.06,0-2.34-0.59-2.34-2.97v-3.96h1.23v3.75c0,1.29,0.39,2.16,1.51,2.16c0.83,0,1.4-0.57,1.63-1.12
		c0.07-0.18,0.11-0.41,0.11-0.63v-4.16h1.23V218.31z"/>
	<path d="M474.38,220.16l-0.1-0.85h-0.04c-0.38,0.53-1.11,1.01-2.07,1.01c-1.37,0-2.07-0.97-2.07-1.95c0-1.64,1.46-2.54,4.08-2.52
		v-0.14c0-0.56-0.15-1.57-1.54-1.57c-0.63,0-1.29,0.2-1.76,0.5l-0.28-0.81c0.56-0.36,1.37-0.6,2.23-0.6c2.07,0,2.58,1.42,2.58,2.77
		v2.54c0,0.59,0.03,1.16,0.11,1.63H474.38z M474.2,216.7c-1.34-0.03-2.87,0.21-2.87,1.53c0,0.8,0.53,1.18,1.16,1.18
		c0.88,0,1.44-0.56,1.64-1.13c0.04-0.13,0.07-0.27,0.07-0.39V216.7z"/>
	<path d="M477.38,215.5c0-0.8-0.01-1.49-0.06-2.12h1.08l0.04,1.33h0.06c0.31-0.91,1.05-1.48,1.88-1.48c0.14,0,0.24,0.01,0.35,0.04
		v1.16c-0.13-0.03-0.25-0.04-0.42-0.04c-0.87,0-1.48,0.66-1.65,1.58c-0.03,0.17-0.06,0.36-0.06,0.57v3.61h-1.22V215.5z"/>
	<path d="M483.38,211.47c0.01,0.42-0.29,0.76-0.79,0.76c-0.43,0-0.74-0.34-0.74-0.76c0-0.43,0.32-0.77,0.77-0.77
		C483.09,210.7,483.38,211.04,483.38,211.47z M482.01,220.16v-6.78h1.23v6.78H482.01z"/>
	<path d="M491.42,216.71c0,2.51-1.74,3.6-3.38,3.6c-1.83,0-3.25-1.34-3.25-3.49c0-2.27,1.49-3.6,3.36-3.6
		C490.1,213.23,491.42,214.64,491.42,216.71z M486.04,216.78c0,1.49,0.85,2.61,2.06,2.61c1.18,0,2.06-1.11,2.06-2.63
		c0-1.15-0.57-2.6-2.03-2.6S486.04,215.5,486.04,216.78z"/>
	<path d="M492.8,218.9c0.36,0.24,1.01,0.49,1.63,0.49c0.9,0,1.32-0.45,1.32-1.01c0-0.59-0.35-0.91-1.26-1.25
		c-1.22-0.43-1.79-1.11-1.79-1.92c0-1.09,0.88-1.99,2.34-1.99c0.69,0,1.29,0.2,1.67,0.42l-0.31,0.9c-0.27-0.17-0.76-0.39-1.39-0.39
		c-0.73,0-1.13,0.42-1.13,0.92c0,0.56,0.41,0.81,1.29,1.15c1.18,0.45,1.78,1.04,1.78,2.05c0,1.19-0.92,2.03-2.54,2.03
		c-0.74,0-1.43-0.18-1.91-0.46L492.8,218.9z"/>
</g>
<linearGradient id="SVGID_5_" gradientUnits="userSpaceOnUse" x1="74.9328" y1="216.1804" x2="211.9328" y2="216.1804">
	<stop  offset="0" style="stop-color:#8FCCD5"/>
	<stop  offset="0.5" style="stop-color:#5BBAC7"/>
	<stop  offset="1" style="stop-color:#00AAB9"/>
</linearGradient>
<path class="st7" d="M196.43,241.68h-106c-6.6,0-12-5.4-12-12v-27c0-6.6,5.4-12,12-12h106c6.6,0,12,5.4,12,12v27
	C208.43,236.28,203.03,241.68,196.43,241.68z"/>
<g>
	<path d="M108.18,202.72v5.59c0,2.12,0.94,3.01,2.2,3.01c1.4,0,2.3-0.92,2.3-3.01v-5.59h1.23v5.5c0,2.9-1.53,4.09-3.57,4.09
		c-1.93,0-3.39-1.11-3.39-4.03v-5.56H108.18z"/>
	<path d="M115.97,207.21c0-0.7-0.01-1.28-0.06-1.83h1.09l0.07,1.12h0.03c0.34-0.64,1.12-1.27,2.24-1.27c0.94,0,2.4,0.56,2.4,2.89
		v4.05h-1.23v-3.91c0-1.09-0.41-2-1.57-2c-0.81,0-1.44,0.57-1.65,1.26c-0.06,0.15-0.08,0.36-0.08,0.57v4.08h-1.23V207.21z"/>
	<path d="M125.12,203.47c0.01,0.42-0.29,0.76-0.78,0.76c-0.43,0-0.74-0.34-0.74-0.76c0-0.43,0.32-0.77,0.77-0.77
		C124.82,202.7,125.12,203.04,125.12,203.47z M123.74,212.16v-6.78h1.23v6.78H123.74z"/>
	<path d="M132.87,202.21v8.19c0,0.6,0.01,1.29,0.06,1.75h-1.11l-0.06-1.18h-0.03c-0.38,0.76-1.2,1.33-2.31,1.33
		c-1.64,0-2.9-1.39-2.9-3.45c-0.01-2.25,1.39-3.64,3.04-3.64c1.04,0,1.74,0.49,2.05,1.04h0.03v-4.05H132.87z M131.64,208.14
		c0-0.15-0.01-0.36-0.06-0.52c-0.18-0.79-0.85-1.43-1.78-1.43c-1.27,0-2.03,1.12-2.03,2.62c0,1.37,0.67,2.51,2,2.51
		c0.83,0,1.58-0.55,1.81-1.47c0.04-0.17,0.06-0.34,0.06-0.53V208.14z"/>
	<path d="M138.67,212.16l-0.1-0.85h-0.04c-0.38,0.53-1.11,1.01-2.07,1.01c-1.37,0-2.07-0.97-2.07-1.95c0-1.64,1.46-2.54,4.08-2.52
		v-0.14c0-0.56-0.15-1.57-1.54-1.57c-0.63,0-1.29,0.2-1.76,0.5l-0.28-0.81c0.56-0.36,1.37-0.6,2.23-0.6c2.07,0,2.58,1.42,2.58,2.77
		v2.54c0,0.59,0.03,1.16,0.11,1.63H138.67z M138.49,208.7c-1.34-0.03-2.87,0.21-2.87,1.53c0,0.8,0.53,1.18,1.16,1.18
		c0.88,0,1.44-0.56,1.64-1.13c0.04-0.13,0.07-0.27,0.07-0.39V208.7z"/>
	<path d="M147.52,202.21v8.19c0,0.6,0.01,1.29,0.06,1.75h-1.11l-0.06-1.18h-0.03c-0.38,0.76-1.2,1.33-2.31,1.33
		c-1.64,0-2.9-1.39-2.9-3.45c-0.01-2.25,1.39-3.64,3.04-3.64c1.04,0,1.74,0.49,2.05,1.04h0.03v-4.05H147.52z M146.29,208.14
		c0-0.15-0.01-0.36-0.06-0.52c-0.18-0.79-0.85-1.43-1.78-1.43c-1.27,0-2.03,1.12-2.03,2.62c0,1.37,0.67,2.51,2,2.51
		c0.83,0,1.58-0.55,1.81-1.47c0.04-0.17,0.06-0.34,0.06-0.53V208.14z"/>
	<path d="M150.25,208.99c0.03,1.67,1.09,2.35,2.33,2.35c0.88,0,1.41-0.15,1.88-0.35l0.21,0.88c-0.43,0.2-1.18,0.42-2.25,0.42
		c-2.09,0-3.33-1.37-3.33-3.42c0-2.05,1.2-3.66,3.18-3.66c2.21,0,2.8,1.95,2.8,3.19c0,0.25-0.03,0.45-0.04,0.57H150.25z
		 M153.86,208.11c0.01-0.79-0.32-2-1.71-2c-1.25,0-1.79,1.15-1.89,2H153.86z"/>
	<path d="M156.4,210.9c0.36,0.24,1.01,0.49,1.63,0.49c0.9,0,1.32-0.45,1.32-1.01c0-0.59-0.35-0.91-1.26-1.25
		c-1.22-0.43-1.79-1.11-1.79-1.92c0-1.09,0.88-1.99,2.34-1.99c0.69,0,1.29,0.2,1.67,0.42l-0.31,0.9c-0.27-0.17-0.76-0.39-1.39-0.39
		c-0.73,0-1.13,0.42-1.13,0.92c0,0.56,0.41,0.81,1.29,1.15c1.18,0.45,1.78,1.04,1.78,2.05c0,1.19-0.92,2.03-2.54,2.03
		c-0.74,0-1.43-0.18-1.9-0.46L156.4,210.9z"/>
	<path d="M170.94,202.21v8.19c0,0.6,0.01,1.29,0.06,1.75h-1.11l-0.06-1.18h-0.03c-0.38,0.76-1.2,1.33-2.31,1.33
		c-1.64,0-2.9-1.39-2.9-3.45c-0.01-2.25,1.39-3.64,3.04-3.64c1.04,0,1.74,0.49,2.05,1.04h0.03v-4.05H170.94z M169.71,208.14
		c0-0.15-0.01-0.36-0.06-0.52c-0.18-0.79-0.85-1.43-1.78-1.43c-1.27,0-2.03,1.12-2.03,2.62c0,1.37,0.67,2.51,2,2.51
		c0.83,0,1.58-0.55,1.81-1.47c0.04-0.17,0.06-0.34,0.06-0.53V208.14z"/>
	<path d="M173.67,208.99c0.03,1.67,1.09,2.35,2.33,2.35c0.88,0,1.41-0.15,1.88-0.35l0.21,0.88c-0.43,0.2-1.18,0.42-2.25,0.42
		c-2.09,0-3.33-1.37-3.33-3.42c0-2.05,1.2-3.66,3.18-3.66c2.21,0,2.8,1.95,2.8,3.19c0,0.25-0.03,0.45-0.04,0.57H173.67z
		 M177.28,208.11c0.01-0.79-0.32-2-1.71-2c-1.25,0-1.79,1.15-1.89,2H177.28z"/>
	<path d="M121.83,224.3c0-0.8-0.01-1.49-0.06-2.12h1.08l0.04,1.33h0.06c0.31-0.91,1.05-1.48,1.88-1.48c0.14,0,0.24,0.01,0.35,0.04
		v1.16c-0.13-0.03-0.25-0.04-0.42-0.04c-0.87,0-1.48,0.66-1.65,1.58c-0.03,0.17-0.06,0.36-0.06,0.57v3.61h-1.22V224.3z"/>
	<path d="M126.96,225.79c0.03,1.67,1.09,2.35,2.33,2.35c0.88,0,1.41-0.15,1.88-0.35l0.21,0.88c-0.43,0.2-1.18,0.42-2.25,0.42
		c-2.09,0-3.33-1.37-3.33-3.42c0-2.05,1.2-3.66,3.18-3.66c2.21,0,2.8,1.95,2.8,3.19c0,0.25-0.03,0.45-0.04,0.57H126.96z
		 M130.57,224.91c0.01-0.79-0.32-2-1.71-2c-1.25,0-1.79,1.15-1.89,2H130.57z"/>
	<path d="M138.12,228.71c-0.32,0.17-1.04,0.39-1.95,0.39c-2.05,0-3.38-1.39-3.38-3.46c0-2.09,1.43-3.6,3.64-3.6
		c0.73,0,1.37,0.18,1.71,0.35l-0.28,0.95c-0.29-0.17-0.76-0.32-1.43-0.32c-1.55,0-2.4,1.15-2.4,2.56c0,1.57,1.01,2.54,2.35,2.54
		c0.7,0,1.16-0.18,1.51-0.34L138.12,228.71z"/>
	<path d="M145.23,227.11c0,0.7,0.01,1.32,0.06,1.85h-1.09l-0.07-1.11h-0.03c-0.32,0.55-1.04,1.26-2.24,1.26
		c-1.06,0-2.34-0.59-2.34-2.97v-3.96h1.23v3.75c0,1.29,0.39,2.16,1.51,2.16c0.83,0,1.4-0.57,1.63-1.12
		c0.07-0.18,0.11-0.41,0.11-0.63v-4.16h1.23V227.11z"/>
	<path d="M147.27,224.3c0-0.8-0.01-1.49-0.06-2.12h1.08l0.04,1.33h0.06c0.31-0.91,1.05-1.48,1.88-1.48c0.14,0,0.24,0.01,0.35,0.04
		v1.16c-0.13-0.03-0.25-0.04-0.42-0.04c-0.87,0-1.48,0.66-1.65,1.58c-0.03,0.17-0.06,0.36-0.06,0.57v3.61h-1.22V224.3z"/>
	<path d="M151.68,227.7c0.36,0.24,1.01,0.49,1.63,0.49c0.9,0,1.32-0.45,1.32-1.01c0-0.59-0.35-0.91-1.26-1.25
		c-1.22-0.43-1.79-1.11-1.79-1.92c0-1.09,0.88-1.99,2.34-1.99c0.69,0,1.29,0.2,1.67,0.42l-0.31,0.9c-0.27-0.17-0.76-0.39-1.39-0.39
		c-0.73,0-1.13,0.42-1.13,0.92c0,0.56,0.41,0.81,1.29,1.15c1.18,0.45,1.78,1.04,1.78,2.05c0,1.19-0.92,2.03-2.54,2.03
		c-0.74,0-1.43-0.18-1.9-0.46L151.68,227.7z"/>
	<path d="M163.53,225.51c0,2.51-1.74,3.6-3.38,3.6c-1.83,0-3.25-1.34-3.25-3.49c0-2.27,1.48-3.6,3.36-3.6
		C162.21,222.03,163.53,223.44,163.53,225.51z M158.15,225.58c0,1.49,0.85,2.61,2.06,2.61c1.18,0,2.06-1.11,2.06-2.63
		c0-1.15-0.57-2.6-2.03-2.6C158.78,222.95,158.15,224.3,158.15,225.58z"/>
</g>
<g>
	<path class="st1" d="M269.11,212.87v9.44h-2.14v-9.44H269.11z"/>
	<path class="st1" d="M270.93,217.65c0-0.85-0.03-1.58-0.06-2.19h1.85l0.1,0.94h0.04c0.28-0.43,0.98-1.09,2.12-1.09
		c1.4,0,2.45,0.92,2.45,2.94v4.06h-2.13v-3.8c0-0.88-0.31-1.49-1.08-1.49c-0.59,0-0.94,0.41-1.08,0.8
		c-0.06,0.13-0.08,0.34-0.08,0.53v3.95h-2.13V217.65z"/>
	<path class="st1" d="M281.43,213.5v1.96h1.53v1.57h-1.53v2.48c0,0.83,0.2,1.21,0.84,1.21c0.27,0,0.48-0.03,0.63-0.06l0.01,1.61
		c-0.28,0.11-0.78,0.18-1.39,0.18c-0.69,0-1.26-0.24-1.6-0.59c-0.39-0.41-0.59-1.06-0.59-2.03v-2.8h-0.91v-1.57h0.91v-1.49
		L281.43,213.5z"/>
	<path class="st1" d="M285.76,219.57c0.07,0.88,0.94,1.3,1.93,1.3c0.73,0,1.32-0.1,1.89-0.28l0.28,1.44
		c-0.7,0.28-1.56,0.42-2.48,0.42c-2.33,0-3.66-1.34-3.66-3.49c0-1.74,1.08-3.66,3.46-3.66c2.21,0,3.05,1.72,3.05,3.42
		c0,0.36-0.04,0.69-0.07,0.84H285.76z M288.26,218.11c0-0.52-0.22-1.39-1.2-1.39c-0.9,0-1.26,0.81-1.32,1.39H288.26z"/>
	<path class="st1" d="M291.51,217.72c0-1.01-0.03-1.67-0.06-2.25h1.83l0.07,1.26h0.06c0.35-1,1.19-1.42,1.85-1.42
		c0.2,0,0.29,0,0.45,0.03v2c-0.15-0.03-0.34-0.06-0.57-0.06c-0.78,0-1.32,0.42-1.46,1.08c-0.03,0.14-0.04,0.31-0.04,0.48v3.47h-2.13
		V217.72z"/>
	<path class="st1" d="M300.57,222.31l-0.13-0.69h-0.04c-0.45,0.55-1.15,0.84-1.96,0.84c-1.39,0-2.21-1.01-2.21-2.1
		c0-1.78,1.6-2.63,4.02-2.62v-0.1c0-0.36-0.2-0.88-1.25-0.88c-0.7,0-1.44,0.24-1.89,0.52l-0.39-1.37c0.48-0.27,1.41-0.6,2.66-0.6
		c2.28,0,3.01,1.34,3.01,2.96v2.38c0,0.66,0.03,1.29,0.1,1.67H300.57z M300.32,219.08c-1.12-0.01-1.99,0.25-1.99,1.08
		c0,0.55,0.36,0.81,0.84,0.81c0.53,0,0.97-0.35,1.11-0.78c0.03-0.11,0.04-0.24,0.04-0.36V219.08z"/>
	<path class="st1" d="M309.21,222.15c-0.38,0.17-1.09,0.31-1.9,0.31c-2.21,0-3.63-1.34-3.63-3.5c0-2,1.37-3.64,3.92-3.64
		c0.56,0,1.18,0.1,1.63,0.27l-0.34,1.58c-0.25-0.11-0.63-0.21-1.19-0.21c-1.12,0-1.85,0.8-1.83,1.92c0,1.26,0.84,1.92,1.88,1.92
		c0.5,0,0.9-0.08,1.22-0.21L309.21,222.15z"/>
	<path class="st1" d="M315.37,222.15c-0.38,0.17-1.09,0.31-1.9,0.31c-2.21,0-3.63-1.34-3.63-3.5c0-2,1.37-3.64,3.92-3.64
		c0.56,0,1.18,0.1,1.63,0.27l-0.34,1.58c-0.25-0.11-0.63-0.21-1.19-0.21c-1.12,0-1.85,0.8-1.83,1.92c0,1.26,0.84,1.92,1.88,1.92
		c0.5,0,0.9-0.08,1.22-0.21L315.37,222.15z"/>
	<path class="st1" d="M318.74,213.56c0,0.59-0.45,1.06-1.15,1.06c-0.67,0-1.12-0.48-1.11-1.06c-0.01-0.62,0.43-1.08,1.12-1.08
		S318.73,212.94,318.74,213.56z M316.54,222.31v-6.85h2.13v6.85H316.54z"/>
	<path class="st1" d="M327.14,218.81c0,2.51-1.78,3.66-3.61,3.66c-2,0-3.54-1.32-3.54-3.53s1.46-3.63,3.66-3.63
		C325.74,215.31,327.14,216.75,327.14,218.81z M322.18,218.88c0,1.18,0.49,2.06,1.4,2.06c0.83,0,1.36-0.83,1.36-2.06
		c0-1.02-0.39-2.06-1.36-2.06C322.56,216.82,322.18,217.87,322.18,218.88z"/>
	<path class="st1" d="M328.46,217.65c0-0.85-0.03-1.58-0.06-2.19h1.85l0.1,0.94h0.04c0.28-0.43,0.98-1.09,2.12-1.09
		c1.4,0,2.45,0.92,2.45,2.94v4.06h-2.13v-3.8c0-0.88-0.31-1.49-1.08-1.49c-0.59,0-0.94,0.41-1.08,0.8
		c-0.06,0.13-0.08,0.34-0.08,0.53v3.95h-2.13V217.65z"/>
	<path class="st1" d="M338.3,219.57c0.07,0.88,0.94,1.3,1.93,1.3c0.73,0,1.32-0.1,1.89-0.28l0.28,1.44
		c-0.7,0.28-1.55,0.42-2.48,0.42c-2.33,0-3.66-1.34-3.66-3.49c0-1.74,1.08-3.66,3.46-3.66c2.21,0,3.05,1.72,3.05,3.42
		c0,0.36-0.04,0.69-0.07,0.84H338.3z M340.8,218.11c0-0.52-0.22-1.39-1.2-1.39c-0.9,0-1.26,0.81-1.32,1.39H340.8z"/>
	<path class="st1" d="M344.04,220.45c0.39,0.24,1.2,0.52,1.83,0.52c0.64,0,0.91-0.22,0.91-0.57c0-0.35-0.21-0.52-1.01-0.78
		c-1.42-0.48-1.96-1.25-1.95-2.06c0-1.27,1.09-2.24,2.79-2.24c0.8,0,1.51,0.18,1.93,0.39l-0.38,1.47c-0.31-0.17-0.9-0.39-1.48-0.39
		c-0.52,0-0.81,0.21-0.81,0.56c0,0.32,0.27,0.49,1.11,0.78c1.3,0.45,1.85,1.11,1.86,2.12c0,1.27-1.01,2.21-2.97,2.21
		c-0.9,0-1.7-0.2-2.21-0.48L344.04,220.45z"/>
</g>
<g>
	<path class="st1" d="M274.18,297c0.69-0.11,1.71-0.2,2.84-0.2c1.4,0,2.38,0.21,3.05,0.74c0.56,0.45,0.87,1.11,0.87,1.97
		c0,1.21-0.85,2.03-1.67,2.33v0.04c0.66,0.27,1.02,0.9,1.26,1.77c0.29,1.06,0.59,2.3,0.77,2.66h-2.19c-0.15-0.27-0.38-1.04-0.66-2.2
		c-0.25-1.18-0.66-1.5-1.53-1.51h-0.64v3.71h-2.12V297z M276.29,301.06h0.84c1.06,0,1.7-0.53,1.7-1.36c0-0.87-0.59-1.3-1.57-1.32
		c-0.52,0-0.81,0.04-0.97,0.07V301.06z"/>
	<path class="st1" d="M284.05,303.57c0.07,0.88,0.94,1.3,1.93,1.3c0.73,0,1.32-0.1,1.89-0.28l0.28,1.44
		c-0.7,0.28-1.55,0.42-2.48,0.42c-2.33,0-3.66-1.34-3.66-3.49c0-1.74,1.08-3.66,3.46-3.66c2.21,0,3.05,1.72,3.05,3.42
		c0,0.36-0.04,0.69-0.07,0.84H284.05z M286.56,302.11c0-0.52-0.22-1.39-1.2-1.39c-0.9,0-1.26,0.81-1.32,1.39H286.56z"/>
	<path class="st1" d="M289.79,304.45c0.39,0.24,1.2,0.52,1.83,0.52c0.64,0,0.91-0.22,0.91-0.57c0-0.35-0.21-0.52-1.01-0.78
		c-1.42-0.48-1.96-1.25-1.95-2.06c0-1.27,1.09-2.24,2.79-2.24c0.8,0,1.51,0.18,1.93,0.39l-0.38,1.47c-0.31-0.17-0.9-0.39-1.48-0.39
		c-0.52,0-0.81,0.21-0.81,0.56c0,0.32,0.27,0.49,1.11,0.78c1.3,0.45,1.85,1.11,1.86,2.12c0,1.27-1.01,2.21-2.97,2.21
		c-0.9,0-1.69-0.2-2.21-0.48L289.79,304.45z"/>
	<path class="st1" d="M302.33,304.12c0,0.9,0.03,1.63,0.06,2.2h-1.85l-0.1-0.97h-0.04c-0.27,0.42-0.91,1.12-2.14,1.12
		c-1.39,0-2.41-0.87-2.41-2.98v-4.02h2.14v3.68c0,1,0.32,1.6,1.06,1.6c0.59,0,0.92-0.41,1.06-0.74c0.06-0.13,0.07-0.29,0.07-0.46
		v-4.08h2.14V304.12z"/>
	<path class="st1" d="M304.04,296.37h2.13v9.95h-2.13V296.37z"/>
	<path class="st1" d="M310.27,297.5v1.96h1.53v1.57h-1.53v2.48c0,0.83,0.2,1.21,0.84,1.21c0.27,0,0.48-0.03,0.63-0.06l0.01,1.61
		c-0.28,0.11-0.78,0.18-1.39,0.18c-0.69,0-1.26-0.24-1.6-0.59c-0.39-0.41-0.59-1.06-0.59-2.03v-2.8h-0.91v-1.57h0.91v-1.49
		L310.27,297.5z"/>
	<path class="st1" d="M316.92,306.31l-0.13-0.69h-0.04c-0.45,0.55-1.15,0.84-1.96,0.84c-1.39,0-2.21-1.01-2.21-2.1
		c0-1.78,1.6-2.63,4.02-2.62v-0.1c0-0.36-0.2-0.88-1.25-0.88c-0.7,0-1.44,0.24-1.89,0.52l-0.39-1.37c0.48-0.27,1.42-0.6,2.66-0.6
		c2.28,0,3.01,1.34,3.01,2.96v2.38c0,0.66,0.03,1.29,0.1,1.67H316.92z M316.67,303.08c-1.12-0.01-1.99,0.25-1.99,1.08
		c0,0.55,0.36,0.81,0.84,0.81c0.53,0,0.97-0.35,1.11-0.78c0.03-0.11,0.04-0.24,0.04-0.36V303.08z"/>
	<path class="st1" d="M327.06,296.37v7.9c0,0.77,0.03,1.58,0.06,2.04h-1.89l-0.1-1.01h-0.03c-0.43,0.77-1.26,1.16-2.14,1.16
		c-1.63,0-2.93-1.39-2.93-3.52c-0.01-2.31,1.43-3.64,3.07-3.64c0.84,0,1.5,0.29,1.81,0.77h0.03v-3.71H327.06z M324.93,302.36
		c0-0.11-0.01-0.27-0.03-0.38c-0.13-0.57-0.59-1.05-1.25-1.05c-0.97,0-1.47,0.87-1.47,1.95c0,1.16,0.57,1.89,1.46,1.89
		c0.62,0,1.11-0.42,1.23-1.02c0.04-0.15,0.06-0.31,0.06-0.49V302.36z"/>
	<path class="st1" d="M335.53,302.81c0,2.51-1.78,3.66-3.61,3.66c-2,0-3.54-1.32-3.54-3.53s1.46-3.63,3.66-3.63
		C334.13,299.31,335.53,300.75,335.53,302.81z M330.57,302.88c0,1.18,0.49,2.06,1.4,2.06c0.83,0,1.36-0.83,1.36-2.06
		c0-1.02-0.39-2.06-1.36-2.06C330.95,300.82,330.57,301.87,330.57,302.88z"/>
	<path class="st1" d="M336.83,304.45c0.39,0.24,1.21,0.52,1.83,0.52c0.64,0,0.91-0.22,0.91-0.57c0-0.35-0.21-0.52-1.01-0.78
		c-1.42-0.48-1.96-1.25-1.95-2.06c0-1.27,1.09-2.24,2.79-2.24c0.8,0,1.51,0.18,1.93,0.39l-0.38,1.47c-0.31-0.17-0.9-0.39-1.49-0.39
		c-0.52,0-0.81,0.21-0.81,0.56c0,0.32,0.27,0.49,1.11,0.78c1.3,0.45,1.85,1.11,1.86,2.12c0,1.27-1.01,2.21-2.97,2.21
		c-0.9,0-1.69-0.2-2.21-0.48L336.83,304.45z"/>
</g>
<g>
	<g>
		<line class="st8" x1="255.23" y1="218.68" x2="222.64" y2="218.68"/>
		<g>
			<polygon class="st3" points="254.09,226.34 258.93,218.68 254.09,211.02 254.04,211.02 254.04,226.34 			"/>
		</g>
		<g>
			<polygon class="st3" points="223.77,226.34 218.93,218.68 223.77,211.02 223.82,211.02 223.82,226.34 			"/>
		</g>
	</g>
</g>
<g>
	<g>
		<line class="st8" x1="395.23" y1="218.68" x2="362.64" y2="218.68"/>
		<g>
			<polygon class="st3" points="394.09,226.34 398.93,218.68 394.09,211.02 394.04,211.02 394.04,226.34 			"/>
		</g>
		<g>
			<polygon class="st3" points="363.77,226.34 358.93,218.68 363.77,211.02 363.82,211.02 363.82,226.34 			"/>
		</g>
	</g>
</g>
<g>
	<g>
		<line class="st9" x1="308.43" y1="229.18" x2="308.43" y2="284.94"/>
		<g>
			<polygon class="st3" points="317.19,283.65 308.43,289.18 299.68,283.65 299.68,283.59 317.19,283.59 			"/>
		</g>
	</g>
</g>
<g>
	<g>
		<line class="st8" x1="271.2" y1="191.62" x2="246.66" y2="149.74"/>
		<g>
			<polygon class="st3" points="264.02,194.52 273.07,194.82 277.24,186.78 277.21,186.73 263.99,194.48 			"/>
		</g>
		<g>
			<polygon class="st3" points="240.63,154.58 244.79,146.54 253.85,146.84 253.87,146.88 240.65,154.63 			"/>
		</g>
	</g>
</g>
<g>
	<g>
		<line class="st8" x1="371.2" y1="149.74" x2="346.66" y2="191.62"/>
		<g>
			<polygon class="st3" points="377.24,154.58 373.08,146.54 364.02,146.84 363.99,146.88 377.21,154.63 			"/>
		</g>
		<g>
			<polygon class="st3" points="353.85,194.52 344.79,194.82 340.63,186.78 340.65,186.73 353.87,194.48 			"/>
		</g>
	</g>
</g>
<g>
	<g>
		<line class="st8" x1="180.45" y1="150.16" x2="157.41" y2="173.2"/>
		<g>
			<polygon class="st3" points="185.07,156.38 183.08,147.54 174.24,145.54 174.2,145.58 185.04,156.41 			"/>
		</g>
		<g>
			<polygon class="st3" points="163.63,177.82 154.79,175.82 152.8,166.99 152.83,166.95 163.66,177.78 			"/>
		</g>
	</g>
</g>
<g>
	<g>
		<line class="st8" x1="460.45" y1="173.2" x2="437.41" y2="150.16"/>
		<g>
			<polygon class="st3" points="454.24,177.82 463.07,175.82 465.07,166.99 465.04,166.95 454.2,177.78 			"/>
		</g>
		<g>
			<polygon class="st3" points="432.8,156.38 434.79,147.54 443.63,145.54 443.66,145.58 432.83,156.41 			"/>
		</g>
	</g>
</g>
<g>
	<g>
		<path class="st10" d="M258.43,302.18c0,0-54.29-4.29-80.14-47.26"/>
		<g>
			<polygon class="st3" points="172.2,259.78 176.43,251.68 185.56,252.02 185.59,252.06 172.23,259.82 			"/>
		</g>
	</g>
</g>
<g>
	<g>
		<path class="st10" d="M258.43,302.18c0,0-207,4.5-217-89.5c-8.75-82.24,74.53-98.85,93.29-101.54"/>
		<g>
			<polygon class="st3" points="132.61,103.64 138.43,110.68 134.57,118.96 134.52,118.97 132.56,103.64 			"/>
		</g>
	</g>
</g>
<g>
	<g>
		<path class="st10" d="M357.79,302.18c0,0,54.29-4.29,80.14-47.26"/>
		<g>
			<polygon class="st3" points="430.66,252.02 439.79,251.68 444.02,259.78 444,259.82 430.64,252.06 			"/>
		</g>
	</g>
</g>
<g>
	<g>
		<path class="st10" d="M357.79,302.18c0,0,207,4.5,217-89.5c8.75-82.24-74.53-98.85-93.29-101.54"/>
		<g>
			<polygon class="st3" points="481.65,118.96 477.79,110.68 483.61,103.64 483.66,103.64 481.7,118.97 			"/>
		</g>
	</g>
</g>
</svg>
