<?xml version="1.0" encoding="utf-8"?>
<!-- Generator: Adobe Illustrator 24.0.1, SVG Export Plug-In . SVG Version: 6.00 Build 0)  -->
<svg version="1.1" xmlns="http://www.w3.org/2000/svg" xmlns:xlink="http://www.w3.org/1999/xlink" x="0px" y="0px"
	 viewBox="0 0 408 409" style="enable-background:new 0 0 408 409;" xml:space="preserve">
<style type="text/css">
	.st0{fill:#D526E8;}
	.st1{fill:#26D1E8;}
	.st2{fill:#FCEE21;}
	.st3{fill:url(#SVGID_1_);}
	.st4{fill:#3942E2;}
	.st5{fill:#FF482A;}
	.st6{fill:#42FF66;}
	.st7{clip-path:url(#SVGID_3_);fill:url(#SVGID_4_);}
	.st8{fill:#FFFFFF;}
</style>
<g id="Layer_1">
	<ellipse class="st0" cx="204.5" cy="143.25" rx="62" ry="109.12"/>
	<path class="st1" d="M80.29,255.62c17.68,9.33,37.82,14.63,59.21,14.63c63.98,0,116.91-47.32,125.71-108.87
		c-17.68-9.33-37.82-14.63-59.21-14.63C142.02,146.75,89.09,194.07,80.29,255.62z"/>
	<path class="st2" d="M144.01,162.89c9.44,60.81,62.03,107.36,125.49,107.36c22.51,0,43.65-5.87,61.99-16.14
		C322.05,193.3,269.46,146.75,206,146.75C183.49,146.75,162.35,152.62,144.01,162.89z"/>
	<linearGradient id="SVGID_1_" gradientUnits="userSpaceOnUse" x1="144.0254" y1="199.5594" x2="265.2031" y2="199.5594">
		<stop  offset="0" style="stop-color:#5080B1"/>
		<stop  offset="0.1178" style="stop-color:#477DAE"/>
		<stop  offset="0.3137" style="stop-color:#2D73A7"/>
		<stop  offset="0.5621" style="stop-color:#04649C"/>
		<stop  offset="0.5843" style="stop-color:#00639B"/>
		<stop  offset="1" style="stop-color:#004E8C"/>
	</linearGradient>
	<path class="st3" d="M265.2,161.38c-17.68-9.33-37.82-14.63-59.2-14.63c-22.51,0-43.64,5.86-61.97,16.13
		c5.91,38.05,28.69,70.51,60.47,89.49C236.7,233.15,259.67,200.07,265.2,161.38z"/>
	<path class="st4" d="M144.03,162.88c-0.99-6.4-1.53-12.95-1.53-19.63c0-46.38,24.87-86.95,62-109.12
		c-19.02-11.35-41.24-17.88-65-17.88c-70.14,0-127,56.86-127,127c0,48.76,27.48,91.09,67.79,112.37
		C86,215.72,110.24,181.81,144.03,162.88z"/>
	<path class="st5" d="M269.5,16.25c-23.76,0-45.98,6.53-65,17.88c37.13,22.16,62,62.73,62,109.12c0,6.16-0.45,12.2-1.3,18.13
		c34.79,18.37,60.02,52.41,66.28,92.74c38.79-21.74,65.01-63.23,65.01-110.86C396.5,73.11,339.64,16.25,269.5,16.25z"/>
	<path class="st6" d="M331.49,254.11c-18.34,10.27-39.47,16.14-61.99,16.14c-23.76,0-45.99-6.52-65.01-17.88
		c-19.01,11.35-41.24,17.88-64.99,17.88c-21.38,0-41.53-5.29-59.21-14.63c-0.85,5.92-1.29,11.97-1.29,18.13
		c0,70.14,56.86,127,127,127s127-56.86,127-127C333,267.07,332.48,260.51,331.49,254.11z"/>
</g>
<g id="Layer_2">
	<g>
		<defs>
			<path id="SVGID_2_" d="M396.5,143.25c0-70.14-56.86-127-127-127c-23.76,0-45.98,6.53-65,17.88c-19.02-11.35-41.24-17.88-65-17.88
				c-70.14,0-127,56.86-127,127c0,48.76,27.48,91.09,67.79,112.37c-0.85,5.92-1.29,11.97-1.29,18.13c0,70.14,56.86,127,127,127
				s127-56.86,127-127c0-6.68-0.52-13.24-1.51-19.64C370.28,232.37,396.5,190.88,396.5,143.25z"/>
		</defs>
		<clipPath id="SVGID_3_">
			<use xlink:href="#SVGID_2_"  style="overflow:visible;"/>
		</clipPath>
		<radialGradient id="SVGID_4_" cx="204.5" cy="191.25" r="183" gradientUnits="userSpaceOnUse">
			<stop  offset="0" style="stop-color:#000000;stop-opacity:0.5"/>
			<stop  offset="1" style="stop-color:#000000;stop-opacity:0"/>
		</radialGradient>
		<circle class="st7" cx="204.5" cy="191.25" r="183"/>
	</g>
</g>
<g id="Layer_3">
	<g>
		<path class="st8" d="M149.61,303.87c-0.06-1.34-0.17-3.17-0.13-4.68h-0.06c-0.25,1.51-0.63,3.25-0.9,4.35l-1.22,5.06h-1.95
			l-1.18-4.98c-0.27-1.13-0.65-2.9-0.86-4.43h-0.06c-0.04,1.53-0.13,3.32-0.21,4.72l-0.23,4.91h-2.37l1.03-14.15h2.9l1.13,5.12
			c0.4,1.79,0.76,3.36,1.01,4.96h0.04c0.21-1.57,0.52-3.17,0.9-4.96l1.11-5.12h2.9l0.86,14.15h-2.46L149.61,303.87z"/>
		<path class="st8" d="M160.32,302.61h-3.23v3.82h3.65v2.39h-6.4v-14.15h6.15v2.39h-3.4v3.25h3.23V302.61z"/>
		<path class="st8" d="M162.61,294.88c0.69-0.17,1.7-0.27,2.79-0.27c1.79,0,3.02,0.42,3.93,1.26c1.22,1.09,1.85,2.96,1.85,5.71
			c0,2.86-0.74,4.89-1.97,5.98c-0.95,0.92-2.35,1.36-4.33,1.36c-0.86,0-1.72-0.08-2.27-0.15V294.88z M165.36,306.64
			c0.13,0.04,0.34,0.04,0.48,0.04c1.32,0,2.48-1.3,2.48-5.21c0-2.9-0.76-4.66-2.42-4.66c-0.19,0-0.38,0-0.54,0.06V306.64z"/>
		<path class="st8" d="M175.67,294.67v14.15h-2.75v-14.15H175.67z"/>
		<path class="st8" d="M186.48,301.5c0,5.33-1.89,7.5-4.58,7.5c-3.21,0-4.47-3.4-4.47-7.29c0-3.86,1.53-7.2,4.66-7.2
			C185.52,294.51,186.48,298.26,186.48,301.5z M180.29,301.75c0,3.21,0.61,4.85,1.72,4.85c1.15,0,1.6-2.1,1.6-4.98
			c0-2.48-0.38-4.72-1.62-4.72C180.9,296.9,180.29,298.71,180.29,301.75z"/>
		<path class="st8" d="M190.14,305.59l-0.63,3.23h-2.67l3.07-14.15h3.3l2.75,14.15h-2.67l-0.61-3.23H190.14z M192.42,303.45
			l-0.46-2.96c-0.15-0.86-0.34-2.27-0.46-3.21h-0.06c-0.15,0.95-0.36,2.41-0.5,3.23l-0.52,2.94H192.42z"/>
		<path class="st8" d="M206.16,303.87c-0.06-1.34-0.17-3.17-0.13-4.68h-0.06c-0.25,1.51-0.63,3.25-0.9,4.35l-1.22,5.06h-1.95
			l-1.18-4.98c-0.27-1.13-0.65-2.9-0.86-4.43h-0.06c-0.04,1.53-0.13,3.32-0.21,4.72l-0.23,4.91h-2.37l1.03-14.15h2.9l1.13,5.12
			c0.4,1.79,0.76,3.36,1.01,4.96h0.04c0.21-1.57,0.52-3.17,0.9-4.96l1.11-5.12h2.9l0.86,14.15h-2.46L206.16,303.87z"/>
		<path class="st8" d="M210.88,294.88c0.84-0.19,1.93-0.27,3.13-0.27c1.32,0,2.6,0.17,3.59,1.01c0.76,0.63,1.07,1.57,1.07,2.56
			c0,1.26-0.65,2.48-2.06,3.09v0.08c1.64,0.46,2.52,1.83,2.52,3.38c0,1.18-0.38,2.08-1.05,2.77c-0.84,0.92-2.27,1.43-4.64,1.43
			c-1.05,0-1.93-0.06-2.56-0.15V294.88z M213.63,300.49h0.59c0.99,0,1.74-0.84,1.74-2c0-1.03-0.48-1.83-1.62-1.83
			c-0.29,0-0.55,0.02-0.71,0.08V300.49z M213.63,306.77c0.17,0.04,0.36,0.04,0.61,0.04c1.11,0,2.04-0.67,2.04-2.12
			c0-1.41-0.97-2.14-2.06-2.16h-0.59V306.77z"/>
		<path class="st8" d="M223.78,294.67v14.15h-2.75v-14.15H223.78z"/>
		<path class="st8" d="M232.22,302.61h-3.23v3.82h3.65v2.39h-6.4v-14.15h6.15v2.39h-3.4v3.25h3.23V302.61z"/>
		<path class="st8" d="M234.51,308.83v-14.15h2.52l2.18,5.54c0.42,1.09,1.11,2.92,1.51,4.14h0.04c-0.08-1.49-0.27-3.95-0.27-6.55
			v-3.13h2.41v14.15h-2.52l-2.16-5.38c-0.46-1.2-1.11-2.98-1.43-4.26h-0.04c0.06,1.43,0.17,3.61,0.17,6.45v3.19H234.51z"/>
		<path class="st8" d="M246.88,297.21h-2.5v-2.54h7.77v2.54h-2.52v11.61h-2.75V297.21z"/>
		<path class="st8" d="M255.13,305.59l-0.63,3.23h-2.67l3.07-14.15h3.3l2.75,14.15h-2.67l-0.61-3.23H255.13z M257.42,303.45
			l-0.46-2.96c-0.15-0.86-0.34-2.27-0.46-3.21h-0.06c-0.15,0.95-0.36,2.41-0.5,3.23l-0.53,2.94H257.42z"/>
		<path class="st8" d="M262.5,294.67h2.75v11.82h3.63v2.33h-6.38V294.67z"/>
	</g>
	<g>
		<path class="st8" d="M57.93,119.01c0.57,0.31,1.53,0.55,2.33,0.55c1.3,0,1.93-0.67,1.93-1.6c0-1.03-0.63-1.53-1.83-2.31
			c-1.93-1.18-2.67-2.67-2.67-3.95c0-2.27,1.51-4.16,4.47-4.16c0.92,0,1.8,0.25,2.22,0.5l-0.44,2.37c-0.4-0.25-1.01-0.48-1.81-0.48
			c-1.18,0-1.74,0.71-1.74,1.47c0,0.84,0.42,1.28,1.95,2.2c1.87,1.13,2.56,2.56,2.56,4.05c0,2.58-1.91,4.28-4.68,4.28
			c-1.13,0-2.25-0.29-2.71-0.57L57.93,119.01z"/>
		<path class="st8" d="M74.87,114.5c0,5.33-1.89,7.5-4.58,7.5c-3.21,0-4.47-3.4-4.47-7.29c0-3.86,1.53-7.2,4.66-7.2
			C73.91,107.51,74.87,111.26,74.87,114.5z M68.68,114.75c0,3.21,0.61,4.85,1.72,4.85c1.15,0,1.6-2.1,1.6-4.98
			c0-2.48-0.38-4.72-1.62-4.72C69.29,109.9,68.68,111.71,68.68,114.75z"/>
		<path class="st8" d="M83.4,121.62c-0.4,0.19-1.18,0.34-2.14,0.34c-3.61,0-5.33-2.98-5.33-6.99c0-5.33,2.96-7.41,5.71-7.41
			c0.96,0,1.64,0.19,1.91,0.38l-0.46,2.31c-0.32-0.15-0.67-0.27-1.28-0.27c-1.55,0-2.96,1.34-2.96,4.85c0,3.38,1.28,4.7,2.96,4.7
			c0.46,0,0.99-0.11,1.32-0.21L83.4,121.62z"/>
		<path class="st8" d="M87.66,107.67v14.15h-2.75v-14.15H87.66z"/>
		<path class="st8" d="M92.37,118.59l-0.63,3.23h-2.67l3.07-14.15h3.3l2.75,14.15h-2.67l-0.61-3.23H92.37z M94.65,116.45l-0.46-2.96
			c-0.15-0.86-0.34-2.27-0.46-3.21h-0.06c-0.15,0.95-0.36,2.41-0.5,3.23l-0.53,2.94H94.65z"/>
		<path class="st8" d="M99.74,107.67h2.75v11.82h3.63v2.33h-6.38V107.67z"/>
	</g>
	<g>
		<path class="st8" d="M291.92,115.61h-3.23v3.82h3.65v2.39h-6.4v-14.15h6.15v2.39h-3.4v3.25h3.23V115.61z"/>
		<path class="st8" d="M300.99,121.62c-0.4,0.19-1.18,0.34-2.14,0.34c-3.61,0-5.33-2.98-5.33-6.99c0-5.33,2.96-7.41,5.71-7.41
			c0.96,0,1.64,0.19,1.91,0.38l-0.46,2.31c-0.32-0.15-0.67-0.27-1.28-0.27c-1.55,0-2.96,1.34-2.96,4.85c0,3.38,1.28,4.7,2.96,4.7
			c0.46,0,0.99-0.11,1.32-0.21L300.99,121.62z"/>
		<path class="st8" d="M310.61,114.5c0,5.33-1.89,7.5-4.58,7.5c-3.21,0-4.47-3.4-4.47-7.29c0-3.86,1.53-7.2,4.66-7.2
			C309.65,107.51,310.61,111.26,310.61,114.5z M304.42,114.75c0,3.21,0.61,4.85,1.72,4.85c1.16,0,1.6-2.1,1.6-4.98
			c0-2.48-0.38-4.72-1.62-4.72C305.03,109.9,304.42,111.71,304.42,114.75z"/>
		<path class="st8" d="M312.36,121.83v-14.15h2.52l2.18,5.54c0.42,1.09,1.11,2.92,1.51,4.14h0.04c-0.08-1.49-0.27-3.95-0.27-6.55
			v-3.13h2.41v14.15h-2.52l-2.16-5.38c-0.46-1.2-1.11-2.98-1.43-4.26h-0.04c0.06,1.43,0.17,3.61,0.17,6.45v3.19H312.36z"/>
		<path class="st8" d="M331.55,114.5c0,5.33-1.89,7.5-4.58,7.5c-3.21,0-4.47-3.4-4.47-7.29c0-3.86,1.53-7.2,4.66-7.2
			C330.58,107.51,331.55,111.26,331.55,114.5z M325.35,114.75c0,3.21,0.61,4.85,1.72,4.85c1.15,0,1.6-2.1,1.6-4.98
			c0-2.48-0.38-4.72-1.62-4.72C325.96,109.9,325.35,111.71,325.35,114.75z M330.37,104.54l-2.56,2.37h-1.95l1.72-2.37H330.37z"/>
		<path class="st8" d="M341.94,116.87c-0.06-1.34-0.17-3.17-0.13-4.68h-0.06c-0.25,1.51-0.63,3.25-0.9,4.35l-1.22,5.06h-1.95
			l-1.18-4.98c-0.27-1.13-0.65-2.9-0.86-4.43h-0.06c-0.04,1.53-0.13,3.32-0.21,4.72l-0.23,4.91h-2.37l1.03-14.15h2.9l1.13,5.12
			c0.4,1.79,0.76,3.36,1.01,4.96h0.04c0.21-1.57,0.53-3.17,0.9-4.96l1.11-5.12h2.9l0.86,14.15h-2.46L341.94,116.87z"/>
		<path class="st8" d="M349.42,107.67v14.15h-2.75v-14.15H349.42z"/>
		<path class="st8" d="M358.66,121.62c-0.4,0.19-1.18,0.34-2.14,0.34c-3.61,0-5.33-2.98-5.33-6.99c0-5.33,2.96-7.41,5.71-7.41
			c0.97,0,1.64,0.19,1.91,0.38l-0.46,2.31c-0.31-0.15-0.67-0.27-1.28-0.27c-1.55,0-2.96,1.34-2.96,4.85c0,3.38,1.28,4.7,2.96,4.7
			c0.46,0,0.99-0.11,1.32-0.21L358.66,121.62z"/>
		<path class="st8" d="M368.28,114.5c0,5.33-1.89,7.5-4.58,7.5c-3.21,0-4.47-3.4-4.47-7.29c0-3.86,1.53-7.2,4.66-7.2
			C367.31,107.51,368.28,111.26,368.28,114.5z M362.08,114.75c0,3.21,0.61,4.85,1.72,4.85c1.15,0,1.6-2.1,1.6-4.98
			c0-2.48-0.38-4.72-1.62-4.72C362.69,109.9,362.08,111.71,362.08,114.75z"/>
	</g>
	<g>
		<path class="st8" d="M172.88,115.11h-3.55v5.31h4.03v1.41h-5.65v-14.15h5.4v1.41h-3.78v4.66h3.55V115.11z"/>
		<path class="st8" d="M182.31,123.74c-1.07-0.44-2.5-1.11-3.25-1.53c-0.25-0.13-0.42-0.21-0.52-0.21c-2.33,0-3.97-2.33-3.97-7.26
			c0-4.72,1.68-7.22,4.18-7.22c2.42,0,3.84,2.65,3.84,7.14c0,3.86-0.92,5.98-2.42,6.7v0.08c0.95,0.4,1.91,0.71,2.73,1.01
			L182.31,123.74z M180.9,114.71c0-2.71-0.48-5.77-2.29-5.77c-1.83,0-2.39,3.09-2.37,5.79c-0.02,2.79,0.5,5.84,2.37,5.84
			C180.42,120.57,180.9,117.52,180.9,114.71z"/>
		<path class="st8" d="M186.11,107.67v9.49c0,2.54,0.84,3.4,1.93,3.4c1.2,0,1.95-0.92,1.95-3.4v-9.49h1.62v9.24
			c0,3.67-1.51,5.08-3.61,5.08c-2.12,0-3.51-1.39-3.51-4.89v-9.43H186.11z"/>
		<path class="st8" d="M195.73,107.67v14.15h-1.62v-14.15H195.73z"/>
		<path class="st8" d="M199.95,109.12h-2.58v-1.45h6.78v1.45h-2.58v12.7h-1.62V109.12z"/>
		<path class="st8" d="M206.48,117.58l-0.94,4.24h-1.55l3.23-14.15H209l3.15,14.15h-1.6l-0.95-4.24H206.48z M209.4,116.28
			l-0.74-3.59c-0.21-1.01-0.4-2.18-0.57-3.23h-0.08c-0.17,1.07-0.38,2.29-0.57,3.23l-0.74,3.59H209.4z"/>
		<path class="st8" d="M214.31,109.12h-2.58v-1.45h6.78v1.45h-2.58v12.7h-1.62V109.12z"/>
		<path class="st8" d="M221.7,107.67v14.15h-1.62v-14.15H221.7z"/>
		<path class="st8" d="M226.58,121.83l-3.23-14.15h1.72l1.39,6.63c0.34,1.6,0.76,3.63,1.01,5.44h0.06c0.21-1.83,0.61-3.8,0.95-5.48
			l1.34-6.59h1.72l-3.3,14.15H226.58z"/>
		<path class="st8" d="M240.39,114.64c0,5.31-1.83,7.35-4.09,7.35c-2.35,0-3.93-2.5-3.93-7.26c0-4.68,1.68-7.22,4.16-7.22
			C238.94,107.51,240.39,110.13,240.39,114.64z M234.05,114.75c0,2.92,0.57,5.82,2.35,5.82c1.83,0,2.31-3.09,2.31-5.86
			c0-2.64-0.48-5.77-2.33-5.77C234.62,108.93,234.05,111.87,234.05,114.75z"/>
	</g>
	<g>
		<path class="st8" d="M109.85,239.83l-3.23-14.15h1.72l1.39,6.63c0.34,1.6,0.76,3.63,1.01,5.44h0.06c0.21-1.83,0.61-3.8,0.94-5.48
			l1.34-6.59h1.72l-3.3,14.15H109.85z"/>
		<path class="st8" d="M118,225.67v14.15h-1.62v-14.15H118z"/>
		<path class="st8" d="M122.87,239.83l-3.23-14.15h1.72l1.39,6.63c0.34,1.6,0.76,3.63,1.01,5.44h0.06c0.21-1.83,0.61-3.8,0.94-5.48
			l1.34-6.59h1.72l-3.3,14.15H122.87z"/>
		<path class="st8" d="M131.02,225.67v14.15h-1.62v-14.15H131.02z"/>
		<path class="st8" d="M133.58,225.88c0.67-0.17,1.47-0.27,2.37-0.27c1.28,0,2.37,0.27,3.13,0.99c0.61,0.57,0.92,1.41,0.92,2.41
			c0,1.45-0.8,2.6-2.18,3.15v0.04c1.64,0.44,2.63,1.76,2.63,3.61c0,1.18-0.38,2.12-1.01,2.81c-0.8,0.9-2.12,1.28-3.74,1.28
			c-1.05,0-1.68-0.06-2.12-0.15V225.88z M135.2,231.68h0.74c1.32,0,2.46-1.01,2.46-2.5c0-1.3-0.61-2.31-2.33-2.31
			c-0.38,0-0.67,0.04-0.86,0.1V231.68z M135.2,238.54c0.19,0.04,0.46,0.08,0.82,0.08c1.68,0,2.77-0.99,2.77-2.81
			c0-1.95-1.36-2.88-2.88-2.9h-0.71V238.54z"/>
		<path class="st8" d="M142.32,225.67h1.62v12.79h3.99v1.36h-5.61V225.67z"/>
		<path class="st8" d="M154.71,233.11h-3.55v5.31h4.03v1.41h-5.65v-14.15h5.4v1.41h-3.78v4.66h3.55V233.11z"/>
	</g>
	<g>
		<path class="st8" d="M259.8,239.83l-3.23-14.15h1.72l1.39,6.63c0.34,1.6,0.76,3.63,1.01,5.44h0.06c0.21-1.83,0.61-3.8,0.95-5.48
			l1.34-6.59h1.72l-3.3,14.15H259.8z"/>
		<path class="st8" d="M267.94,225.67v14.15h-1.62v-14.15H267.94z"/>
		<path class="st8" d="M272.21,235.58l-0.95,4.24h-1.55l3.23-14.15h1.79l3.15,14.15h-1.6l-0.94-4.24H272.21z M275.13,234.28
			l-0.73-3.59c-0.21-1.01-0.4-2.18-0.57-3.23h-0.08c-0.17,1.07-0.38,2.29-0.57,3.23l-0.73,3.59H275.13z"/>
		<path class="st8" d="M279.64,225.88c0.67-0.17,1.47-0.27,2.37-0.27c1.28,0,2.37,0.27,3.13,0.99c0.61,0.57,0.92,1.41,0.92,2.41
			c0,1.45-0.8,2.6-2.18,3.15v0.04c1.64,0.44,2.62,1.76,2.62,3.61c0,1.18-0.38,2.12-1.01,2.81c-0.8,0.9-2.12,1.28-3.74,1.28
			c-1.05,0-1.68-0.06-2.12-0.15V225.88z M281.26,231.68h0.73c1.32,0,2.46-1.01,2.46-2.5c0-1.3-0.61-2.31-2.33-2.31
			c-0.38,0-0.67,0.04-0.86,0.1V231.68z M281.26,238.54c0.19,0.04,0.46,0.08,0.82,0.08c1.68,0,2.77-0.99,2.77-2.81
			c0-1.95-1.37-2.88-2.88-2.9h-0.71V238.54z"/>
		<path class="st8" d="M288.38,225.67h1.62v12.79h3.99v1.36h-5.61V225.67z"/>
		<path class="st8" d="M300.76,233.11h-3.55v5.31h4.03v1.41h-5.65v-14.15h5.4v1.41h-3.78v4.66h3.55V233.11z"/>
	</g>
	<g>
		<path class="st8" d="M172.44,175.73c0.51-0.15,1.11-0.22,1.77-0.22c1.21,0,2.06,0.31,2.69,0.87c0.88,0.76,1.55,2.24,1.55,4.64
			c0,2.62-0.65,4.04-1.38,4.83c-0.75,0.85-1.84,1.24-3.16,1.24c-0.53,0-1.07-0.03-1.46-0.12V175.73z M173.75,185.94
			c0.19,0.03,0.37,0.03,0.49,0.03c1.45,0,2.84-1.04,2.84-4.93c0-2.89-0.88-4.47-2.72-4.47c-0.2,0-0.44,0.02-0.61,0.07V185.94z"/>
		<path class="st8" d="M184.18,181.57h-2.87v4.3h3.26v1.14H180v-11.46h4.37v1.14h-3.06v3.77h2.87V181.57z"/>
		<path class="st8" d="M185.76,185.5c0.39,0.25,1.07,0.46,1.65,0.46c1.19,0,1.9-0.78,1.9-1.94c0-1.05-0.61-1.7-1.51-2.38
			c-0.9-0.63-2.16-1.7-2.16-3.18c0-1.73,1.21-3.01,3.03-3.01c0.71,0,1.34,0.22,1.61,0.42l-0.32,1.12c-0.29-0.2-0.77-0.39-1.36-0.39
			c-1.12,0-1.65,0.85-1.65,1.63c0,1.14,0.59,1.58,1.68,2.36c1.38,0.97,1.99,2.02,1.99,3.3c0,1.97-1.39,3.21-3.21,3.21
			c-0.78,0-1.62-0.25-1.94-0.49L185.76,185.5z"/>
		<path class="st8" d="M193.53,183.58l-0.76,3.43h-1.26l2.62-11.46h1.45l2.55,11.46h-1.29l-0.76-3.43H193.53z M195.9,182.53
			l-0.59-2.91c-0.17-0.82-0.32-1.77-0.46-2.62h-0.07c-0.14,0.87-0.31,1.85-0.46,2.62l-0.59,2.91H195.9z"/>
		<path class="st8" d="M199.55,175.73c0.56-0.15,1.24-0.22,1.89-0.22c1.14,0,1.99,0.24,2.58,0.82c0.56,0.58,0.8,1.34,0.8,2.24
			c0,1.46-0.68,2.41-1.84,2.94v0.03c0.85,0.25,1.29,1.07,1.55,2.57c0.25,1.58,0.49,2.55,0.65,2.91h-1.33
			c-0.17-0.34-0.39-1.43-0.61-2.84c-0.26-1.56-0.75-2.16-1.87-2.16h-0.51v5h-1.31V175.73z M200.86,181.01h0.54
			c1.26,0,2.09-0.92,2.09-2.29c0-1.33-0.54-2.14-1.96-2.16c-0.25,0-0.51,0.02-0.68,0.07V181.01z"/>
		<path class="st8" d="M206.5,175.73c0.56-0.15,1.24-0.22,1.89-0.22c1.14,0,1.99,0.24,2.58,0.82c0.56,0.58,0.8,1.34,0.8,2.24
			c0,1.46-0.68,2.41-1.84,2.94v0.03c0.85,0.25,1.29,1.07,1.55,2.57c0.25,1.58,0.49,2.55,0.65,2.91h-1.33
			c-0.17-0.34-0.39-1.43-0.61-2.84c-0.26-1.56-0.75-2.16-1.87-2.16h-0.51v5h-1.31V175.73z M207.81,181.01h0.54
			c1.26,0,2.09-0.92,2.09-2.29c0-1.33-0.54-2.14-1.96-2.16c-0.25,0-0.51,0.02-0.68,0.07V181.01z"/>
		<path class="st8" d="M219.47,181.2c0,4.3-1.48,5.95-3.31,5.95c-1.9,0-3.18-2.02-3.18-5.88c0-3.79,1.36-5.85,3.37-5.85
			C218.3,175.42,219.47,177.55,219.47,181.2z M214.34,181.29c0,2.36,0.46,4.71,1.9,4.71c1.48,0,1.87-2.5,1.87-4.74
			c0-2.14-0.39-4.67-1.89-4.67C214.8,176.58,214.34,178.96,214.34,181.29z"/>
		<path class="st8" d="M221.04,175.56h1.31v10.35h3.23v1.1h-4.54V175.56z"/>
		<path class="st8" d="M226.89,175.56h1.31v10.35h3.23v1.1h-4.54V175.56z"/>
		<path class="st8" d="M238.04,181.2c0,4.3-1.48,5.95-3.31,5.95c-1.9,0-3.18-2.02-3.18-5.88c0-3.79,1.36-5.85,3.37-5.85
			C236.86,175.42,238.04,177.55,238.04,181.2z M232.9,181.29c0,2.36,0.46,4.71,1.9,4.71c1.48,0,1.87-2.5,1.87-4.74
			c0-2.14-0.39-4.67-1.89-4.67C233.36,176.58,232.9,178.96,232.9,181.29z"/>
		<path class="st8" d="M174.71,205.9c0.39,0.25,1.07,0.46,1.65,0.46c1.19,0,1.9-0.78,1.9-1.94c0-1.05-0.61-1.7-1.51-2.38
			c-0.9-0.63-2.16-1.7-2.16-3.18c0-1.73,1.21-3.01,3.03-3.01c0.71,0,1.34,0.22,1.61,0.42l-0.32,1.12c-0.29-0.2-0.77-0.39-1.36-0.39
			c-1.12,0-1.65,0.85-1.65,1.63c0,1.14,0.59,1.58,1.68,2.36c1.38,0.97,1.99,2.02,1.99,3.3c0,1.97-1.39,3.21-3.21,3.21
			c-0.78,0-1.62-0.25-1.94-0.49L174.71,205.9z"/>
		<path class="st8" d="M187.12,201.6c0,4.3-1.48,5.95-3.31,5.95c-1.9,0-3.18-2.02-3.18-5.88c0-3.79,1.36-5.85,3.37-5.85
			C185.94,195.82,187.12,197.95,187.12,201.6z M181.98,201.69c0,2.36,0.46,4.71,1.9,4.71c1.48,0,1.87-2.5,1.87-4.74
			c0-2.14-0.39-4.67-1.89-4.67C182.44,196.98,181.98,199.36,181.98,201.69z"/>
		<path class="st8" d="M188.42,205.9c0.39,0.25,1.07,0.46,1.65,0.46c1.19,0,1.9-0.78,1.9-1.94c0-1.05-0.61-1.7-1.51-2.38
			c-0.9-0.63-2.16-1.7-2.16-3.18c0-1.73,1.21-3.01,3.03-3.01c0.71,0,1.34,0.22,1.61,0.42l-0.32,1.12c-0.29-0.2-0.77-0.39-1.36-0.39
			c-1.12,0-1.65,0.85-1.65,1.63c0,1.14,0.59,1.58,1.68,2.36c1.38,0.97,1.99,2.02,1.99,3.3c0,1.97-1.39,3.21-3.21,3.21
			c-0.78,0-1.62-0.25-1.94-0.49L188.42,205.9z"/>
		<path class="st8" d="M196.16,197.13h-2.09v-1.17h5.49v1.17h-2.09v10.28h-1.31V197.13z"/>
		<path class="st8" d="M205.02,201.97h-2.87v4.3h3.26v1.14h-4.57v-11.46h4.37v1.14h-3.06v3.77h2.87V201.97z"/>
		<path class="st8" d="M206.85,207.41v-11.46h1.24l2.11,5.37c0.48,1.22,1.07,2.75,1.46,3.99h0.03c-0.1-1.8-0.15-3.28-0.15-5.27v-4.1
			h1.17v11.46h-1.24l-2.18-5.51c-0.46-1.16-0.95-2.46-1.36-3.89h-0.03c0.1,1.53,0.14,2.99,0.14,5.44v3.96H206.85z"/>
		<path class="st8" d="M216.07,195.96v11.46h-1.31v-11.46H216.07z"/>
		<path class="st8" d="M218.14,196.13c0.54-0.14,1.19-0.22,1.92-0.22c1.04,0,1.92,0.22,2.53,0.8c0.49,0.46,0.75,1.14,0.75,1.96
			c0,1.17-0.65,2.11-1.77,2.55v0.03c1.33,0.36,2.13,1.43,2.13,2.92c0,0.95-0.31,1.72-0.82,2.28c-0.65,0.73-1.72,1.04-3.03,1.04
			c-0.85,0-1.36-0.05-1.72-0.12V196.13z M219.45,200.82h0.59c1.07,0,1.99-0.82,1.99-2.02c0-1.05-0.49-1.87-1.89-1.87
			c-0.31,0-0.54,0.03-0.7,0.08V200.82z M219.45,206.38c0.15,0.03,0.37,0.07,0.66,0.07c1.36,0,2.24-0.8,2.24-2.28
			c0-1.58-1.1-2.33-2.33-2.35h-0.58V206.38z"/>
		<path class="st8" d="M225.21,195.96h1.31v10.35h3.23v1.1h-4.54V195.96z"/>
		<path class="st8" d="M235.24,201.97h-2.87v4.3h3.26v1.14h-4.57v-11.46h4.37v1.14h-3.06v3.77h2.87V201.97z"/>
	</g>
	<g>
		<circle class="st8" cx="71.55" cy="142.63" r="10.38"/>
		<path class="st8" d="M71.55,154.9c-8.86,0-16.05,8.24-16.05,18.41c0,0.43,0.03,0.86,0.06,1.28c4.55,1.27,10.06,2.02,15.99,2.02
			c5.93,0,11.44-0.75,15.99-2.02c0.03-0.43,0.06-0.85,0.06-1.28C87.59,163.14,80.41,154.9,71.55,154.9z"/>
		<path class="st8" d="M91.11,133.69c-3.43,0-6.43,1.8-8.13,4.51c0.53,1.38,0.84,2.87,0.84,4.43c0,1.86-0.43,3.62-1.17,5.21
			c1.62,3.01,4.8,5.06,8.46,5.06c5.3,0,9.6-4.3,9.6-9.6C100.71,137.99,96.41,133.69,91.11,133.69z"/>
		<path class="st8" d="M91.11,154.65c-3,0-5.78,1.03-8.11,2.78c4.52,3.96,7.43,10.19,7.43,17.22c0,0.02,0,0.05,0,0.07
			c0.23,0,0.45,0.01,0.68,0.01c5.49,0,10.58-0.69,14.79-1.87c0.02-0.39,0.05-0.79,0.05-1.19C105.95,162.27,99.3,154.65,91.11,154.65
			z"/>
	</g>
	<g>
		<g>
			<path class="st8" d="M328.44,160.61c-9.97,0-18.06,1.62-18.06,3.61c0,1.99,8.09,3.61,18.06,3.61s18.06-1.62,18.06-3.61
				C346.5,162.23,338.41,160.61,328.44,160.61z M328.44,166.93c-8.98,0-16.25-1.21-16.25-2.71s7.28-2.71,16.25-2.71
				c8.98,0,16.25,1.21,16.25,2.71S337.42,166.93,328.44,166.93z"/>
			<path class="st8" d="M328.44,168.73c-9.97,0-18.06-1.62-18.06-3.61v4.52c0,1.99,8.09,3.61,18.06,3.61s18.06-1.62,18.06-3.61
				v-4.52C346.5,167.12,338.41,168.73,328.44,168.73z"/>
		</g>
		<g>
			<path class="st8" d="M324.83,152.48c-9.97,0-18.06,1.62-18.06,3.61c0,1.99,8.09,3.61,18.06,3.61s18.06-1.62,18.06-3.61
				C342.89,154.1,334.8,152.48,324.83,152.48z M324.83,158.8c-8.98,0-16.25-1.21-16.25-2.71s7.28-2.71,16.25-2.71
				c8.98,0,16.25,1.21,16.25,2.71S333.8,158.8,324.83,158.8z"/>
			<path class="st8" d="M324.83,160.61c-9.97,0-18.06-1.62-18.06-3.61v4.52c0,1.99,8.09,3.61,18.06,3.61s18.06-1.62,18.06-3.61V157
				C342.89,158.99,334.8,160.61,324.83,160.61z"/>
		</g>
		<g>
			<path class="st8" d="M328.44,144.35c-9.97,0-18.06,1.62-18.06,3.61c0,1.99,8.09,3.61,18.06,3.61s18.06-1.62,18.06-3.61
				C346.5,145.97,338.41,144.35,328.44,144.35z M328.44,150.67c-8.98,0-16.25-1.21-16.25-2.71s7.28-2.71,16.25-2.71
				c8.98,0,16.25,1.21,16.25,2.71S337.42,150.67,328.44,150.67z"/>
			<path class="st8" d="M328.44,152.48c-9.97,0-18.06-1.62-18.06-3.61v4.52c0,1.99,8.09,3.61,18.06,3.61s18.06-1.62,18.06-3.61
				v-4.52C346.5,150.86,338.41,152.48,328.44,152.48z"/>
		</g>
		<g>
			<path class="st8" d="M328.44,136.01c-9.97,0-18.06,1.62-18.06,3.61c0,1.99,8.09,3.61,18.06,3.61s18.06-1.62,18.06-3.61
				C346.5,137.63,338.41,136.01,328.44,136.01z M328.44,142.33c-8.98,0-16.25-1.21-16.25-2.71c0-1.5,7.28-2.71,16.25-2.71
				c8.98,0,16.25,1.21,16.25,2.71C344.69,141.12,337.42,142.33,328.44,142.33z"/>
			<path class="st8" d="M328.44,144.14c-9.97,0-18.06-1.62-18.06-3.61v4.52c0,1.99,8.09,3.61,18.06,3.61s18.06-1.62,18.06-3.61
				v-4.52C346.5,142.52,338.41,144.14,328.44,144.14z"/>
		</g>
	</g>
	<path class="st8" d="M206.76,346.2c0.78-4.29,3.21-8.08,3.21-8.08c9.92,3.28,17.25-13.76,17.25-13.76s-7.27-1.31-13.82,1.1
		s-5.11,9.82-5.11,9.82c4.97-7.07,11.37-6.73,11.37-6.73c-7.9,3.21-11.86,8.67-13.85,13.35c-1.31-5.67-5-13.81-15.3-18.65
		c0,0,7,0,12,8c0,0,2-8-5-11s-15-2-15-2s7,19,18,16c0,0,3.55,6.22,3.12,11.96c-8.09,0.53-14.41,4.89-14.41,10.2
		c0,0.24,0.03,0.48,0.06,0.71c4.55,0.71,10.06,1.13,15.99,1.13c5.93,0,11.44-0.42,15.99-1.13c0.03-0.24,0.06-0.47,0.06-0.71
		C221.31,351.07,214.92,346.69,206.76,346.2z"/>
</g>
</svg>
