<?xml version="1.0" encoding="utf-8"?>
<!-- Generator: Adobe Illustrator 23.0.3, SVG Export Plug-In . SVG Version: 6.00 Build 0)  -->
<svg version="1.1" id="Capa_1" xmlns="http://www.w3.org/2000/svg" xmlns:xlink="http://www.w3.org/1999/xlink" x="0px" y="0px"
	 viewBox="0 0 39.03 126.14" style="enable-background:new 0 0 39.03 126.14;" xml:space="preserve">
<style type="text/css">
	.st0{fill:#3D773D;}
</style>
<polygon class="st0" points="18.74,0 -0.78,19.51 9.03,18.48 6.96,126.14 29.84,126.14 27.75,18.34 38.25,19.51 "/>
</svg>
