<?xml version="1.0" encoding="utf-8"?>
<!-- Generator: Adobe Illustrator 16.0.0, SVG Export Plug-In . SVG Version: 6.00 Build 0)  -->
<!DOCTYPE svg PUBLIC "-//W3C//DTD SVG 1.1//EN" "http://www.w3.org/Graphics/SVG/1.1/DTD/svg11.dtd">
<svg version="1.1" id="Capa_1" xmlns="http://www.w3.org/2000/svg" xmlns:xlink="http://www.w3.org/1999/xlink" x="0px" y="0px"
	 width="200px" height="200px" viewBox="0 0 200 200" enable-background="new 0 0 200 200" xml:space="preserve">
<g>
	<path fill="#0F6FAF" d="M100.287,2.815c54.142,0,98.038,43.898,98.038,98.038c0,54.155-43.896,98.044-98.038,98.044
		c-54.148,0-98.038-43.89-98.038-98.044C2.249,46.713,46.139,2.815,100.287,2.815z"/>
	<g>
		<g>
			<g>
				<path fill="#FFFFFF" d="M138.78,122.667c0,0,0.896,17.179-9.17,27.23c-10.038,10.06-27.227,9.162-27.227,9.162
					s-0.886-17.176,9.167-27.222C121.604,121.785,138.78,122.667,138.78,122.667z"/>
				<path fill="#FFFFFF" d="M134.305,93.684c0,0,0.739,14.363-7.666,22.767c-8.411,8.393-22.768,7.661-22.768,7.661
					s-0.737-14.362,7.673-22.768C119.948,92.94,134.305,93.684,134.305,93.684z"/>
				<path fill="#FFFFFF" d="M128.855,71.157c0,0,0.554,10.928-5.839,17.323c-6.399,6.403-17.334,5.834-17.334,5.834
					s-0.563-10.929,5.825-17.333C117.911,70.594,128.855,71.157,128.855,71.157z"/>
				<path fill="#FFFFFF" d="M61.786,122.667c0,0-0.882,17.179,9.17,27.23c10.058,10.06,27.234,9.162,27.234,9.162
					s0.884-17.176-9.168-27.222C78.965,121.785,61.786,122.667,61.786,122.667z"/>
				<path fill="#FFFFFF" d="M66.262,93.684c0,0-0.744,14.363,7.667,22.767c8.405,8.393,22.767,7.661,22.767,7.661
					s0.744-14.362-7.667-22.768C80.618,92.94,66.262,93.684,66.262,93.684z"/>
				<path fill="#FFFFFF" d="M71.713,71.157c0,0-0.56,10.928,5.844,17.323c6.395,6.403,17.335,5.834,17.335,5.834
					s0.557-10.929-5.837-17.333C82.663,70.594,71.713,71.157,71.713,71.157z"/>
			</g>
			<path fill="#FFFFFF" d="M100.274,42.636c0,0,8.141,7.343,8.141,16.388c0,9.052-8.122,16.384-8.122,16.384
				s-8.135-7.332-8.146-16.384C92.153,49.973,100.274,42.636,100.274,42.636z"/>
		</g>
	</g>
</g>
<g display="none">
	<path display="inline" fill="#E97525" d="M100.287,2.815c54.142,0,98.038,43.892,98.038,98.032
		c0,54.154-43.896,98.045-98.038,98.045c-54.148,0-98.038-43.891-98.038-98.045C2.249,46.707,46.139,2.815,100.287,2.815z"/>
	<g display="inline">
		<g>
			<g>
				<path fill="#FFFFFF" d="M80.601,68.13c6.708,8.566,18.165,17.875,33.09,17.226c5.982-0.262,11.484-3.465,16.324-2.721
					c-3.268,7.86-16.848,3.836-24.034,4.088c-4.052,0.126-6.287,1.799-10.874,1.356C77.719,86.377,70.261,67.064,67.9,49.547
					c1.851-0.455,3.188,2.974,4.531,4.077c7.553,6.139,22.095,6.089,29.472,13.601c3.748,3.806,5.47,8.313,6.801,14.513
					C96.217,82.131,87.938,74.394,80.601,68.13z"/>
			</g>
			<g id="VjXN3E_1_">
				<g>
					<g>
						<g>
							<path fill="#FFFFFF" d="M50.965,97.226c-0.983-0.261-0.864-1.617-0.971-2.266c-0.671-4.184-0.424-10.381-1.937-14.062
								c-0.646-1.583-2.266-2.831-2.426-3.873c-0.181-1.236,0.897-2.53,1.131-3.237c4.239,0.132,2.536,5.527,2.416,9.054
								C49.028,88.043,51.097,93.905,50.965,97.226z"/>
							<path fill="#FFFFFF" d="M149.926,97.226c-0.676-3.283,1.638-9.367,1.457-14.39c-0.145-3.836-1.749-7.538,1.937-9.054
								c0.833-0.341,1.672,2.512,1.624,3.075c-0.136,1.248-1.846,2.628-2.426,4.042C150.746,85.203,151.689,92.983,149.926,97.226z"
								/>
							<path fill="#FFFFFF" d="M149.926,81.052c0.94,4.99-0.981,9.761-1.288,14.556C148.277,90.619,150.279,86.574,149.926,81.052z"
								/>
							<path fill="#FFFFFF" d="M51.768,83.318c0.259-0.046,0.276,0.145,0.486,0.157c1.288,4.27,0.793,10.317,1.78,14.892
								c-0.615,0-0.615-0.935-0.646-1.141c-0.774-4.449-0.725-8.968-1.62-13.428C51.768,83.645,51.768,83.475,51.768,83.318z"/>
							<path fill="#FFFFFF" d="M148.465,83.318c0.186-0.021,0.281,0.037,0.329,0.157c-0.648,4.592-0.996,8.967-1.632,13.427
								c-0.047,0.416,0.036,1.332-0.634,1.464c0.634-3.262,0.809-6.955,0.959-10.514C147.571,86.076,147.582,84.363,148.465,83.318z
								"/>
							<path fill="#FFFFFF" d="M152.19,99.971c0.139,2.385-2.114,3.695-3.073,5.502c-1.522-0.526-3.478-1.126-3.554-2.589
								C145.437,100.678,150.267,98.089,152.19,99.971z"/>
							<path fill="#FFFFFF" d="M51.607,105.465c-1.183-1.777-3.197-2.73-3.23-5.648c2.317-1.414,6.609,0.827,6.627,2.905
								C55.017,104.241,53.11,104.874,51.607,105.465z"/>
							<path fill="#FFFFFF" d="M97.864,152.206c-6.821-0.022-13.827,0.14-20.212-0.315c0.209-5.605,0.024-10.252-2.751-13.117
								c-1.433-1.464-3.705-2.728-5.659-4.033c-5.623-3.742-12.168-7.732-17.791-11.319c-1.457-6.257-5.004-11.67-7.919-17.468
								c-0.965-1.912-2.284-4.248-2.422-5.988c-0.148-1.693,0.599-3.649,0.805-5.65c0.191-1.811,0.399-3.874,0.323-5.982
								c-0.095-2.699-1.433-10.403,1.294-10.683c2.828-0.282,4.125,5.442,4.365,8.092c0.373,4.113,0.652,7.747,1.282,11.15
								c-0.7,0.9-2.17,1.067-2.585,2.259c-0.369,3.244,2.238,5.383,3.88,7.609c1.553,2.091,2.644,4.104,3.886,5.65
								c0.972,1.217,2.192,2.226,3.231,3.394c2.007,2.278,3.944,4.743,5.657,7.445c0.793,1.258,1.404,2.847,2.745,3.711
								c0.597-1.607-0.974-2.961-1.779-4.196c-2.5-3.855-5.328-8.045-8.895-10.837c-0.978-2.314-3.153-4.282-3.886-6.309
								c1.805-0.285,3.742-1.161,3.886-2.594c0.252-2.512-4.953-5.444-7.279-3.219c-0.114,1.224,0.24,2.014,0.805,2.577
								c-2.081-1.331-1.38-4.58,2.426-3.87c8.134,1.497,11.731,12.46,18.438,15.506c9.736-0.809,15.562,2.954,20.532,7.938
								c3.788,3.768,7.591,9.345,8.086,15.518C98.723,142.168,97.296,146.741,97.864,152.206z"/>
							<path fill="#FFFFFF" d="M149.117,105.643c-2.207,5.078-6.804,8.524-10.185,13.093c-0.904,1.233-1.743,2.552-2.596,3.883
								c-0.78,1.223-1.992,2.572-1.941,4.203c1.641-0.289,1.967-2.325,2.751-3.555c2.452-3.823,5.666-7.716,9.056-10.671
								c0.853-1.619,2.1-3.596,3.718-5.813c1.589-2.194,5.001-4.301,3.885-7.609c-0.42-1.241-1.389-1.217-2.435-2.096
								c1.42-4.814,0.229-11.691,2.435-16.337c0.587-1.241,1.781-3.116,3.068-3.073c2.963,0.102,1.547,8.3,1.451,10.52
								c-0.21,4.709,1.361,8.134,1.141,11.642c-0.12,1.808-1.418,4.134-2.435,6.135c-2.817,5.602-6.449,11.212-7.925,17.468
								c-5.527,3.464-11.713,7.363-17.456,11.15c-1.905,1.26-4.178,2.435-5.672,3.886c-2.961,2.864-3.378,7.547-3.067,13.434
								c-6.392,0.455-13.396,0.294-20.213,0.316c0.03-8.201-1.387-15.631,1.457-21.663c3.458-7.369,11.496-15.856,21.823-16.502
								c1.525-0.089,3.323,0.292,4.688,0c1.905-0.391,3.962-2.65,5.503-4.354c3.191-3.541,5.469-7.271,9.699-9.711
								c1.571-0.891,5.956-2.786,6.952-0.474c0.518,1.193-0.328,2.22-0.971,3.071c-0.083-0.719,1.047-1.355,0.649-2.598
								c-0.455-1.421-3.154-1.048-4.531-0.323C144.635,101.416,144.189,104.947,149.117,105.643z"/>
							<path fill="#FFFFFF" d="M50.473,81.052c0.121,4.839,1.516,10.455,1.78,15.528C51.571,92.228,50.024,86.561,50.473,81.052z"/>
						</g>
					</g>
				</g>
			</g>
		</g>
	</g>
</g>
<g display="none">
	<path display="inline" fill="#0397AD" d="M100.287,2.821c54.142,0,98.032,43.892,98.032,98.032
		c0,54.148-43.891,98.039-98.032,98.039c-54.148,0-98.038-43.891-98.038-98.039C2.249,46.713,46.139,2.821,100.287,2.821z"/>
	<g display="inline">
		<polygon fill="#FFFFFF" points="116.1,122.84 100.293,35.095 84.486,122.84 56.438,122.781 78.365,144.709 100.293,166.624 
			122.209,144.709 144.137,122.781 		"/>
	</g>
</g>
<g display="none">
	<path display="inline" fill="#37646E" d="M100.281,2.815c54.155,0,98.044,43.898,98.044,98.038
		c0,54.155-43.89,98.044-98.044,98.044c-54.142,0-98.038-43.89-98.038-98.044C2.243,46.713,46.139,2.815,100.281,2.815z"/>
	<g display="inline">
		<path fill="#FFFFFF" d="M127.869,116.703c-5.924,0.253-7.401,5.503-12.494,6.773c3.724-6.167,8.033-11.756,13.019-16.666
			c9.562,4.089,12.974-5.775,15.094-12.478c-9.362-1.942-17.347,1.63-16.135,11.965c-2.77,1.918-6.091,6.053-8.328,6.772
			c-0.96-3.022,2.068-4.24,2.603-6.772c1.947-9.294-4.579-16.128-11.45-18.211c-0.563,9.865-1.434,21.448,7.285,24.455
			c-3.909,10.479-12.247,16.532-16.64,26.539c0.191-5.703-1.058-12.859,2.595-15.1c8.696,1.217,9.85-7.806,10.929-12.481
			c-10.732-1.703-12.854,5.18-14.052,13.007c1.017-13.197-2.715-31.163,3.643-39.023c8.573,2.136,11.571-3.105,14.052-8.331
			c1.355-2.841,3.501-6.282,3.117-7.289c-8.31-1.685-15.935,0.862-18.205,7.289c-0.978,2.746,0.814,6.659-2.079,8.847
			c0.849-10.249,0.959-21.244,2.079-31.225c8.728-0.767,6.889-12.289,5.724-20.296c-6.735,3.152-11.272,7.913-9.89,15.094
			c0.416,2.151,2.807,3.471,3.118,5.724c0.766,5.275-2.349,11.054-2.588,16.138c-1.753-3.357,0.31-7.499-1.045-10.929
			c-1.937-4.909-7.565-6.018-14.578-5.73c3.166,6.607,3.471,18.673,14.063,16.131c2.589,7.722-0.63,18.881-1.438,28.377
			c0.04-6.191-4.664-9.183-10.013-8.066c1.174,3.32,1.288,7.719,3.64,9.877c1.457,0.631,3.591,0.575,5.724,0.517
			c0.852,4.531,0.492,11.322-1.042,15.094c-2.807-9.687-10.499-14.476-12.481-24.98c6.905-3.069,3.926-11.851,1.03-17.167
			c-8.438,3.003-6.261,12.647-2.588,18.731c-2.656-2.032-4.682-4.701-7.289-6.772c1.617-9.281-5.491-14.243-16.13-12.998
			c1.912,7.768,5.176,18.657,16.13,14.039c4.152,5.22,9.775,11.738,11.448,17.702c-3.219-0.821-2.625-3.351-4.688-5.208
			c-6.843-6.163-18.919-2.379-21.855,5.208c7.099,4.838,18.009,10.07,24.971,1.552c4.713,2.069,7.508,8.814,7.818,13.536
			c-0.636-3.391-5.856-4.603-8.848-2.613c0.228,2.44,4.867,7.294,9.358,4.172c5.281,7.578,3.522,22.192,3.51,35.061
			c-0.615,0.062-1.131,0.391-1.484,0.871c-0.139-0.025-0.283-0.084-0.437-0.084c-0.984,0-1.777,0.67-2.028,1.581
			c-0.292-0.155-0.627-0.269-0.981-0.269c-0.901,0-1.657,0.557-1.974,1.325c-0.139-0.031-0.246-0.086-0.391-0.086
			c-1.066,0-1.906,0.812-2.065,1.829c-0.212-0.07-0.416-0.125-0.643-0.125c-0.904,0-1.666,0.559-1.982,1.349
			c-0.055-0.007-0.093-0.024-0.151-0.024c-1.174,0-2.133,0.953-2.133,2.133c0,1.171,0.947,1.679,2.133,1.679
			c0.526,0,0.984,0.233,1.365-0.089c0.365,0.322,0.833,0.089,1.361,0.089c0.523,0,0.984,0.233,1.356-0.089
			c0.378,0.322,0.833,0.089,1.359,0.089c0.529,0,0.996,0.233,1.368-0.089c0.372,0.322,0.833,0.089,1.361,0.089
			c0.514,0,0.981,0.233,1.358-0.089c0.373,0.322,0.834,0.089,1.363,0.089c0.525,0,0.996,0.233,1.362-0.089
			c0.369,0.322,0.827,0.089,1.365,0.089c0.516,0,0.984,0.233,1.361-0.089c0.379,0.322,0.828,0.089,1.354,0.089
			c0.522,0,0.99,0.233,1.361-0.089c0.373,0.322,0.84,0.089,1.362,0.089c0.531,0,0.987,0.233,1.358-0.089
			c0.384,0.322,0.839,0.089,1.367,0.089c0.518,0,0.984,0.233,1.363-0.089c0.368,0.322,0.833,0.089,1.352,0.089
			c0.529,0,0.996,0.233,1.362-0.089c0.372,0.322,0.828,0.089,1.353,0.089c1.189,0,2.143-0.508,2.143-1.679
			c0-1.18-0.943-2.133-2.143-2.133c-0.249,0-0.489,0.061-0.713,0.139c-0.28-0.853-1.054-1.463-2.002-1.463
			c-0.233,0-0.437,0.055-0.652,0.125c-0.131-0.916-0.845-1.631-1.775-1.756c-0.191-0.996-1.018-1.752-2.048-1.752
			c-0.139,0-0.276,0.061-0.396,0.086c-0.384-0.565-1.002-0.953-1.74-0.953c-0.052,0-0.108,0.013-0.153,0.021
			c0.172-7.353,2.713-11.353,5.502-17.123c3.362-6.991,4.998-14.125,11.971-15.617c4.866,8.092,16.312,3.914,24.46,1.554
			C139.298,121.4,134.559,116.415,127.869,116.703z"/>
	</g>
</g>
<g display="none">
	<g display="inline">
		<path fill="#CA2D28" d="M100.287,2.815c54.148,0,98.038,43.898,98.038,98.038c0,54.155-43.89,98.044-98.038,98.044
			s-98.038-43.89-98.038-98.044C2.249,46.713,46.139,2.815,100.287,2.815z"/>
	</g>
	<g display="inline">
		<path fill="#FFFFFF" d="M140.168,62.615c-9.578-2.476-19.807-11.449-29.324-16.034c-3.3-1.584-8.063-4.161-11.679-3.663
			c-0.215,0.024-0.485-0.061-0.688,0c-14.842,4.159-23.96,16.166-38.261,19.697c-3.274,0.809-6.908,0.988-8.021,2.29
			c-2.207,2.607-1.002,9.345-0.233,15.819c3.876,32.801,15.638,55.551,37.123,71.489c2.414,1.787,7.882,6.744,11.455,6.641
			c1.476-0.046,4.052-1.786,5.964-2.973c24.372-15.266,38.126-40.659,42.152-75.385c0.601-5.112,2.123-13.224-0.441-15.813
			C146.726,63.19,142.877,63.316,140.168,62.615z M124.779,99.452c1.307,0,2.364,1.048,2.364,2.348c0,1.307-1.058,2.361-2.364,2.361
			c-1.301,0-2.354-1.055-2.354-2.361C122.425,100.5,123.479,99.452,124.779,99.452z M108.983,81.133
			c1.691,0,3.064,1.377,3.064,3.067c0,1.691-1.367,3.059-3.064,3.059c-1.69,0-3.067-1.368-3.067-3.059
			C105.916,82.51,107.293,81.133,108.983,81.133z M92.009,81.133c1.69,0,3.064,1.377,3.064,3.067c0,1.691-1.375,3.059-3.064,3.059
			c-1.691,0-3.062-1.368-3.062-3.059C88.947,82.51,90.312,81.133,92.009,81.133z M76.183,99.452c1.3,0,2.358,1.048,2.358,2.348
			c0,1.307-1.051,2.361-2.358,2.361s-2.361-1.055-2.361-2.361C73.809,100.5,74.87,99.452,76.183,99.452z M130.387,111.721
			c-0.05,0.233-0.806,0.534-1.021,0.378c-1.048-0.803-0.889-2.815-1.798-3.76c-0.385,3.941,0.839,9.502-0.738,12.247
			c-0.258,0-0.904,0-1.396,0c-0.238,0-0.389-0.695-0.467-1.115c0.216-5.057-0.541-6.112-0.379,0
			c-0.011,0.048-0.149,1.115-0.303,1.115c-0.511,0-1.268,0-1.556,0c-1.599-3.104-0.342-9.063-0.735-13.366
			c-1.69-0.901-3.334-2.819-4.825-4.353c-0.391-0.406-2.398-4.664-3.063-6.558c-0.457-1.319-0.996-2.554-1.765-3.56
			c1.033,4.771,3.047,8.571,4.083,13.366c-1.36,0-2.715,0-4.083,0c-0.419,4.652,0.517,11.661-0.744,14.471c-0.489,0-0.981,0-1.485,0
			c-1.343-2.499-0.061-10.584-0.869-14.362c-0.013-0.037-0.6-0.089-0.618-0.113c-0.599,4.593,0.207,11.875-1.101,14.463
			c-0.384,0-0.757,0-1.134,0c-1.673-2.695-0.552-9.837-1.11-14.463c-1.245-0.247-3.445,0.473-4.089-0.379
			c1.597-4.218,2.866-8.773,4.454-12.988c-2.714,2.816-2.007,7.694-5.376,9.404c-3.188-1.761-2.542-6.563-4.632-9.404
			c-0.667,8.673,1.371,21.76-1.109,27.837c-0.504,0-0.996,0-1.485,0c-1.896-3.674,0.166-11.322-1.116-15.593
			c-1.281,4.296,0.757,11.895-1.128,15.593c-0.492,0-0.987,0-1.485,0c-1.942-7.7,0.228-19.536-1.116-27.837
			c-1.608,6.431-4.633,11.442-9.281,14.854c0.415,2.93,1.811,4.86,2.232,7.787c-0.744,0-1.829,0-2.573,0
			c-0.114,1.869,0.225,4.759-0.4,5.201c-0.366,0-1.18-0.024-1.294-0.036c-0.212-0.022-0.553-0.13-0.553-1.079
			c-0.025-0.935,0.169-5.321-0.372-3.346c-0.132,1.471,0.347,3.563-0.372,4.461c-0.501,0-0.993,0-1.479,0
			c-0.75-1.115-0.212-3.501-0.377-5.201c-0.769-0.219-2.436,0.455-2.595-0.366c0.514-1.488,1.959-4.479,1.959-6.575
			c-0.059,0.688-0.612,1.869-1.15,2.646c-0.455,0.643-0.827,1.344-1.439,1.19c-0.162-0.037-0.851-0.219-0.492-1.351
			c1.476-2.453,2.204-7.457,8.165-6.311c3.705-1.405,5.19-5.841,6.677-9.773c1.642-4.399,3.375-8.205,10.191-6.557
			c0.418,0.107,1.774,0.875,1.989,1.149c1.559,2.039,2.592,5.78,3.269,8.725c1.155-1.325,1.589-3.222,2.051-5.008
			c0.389-1.509,1.21-2.973,2.103-3.926c0.414-0.437,1.847-1.116,2.163-1.18c11.864-2.675,8.568,13.883,16.109,16.57
			c4.015-1.009,6.004,1.029,6.904,3.566C130.048,109.341,130.646,110.602,130.387,111.721z"/>
	</g>
</g>
</svg>
