<?xml version="1.0" encoding="utf-8"?>
<!-- Generator: Adobe Illustrator 24.0.1, SVG Export Plug-In . SVG Version: 6.00 Build 0)  -->
<svg version="1.1" id="Layer_1" xmlns="http://www.w3.org/2000/svg" xmlns:xlink="http://www.w3.org/1999/xlink" x="0px" y="0px"
	 viewBox="0 0 460 36" style="enable-background:new 0 0 460 36;" xml:space="preserve">
<style type="text/css">
	.st0{fill:#FF6600;}
</style>
<path class="st0" d="M456.89-0.03c-0.66,0.96-1.22,1.93-1.97,2.87c-1.12,1.43-2.62,2.84-4.59,4.19c-2.15,1.46-4.96,2.81-8.7,4
	c-4.3,1.38-9.45,2.4-15.25,3.14c-4.68,0.58-9.45,0.96-14.41,1.21c-4.59,0.25-9.08,0.39-13.66,0.47c-4.21,0.08-8.33,0.11-12.54,0.11
	c-29.01,0-58.11,0-87.12,0c-5.43,0-10.76,0.03-16.19,0.14c-5.8,0.11-11.6,0.33-17.22,0.74c-4.59,0.36-8.89,0.85-12.91,1.57
	c-5.05,0.94-9.17,2.15-12.45,3.61c-2.99,1.35-5.24,2.84-6.92,4.35c-1.12,0.96-2.06,1.98-2.81,2.98c-0.09,0.06-0.09,0.11-0.19,0.17
	c-0.19,0-0.28,0-0.47,0s-0.37,0-0.65,0c-0.28-0.28-0.47-0.55-0.75-0.83c-1.4-1.54-3.09-3.03-5.43-4.49
	c-2.34-1.43-5.15-2.76-8.89-3.89c-4.49-1.38-9.83-2.34-15.91-3c-4.12-0.44-8.23-0.72-12.54-0.91c-4.59-0.22-9.26-0.33-13.94-0.39
	c-4.4-0.06-8.89-0.08-13.29-0.08c-28.63,0-57.17,0-85.81,0c-4.3,0-8.52-0.06-12.82-0.14c-6.18-0.14-12.16-0.41-18.15-0.91
	c-5.24-0.44-10.2-1.02-14.78-1.87c-6.55-1.21-11.51-2.81-15.25-4.79C8.47,6.73,6.6,5.16,5.29,3.54c-0.84-1.05-1.5-2.09-1.97-3.17
	c0-0.11-0.09-0.25-0.19-0.36C2.38,0.09,2.01,0.26,2.01,0.48C2.1,1.89,2.29,3.26,2.66,4.67c0.47,1.82,1.22,3.66,2.53,5.46
	c1.31,1.74,2.99,3.39,5.61,4.99c3.18,1.79,7.2,3.33,12.63,4.57c4.12,0.96,8.8,1.65,13.66,2.18c4.4,0.47,8.89,0.8,13.47,1.05
	c4.3,0.22,8.7,0.39,13.01,0.47c6.27,0.14,12.63,0.19,19,0.19c27.79,0,55.58,0,83.47,0c4.3,0,8.61,0.03,13.01,0.08
	c4.96,0.06,9.92,0.22,14.78,0.52c4.3,0.28,8.42,0.66,12.26,1.3c4.77,0.77,8.7,1.85,11.88,3.14c2.81,1.16,4.96,2.45,6.74,3.78
	c1.68,1.27,2.99,2.56,4.12,3.89c0.09,0.06,0.09,0.14,0.19,0.19c0.09,0,0.19,0,0.37,0c0.28,0,0.47,0,0.75,0
	c0.09-0.11,0.19-0.19,0.28-0.3c1.5-1.68,3.18-3.33,5.71-4.9c1.59-1.05,3.56-2.04,5.9-2.98c4.49-1.74,10.39-2.95,17.4-3.66
	c3.74-0.36,7.49-0.61,11.32-0.77c6.74-0.28,13.47-0.33,20.31-0.36c29.29,0,58.58,0,87.77,0c4.59,0,9.08,0,13.57-0.08
	c7.39-0.11,14.69-0.36,21.8-0.88c5.43-0.39,10.57-0.94,15.44-1.71c7.86-1.27,13.76-3.09,18.06-5.4c2.53-1.38,4.3-2.84,5.71-4.33
	c1.03-1.18,1.87-2.37,2.53-3.55s1.03-2.37,1.4-3.55c0.3-0.96,0.4-1.89,0.58-2.83c0-0.25,0-0.5,0.09-0.74
	c0.09-0.19-0.09-0.36-0.66-0.47C457.08,0.05,456.99-0.01,456.89-0.03z"/>
</svg>
