<?xml version="1.0" encoding="utf-8"?>
<!-- Generator: Adobe Illustrator 23.0.3, SVG Export Plug-In . SVG Version: 6.00 Build 0)  -->
<svg version="1.1" id="Capa_1" xmlns="http://www.w3.org/2000/svg" xmlns:xlink="http://www.w3.org/1999/xlink" x="0px" y="0px"
	 viewBox="0 0 118.5 58.86" style="enable-background:new 0 0 118.5 58.86;" xml:space="preserve">
<style type="text/css">
	.st0{fill:#F26722;}
</style>
<polygon class="st0" points="59.25,58.86 118.5,22.93 88.73,26.67 95.02,0 25.53,0 31.87,26.94 0,22.93 "/>
</svg>
