<?xml version="1.0" encoding="utf-8"?>
<!-- Generator: Adobe Illustrator 16.0.0, SVG Export Plug-In . SVG Version: 6.00 Build 0)  -->
<!DOCTYPE svg PUBLIC "-//W3C//DTD SVG 1.1//EN" "http://www.w3.org/Graphics/SVG/1.1/DTD/svg11.dtd">
<svg version="1.1" id="Capa_1" xmlns="http://www.w3.org/2000/svg" xmlns:xlink="http://www.w3.org/1999/xlink" x="0px" y="0px"
	 width="140px" height="140px" viewBox="0 0 140 140" enable-background="new 0 0 140 140" xml:space="preserve">
<g>
	<linearGradient id="SVGID_1_" gradientUnits="userSpaceOnUse" x1="2.3496" y1="70" x2="137.6504" y2="70">
		<stop  offset="0" style="stop-color:#FFFFFF"/>
		<stop  offset="1" style="stop-color:#C6C6C6"/>
	</linearGradient>
	<path fill="url(#SVGID_1_)" stroke="#B4B5B5" stroke-width="0.9443" stroke-miterlimit="10" d="M13.567,66.626L2.35,70.405
		l0.597,8.602l11.629,2.183c0.472,2.349,1.095,4.682,1.875,7.002l-9.091,7.793l3.787,7.743l11.714-2.435
		c1.483,2.25,3.111,4.358,4.851,6.327l-5.258,10.622l6.483,5.657l9.767-6.699c2.013,1.342,4.104,2.544,6.266,3.605l-0.887,11.841
		l8.141,2.793l6.528-9.901c2.595,0.525,5.228,0.883,7.882,1.042l3.776,11.241l8.579-0.601l2.176-11.648
		c2.346-0.479,4.674-1.104,6.983-1.893l7.776,9.116l7.724-3.791l-2.428-11.751c2.244-1.48,4.344-3.112,6.312-4.856l10.592,5.281
		l5.649-6.513l-6.688-9.786c1.334-2.023,2.538-4.116,3.599-6.277l11.809,0.885l2.775-8.154l-9.866-6.557
		c0.531-2.592,0.877-5.235,1.035-7.897l11.215-3.785l-0.595-8.603l-11.628-2.179c-0.472-2.353-1.096-4.685-1.884-6.999l9.1-7.804
		l-3.79-7.738l-11.719,2.437c-1.478-2.245-3.104-4.359-4.845-6.329l5.262-10.619l-6.487-5.664l-9.772,6.704
		c-2.005-1.343-4.099-2.539-6.258-3.614l0.886-11.83l-8.142-2.793l-6.529,9.902c-2.594-0.534-5.227-0.881-7.881-1.045L69.593,2.179
		l-8.579,0.594l-2.175,11.661c-2.347,0.474-4.675,1.104-6.986,1.883l-7.775-9.115l-7.722,3.796l2.429,11.746
		c-2.246,1.485-4.348,3.11-6.318,4.864l-10.595-5.279l-5.635,6.509l6.681,9.789c-1.338,2.02-2.538,4.112-3.599,6.276L7.51,44.008
		l-2.784,8.161l9.875,6.549C14.069,61.322,13.727,63.959,13.567,66.626 M70.001,17.545c28.898,0,52.322,23.485,52.322,52.455
		c0,28.968-23.424,52.458-52.322,52.458c-28.899,0-52.322-23.49-52.322-52.458C17.679,41.03,41.102,17.545,70.001,17.545"/>
	<linearGradient id="SVGID_2_" gradientUnits="userSpaceOnUse" x1="20.0488" y1="70.0015" x2="119.9521" y2="70.0015">
		<stop  offset="0" style="stop-color:#FFFFFF"/>
		<stop  offset="1" style="stop-color:#C6C6C6"/>
	</linearGradient>
	<path fill="url(#SVGID_2_)" stroke="#B4B5B5" stroke-width="0.9443" stroke-miterlimit="10" d="M70.001,19.92
		c27.542,0,49.951,22.464,49.951,50.08c0,27.612-22.409,50.083-49.951,50.083c-27.545,0-49.952-22.471-49.952-50.083
		C20.049,42.384,42.456,19.92,70.001,19.92z M70.001,114.321c24.377,0,44.209-19.882,44.209-44.321
		c0-24.44-19.832-44.321-44.209-44.321c-24.38,0-44.21,19.881-44.21,44.321C25.791,94.439,45.621,114.321,70.001,114.321z"/>
</g>
</svg>
