<?xml version="1.0" encoding="utf-8"?>
<!-- Generator: Adobe Illustrator 16.0.0, SVG Export Plug-In . SVG Version: 6.00 Build 0)  -->
<!DOCTYPE svg PUBLIC "-//W3C//DTD SVG 1.1//EN" "http://www.w3.org/Graphics/SVG/1.1/DTD/svg11.dtd">
<svg version="1.1" id="Capa_1" xmlns="http://www.w3.org/2000/svg" xmlns:xlink="http://www.w3.org/1999/xlink" x="0px" y="0px"
	 width="260px" height="260px" viewBox="0 0 260 260" enable-background="new 0 0 260 260" xml:space="preserve">
<g>
	
		<linearGradient id="SVGID_1_" gradientUnits="userSpaceOnUse" x1="222.6621" y1="-189.6953" x2="349.3281" y2="29.6967" gradientTransform="matrix(1 0 0 -1 -156 50)">
		<stop  offset="0" style="stop-color:#E4F1FE"/>
		<stop  offset="1" style="stop-color:#FFFFFF"/>
	</linearGradient>
	<path fill="url(#SVGID_1_)" d="M236.348,136.354l21.139-7.12l-1.125-16.208l-21.909-4.112c-0.892-4.427-2.067-8.825-3.536-13.193
		l17.134-14.687l-7.137-14.594l-22.078,4.589c-2.795-4.24-5.858-8.212-9.137-11.926l9.909-20.017l-12.219-10.66l-18.406,12.623
		c-3.791-2.529-7.738-4.792-11.807-6.794l1.67-22.313L163.505,6.68l-12.303,18.658c-4.89-0.991-9.851-1.662-14.853-1.963
		l-7.118-21.181l-16.167,1.129l-4.104,21.957c-4.414,0.901-8.801,2.079-13.161,3.563L81.151,11.665L66.6,18.807l4.574,22.145
		c-4.229,2.792-8.193,5.864-11.896,9.153l-19.96-9.95L28.672,52.424l12.6,18.447c-2.511,3.813-4.783,7.756-6.778,11.828
		l-22.259-1.666L7,96.398l18.597,12.357c-0.998,4.885-1.653,9.867-1.948,14.881l-21.135,7.136l1.12,16.207l21.915,4.107
		c0.888,4.434,2.063,8.831,3.546,13.188l-17.148,14.705l7.138,14.582l22.085-4.586c2.789,4.229,5.85,8.213,9.13,11.928
		l-9.908,20.011l12.225,10.674l18.408-12.636c3.786,2.529,7.729,4.783,11.801,6.809l-1.673,22.299l15.34,5.262l12.308-18.663
		c4.889,1.009,9.846,1.665,14.848,1.97l7.121,21.182l16.166-1.117l4.102-21.978c4.417-0.892,8.801-2.081,13.161-3.546l14.649,17.182
		l14.555-7.156l-4.578-22.137c4.234-2.798,8.193-5.859,11.908-9.168l19.967,9.947l10.621-12.266l-12.592-18.449
		c2.521-3.803,4.785-7.747,6.776-11.829l22.259,1.688l5.245-15.379l-18.61-12.343C235.4,146.352,236.051,141.382,236.348,136.354
		 M129.994,228.852c-54.454,0-98.596-44.26-98.596-98.854c0-54.589,44.142-98.854,98.596-98.854
		c54.461,0,98.604,44.264,98.604,98.854C228.6,184.592,184.455,228.852,129.994,228.852"/>
	
		<linearGradient id="SVGID_2_" gradientUnits="userSpaceOnUse" x1="238.8408" y1="-161.6616" x2="333.1372" y2="1.6645" gradientTransform="matrix(1 0 0 -1 -156 50)">
		<stop  offset="0" style="stop-color:#E4F1FE"/>
		<stop  offset="1" style="stop-color:#FFFFFF"/>
	</linearGradient>
	<path fill="url(#SVGID_2_)" d="M129.985,224.372c-51.901,0-94.128-42.332-94.128-94.375c0-52.032,42.227-94.376,94.128-94.376
		c51.912,0,94.135,42.344,94.135,94.376C224.12,182.04,181.896,224.372,129.985,224.372z M129.985,46.478
		c-45.933,0-83.307,37.467-83.307,83.52c0,46.057,37.375,83.521,83.307,83.521c45.94,0,83.315-37.465,83.315-83.521
		C213.301,83.945,175.926,46.478,129.985,46.478z"/>
</g>
</svg>
