<?xml version="1.0" encoding="utf-8"?>
<!-- Generator: Adobe Illustrator 23.0.3, SVG Export Plug-In . SVG Version: 6.00 Build 0)  -->
<svg version="1.1" id="Capa_1" xmlns="http://www.w3.org/2000/svg" xmlns:xlink="http://www.w3.org/1999/xlink" x="0px" y="0px"
	 viewBox="0 0 252 252" style="enable-background:new 0 0 252 252;" xml:space="preserve">
<style type="text/css">
	.st0{fill:#407995;}
	.st1{fill:url(#SVGID_1_);stroke:#989898;stroke-miterlimit:10;}
</style>
<circle class="st0" cx="126" cy="126" r="126"/>
<linearGradient id="SVGID_1_" gradientUnits="userSpaceOnUse" x1="22" y1="126" x2="230" y2="126">
	<stop  offset="0" style="stop-color:#E6E6E5"/>
	<stop  offset="1" style="stop-color:#FFFFFF"/>
</linearGradient>
<path class="st1" d="M126,22C68.56,22,22,68.56,22,126c0,23.53,7.82,45.24,21,62.67l-6.26,22.14l21.92-5.56
	C76.81,220.68,100.32,230,126,230c57.44,0,104-46.56,104-104S183.44,22,126,22z"/>
<g>
	<path class="st0" d="M110.09,149.87l-0.19-4.94c-0.57-9.69,2.66-19.57,11.21-29.83c6.08-7.22,11.02-13.3,11.02-19.76
		c0-6.65-4.37-11.02-13.87-11.4c-6.27,0-13.87,2.28-18.81,5.7l-6.46-20.71c6.84-3.99,18.24-7.79,31.73-7.79
		c25.08,0,36.48,13.87,36.48,29.64c0,14.44-8.93,23.94-16.15,31.92c-7.03,7.79-9.88,15.2-9.69,23.75v3.42H110.09z M105.15,176.09
		c0-10.07,7.03-17.29,16.91-17.29c10.26,0,16.91,7.22,17.1,17.29c0,9.88-6.84,17.29-17.1,17.29
		C111.99,193.38,105.15,185.97,105.15,176.09z"/>
</g>
</svg>
